12/11/2018 07:52:44: O serviço está no Windows Services.
12/11/2018 07:53:44: O serviço está configurado para o horário de 19:17.
12/11/2018 07:54:44: O serviço está configurado para o horário de 19:17.
12/11/2018 07:55:44: O serviço está configurado para o horário de 19:17.
12/11/2018 07:56:44: O serviço está configurado para o horário de 19:17.
12/11/2018 07:57:44: O serviço está configurado para o horário de 19:17.
12/11/2018 07:58:44: O serviço está configurado para o horário de 19:17.
12/11/2018 07:59:44: O serviço está configurado para o horário de 19:17.
12/11/2018 08:00:44: O serviço está configurado para o horário de 19:17.
12/11/2018 08:01:44: O serviço está configurado para o horário de 19:17.
12/11/2018 08:02:44: O serviço está configurado para o horário de 19:17.
12/11/2018 08:03:44: O serviço está configurado para o horário de 19:17.
12/11/2018 08:04:44: O serviço está configurado para o horário de 19:17.
12/11/2018 08:05:44: O serviço está configurado para o horário de 19:17.
12/11/2018 08:06:44: O serviço está configurado para o horário de 19:17.
12/11/2018 08:07:45: O serviço está configurado para o horário de 19:17.
12/11/2018 08:08:45: O serviço está configurado para o horário de 19:17.
12/11/2018 08:09:45: O serviço está configurado para o horário de 19:17.
12/11/2018 08:10:45: O serviço está configurado para o horário de 19:17.
12/11/2018 08:11:45: O serviço está configurado para o horário de 19:17.
12/11/2018 08:12:45: O serviço está configurado para o horário de 19:17.
12/11/2018 08:13:45: O serviço está configurado para o horário de 19:17.
12/11/2018 08:14:45: O serviço está configurado para o horário de 19:17.
12/11/2018 08:15:45: O serviço está configurado para o horário de 19:17.
12/11/2018 08:16:45: O serviço está configurado para o horário de 19:17.
12/11/2018 08:17:45: O serviço está configurado para o horário de 19:17.
12/11/2018 08:18:45: O serviço está configurado para o horário de 19:17.
12/11/2018 08:19:45: O serviço está configurado para o horário de 19:17.
12/11/2018 08:20:45: O serviço está configurado para o horário de 19:17.
12/11/2018 08:21:45: O serviço está configurado para o horário de 19:17.
12/11/2018 08:22:45: O serviço está configurado para o horário de 19:17.
12/11/2018 08:23:45: O serviço está configurado para o horário de 19:17.
12/11/2018 08:24:45: O serviço está configurado para o horário de 19:17.
12/11/2018 08:25:45: O serviço está configurado para o horário de 19:17.
12/11/2018 08:26:45: O serviço está configurado para o horário de 19:17.
12/11/2018 08:27:45: O serviço está configurado para o horário de 19:17.
12/11/2018 08:28:45: O serviço está configurado para o horário de 19:17.
12/11/2018 08:29:45: O serviço está configurado para o horário de 19:17.
12/11/2018 08:30:45: O serviço está configurado para o horário de 19:17.
12/11/2018 08:31:45: O serviço está configurado para o horário de 19:17.
12/11/2018 08:32:45: O serviço está configurado para o horário de 19:17.
12/11/2018 08:33:45: O serviço está configurado para o horário de 19:17.
12/11/2018 08:34:45: O serviço está configurado para o horário de 19:17.
12/11/2018 08:35:45: O serviço está configurado para o horário de 19:17.
12/11/2018 08:36:45: O serviço está configurado para o horário de 19:17.
12/11/2018 08:37:45: O serviço está configurado para o horário de 19:17.
12/11/2018 08:38:45: O serviço está configurado para o horário de 19:17.
12/11/2018 08:39:45: O serviço está configurado para o horário de 19:17.
12/11/2018 08:40:45: O serviço está configurado para o horário de 19:17.
12/11/2018 08:41:45: O serviço está configurado para o horário de 19:17.
12/11/2018 08:42:45: O serviço está configurado para o horário de 19:17.
12/11/2018 08:43:45: O serviço está configurado para o horário de 19:17.
12/11/2018 08:44:45: O serviço está configurado para o horário de 19:17.
12/11/2018 08:45:45: O serviço está configurado para o horário de 19:17.
12/11/2018 08:46:45: O serviço está configurado para o horário de 19:17.
12/11/2018 08:47:45: O serviço está configurado para o horário de 19:17.
12/11/2018 08:48:45: O serviço está configurado para o horário de 19:17.
12/11/2018 08:49:45: O serviço está configurado para o horário de 19:17.
12/11/2018 08:50:45: O serviço está configurado para o horário de 19:17.
12/11/2018 08:51:45: O serviço está configurado para o horário de 19:17.
12/11/2018 08:52:45: O serviço está configurado para o horário de 19:17.
12/11/2018 08:53:45: O serviço está configurado para o horário de 19:17.
12/11/2018 08:54:45: O serviço está configurado para o horário de 19:17.
12/11/2018 08:55:45: O serviço está configurado para o horário de 19:17.
12/11/2018 08:56:45: O serviço está configurado para o horário de 19:17.
12/11/2018 08:57:45: O serviço está configurado para o horário de 19:17.
12/11/2018 08:58:45: O serviço está configurado para o horário de 19:17.
12/11/2018 08:59:45: O serviço está configurado para o horário de 19:17.
12/11/2018 09:00:45: O serviço está configurado para o horário de 19:17.
12/11/2018 09:01:45: O serviço está configurado para o horário de 19:17.
12/11/2018 09:02:45: O serviço está configurado para o horário de 19:17.
12/11/2018 09:03:45: O serviço está configurado para o horário de 19:17.
12/11/2018 09:04:45: O serviço está configurado para o horário de 19:17.
12/11/2018 09:05:45: O serviço está configurado para o horário de 19:17.
12/11/2018 09:06:45: O serviço está configurado para o horário de 19:17.
12/11/2018 09:07:45: O serviço está configurado para o horário de 19:17.
12/11/2018 09:08:45: O serviço está configurado para o horário de 19:17.
12/11/2018 09:09:45: O serviço está configurado para o horário de 19:17.
12/11/2018 09:10:45: O serviço está configurado para o horário de 19:17.
12/11/2018 09:11:45: O serviço está configurado para o horário de 19:17.
12/11/2018 09:12:45: O serviço está configurado para o horário de 19:17.
12/11/2018 09:13:45: O serviço está configurado para o horário de 19:17.
12/11/2018 09:14:45: O serviço está configurado para o horário de 19:17.
12/11/2018 09:15:45: O serviço está configurado para o horário de 19:17.
12/11/2018 09:16:45: O serviço está configurado para o horário de 19:17.
12/11/2018 09:17:45: O serviço está configurado para o horário de 19:17.
12/11/2018 09:18:45: O serviço está configurado para o horário de 19:17.
12/11/2018 09:19:45: O serviço está configurado para o horário de 19:17.
12/11/2018 09:20:45: O serviço está configurado para o horário de 19:17.
12/11/2018 09:21:46: O serviço está configurado para o horário de 19:17.
12/11/2018 09:22:46: O serviço está configurado para o horário de 19:17.
12/11/2018 09:23:46: O serviço está configurado para o horário de 19:17.
12/11/2018 09:24:46: O serviço está configurado para o horário de 19:17.
12/11/2018 09:25:46: O serviço está configurado para o horário de 19:17.
12/11/2018 09:26:46: O serviço está configurado para o horário de 19:17.
12/11/2018 09:27:46: O serviço está configurado para o horário de 19:17.
12/11/2018 09:28:46: O serviço está configurado para o horário de 19:17.
12/11/2018 09:29:46: O serviço está configurado para o horário de 19:17.
12/11/2018 09:30:46: O serviço está configurado para o horário de 19:17.
12/11/2018 09:31:46: O serviço está configurado para o horário de 19:17.
12/11/2018 09:32:46: O serviço está configurado para o horário de 19:17.
12/11/2018 09:33:46: O serviço está configurado para o horário de 19:17.
12/11/2018 09:34:46: O serviço está configurado para o horário de 19:17.
12/11/2018 09:35:46: O serviço está configurado para o horário de 19:17.
12/11/2018 09:36:46: O serviço está configurado para o horário de 19:17.
12/11/2018 09:37:46: O serviço está configurado para o horário de 19:17.
12/11/2018 09:38:46: O serviço está configurado para o horário de 19:17.
12/11/2018 09:39:46: O serviço está configurado para o horário de 19:17.
12/11/2018 09:40:46: O serviço está configurado para o horário de 19:17.
12/11/2018 09:41:46: O serviço está configurado para o horário de 19:17.
12/11/2018 09:42:46: O serviço está configurado para o horário de 19:17.
12/11/2018 09:43:46: O serviço está configurado para o horário de 19:17.
12/11/2018 09:44:46: O serviço está configurado para o horário de 19:17.
12/11/2018 09:45:46: O serviço está configurado para o horário de 19:17.
12/11/2018 09:46:46: O serviço está configurado para o horário de 19:17.
12/11/2018 09:47:46: O serviço está configurado para o horário de 19:17.
12/11/2018 09:48:46: O serviço está configurado para o horário de 19:17.
12/11/2018 09:49:46: O serviço está configurado para o horário de 19:17.
12/11/2018 09:50:46: O serviço está configurado para o horário de 19:17.
12/11/2018 09:51:46: O serviço está configurado para o horário de 19:17.
12/11/2018 09:52:46: O serviço está configurado para o horário de 19:17.
12/11/2018 09:53:46: O serviço está configurado para o horário de 19:17.
12/11/2018 09:54:46: O serviço está configurado para o horário de 19:17.
12/11/2018 09:55:46: O serviço está configurado para o horário de 19:17.
12/11/2018 09:56:46: O serviço está configurado para o horário de 19:17.
12/11/2018 09:57:46: O serviço está configurado para o horário de 19:17.
12/11/2018 09:58:46: O serviço está configurado para o horário de 19:17.
12/11/2018 09:59:46: O serviço está configurado para o horário de 19:17.
12/11/2018 10:00:46: O serviço está configurado para o horário de 19:17.
12/11/2018 10:01:46: O serviço está configurado para o horário de 19:17.
12/11/2018 10:02:46: O serviço está configurado para o horário de 19:17.
12/11/2018 10:03:46: O serviço está configurado para o horário de 19:17.
12/11/2018 10:04:46: O serviço está configurado para o horário de 19:17.
12/11/2018 10:05:46: O serviço está configurado para o horário de 19:17.
12/11/2018 10:06:46: O serviço está configurado para o horário de 19:17.
12/11/2018 10:07:46: O serviço está configurado para o horário de 19:17.
12/11/2018 10:08:46: O serviço está configurado para o horário de 19:17.
12/11/2018 10:09:46: O serviço está configurado para o horário de 19:17.
12/11/2018 10:10:46: O serviço está configurado para o horário de 19:17.
12/11/2018 10:11:46: O serviço está configurado para o horário de 19:17.
12/11/2018 10:12:46: O serviço está configurado para o horário de 19:17.
12/11/2018 10:13:46: O serviço está configurado para o horário de 19:17.
12/11/2018 10:14:46: O serviço está configurado para o horário de 19:17.
12/11/2018 10:15:46: O serviço está configurado para o horário de 19:17.
12/11/2018 10:16:46: O serviço está configurado para o horário de 19:17.
12/11/2018 10:17:46: O serviço está configurado para o horário de 19:17.
12/11/2018 10:18:46: O serviço está configurado para o horário de 19:17.
12/11/2018 10:19:46: O serviço está configurado para o horário de 19:17.
12/11/2018 10:20:46: O serviço está configurado para o horário de 19:17.
12/11/2018 10:21:46: O serviço está configurado para o horário de 19:17.
12/11/2018 10:22:46: O serviço está configurado para o horário de 19:17.
12/11/2018 10:23:46: O serviço está configurado para o horário de 19:17.
12/11/2018 10:24:46: O serviço está configurado para o horário de 19:17.
12/11/2018 10:25:46: O serviço está configurado para o horário de 19:17.
12/11/2018 10:26:46: O serviço está configurado para o horário de 19:17.
12/11/2018 10:27:46: O serviço está configurado para o horário de 19:17.
12/11/2018 10:28:46: O serviço está configurado para o horário de 19:17.
12/11/2018 10:29:46: O serviço está configurado para o horário de 19:17.
12/11/2018 10:30:46: O serviço está configurado para o horário de 19:17.
12/11/2018 10:31:46: O serviço está configurado para o horário de 19:17.
12/11/2018 10:32:46: O serviço está configurado para o horário de 19:17.
12/11/2018 10:33:46: O serviço está configurado para o horário de 19:17.
12/11/2018 10:34:47: O serviço está configurado para o horário de 19:17.
12/11/2018 10:35:47: O serviço está configurado para o horário de 19:17.
12/11/2018 10:36:47: O serviço está configurado para o horário de 19:17.
12/11/2018 10:37:47: O serviço está configurado para o horário de 19:17.
12/11/2018 10:38:47: O serviço está configurado para o horário de 19:17.
12/11/2018 10:39:47: O serviço está configurado para o horário de 19:17.
12/11/2018 10:40:47: O serviço está configurado para o horário de 19:17.
12/11/2018 10:41:47: O serviço está configurado para o horário de 19:17.
12/11/2018 10:42:47: O serviço está configurado para o horário de 19:17.
12/11/2018 10:43:47: O serviço está configurado para o horário de 19:17.
12/11/2018 10:44:47: O serviço está configurado para o horário de 19:17.
12/11/2018 10:45:47: O serviço está configurado para o horário de 19:17.
12/11/2018 10:46:47: O serviço está configurado para o horário de 19:17.
12/11/2018 10:47:47: O serviço está configurado para o horário de 19:17.
12/11/2018 10:48:47: O serviço está configurado para o horário de 19:17.
12/11/2018 10:49:47: O serviço está configurado para o horário de 19:17.
12/11/2018 10:50:47: O serviço está configurado para o horário de 19:17.
12/11/2018 10:51:47: O serviço está configurado para o horário de 19:17.
12/11/2018 10:52:47: O serviço está configurado para o horário de 19:17.
12/11/2018 10:53:47: O serviço está configurado para o horário de 19:17.
12/11/2018 10:54:47: O serviço está configurado para o horário de 19:17.
12/11/2018 10:55:47: O serviço está configurado para o horário de 19:17.
12/11/2018 10:56:47: O serviço está configurado para o horário de 19:17.
12/11/2018 10:57:47: O serviço está configurado para o horário de 19:17.
12/11/2018 10:58:47: O serviço está configurado para o horário de 19:17.
12/11/2018 10:59:47: O serviço está configurado para o horário de 19:17.
12/11/2018 11:00:47: O serviço está configurado para o horário de 19:17.
12/11/2018 11:01:47: O serviço está configurado para o horário de 19:17.
12/11/2018 11:02:47: O serviço está configurado para o horário de 19:17.
12/11/2018 11:03:47: O serviço está configurado para o horário de 19:17.
12/11/2018 11:04:47: O serviço está configurado para o horário de 19:17.
12/11/2018 11:05:47: O serviço está configurado para o horário de 19:17.
12/11/2018 11:06:47: O serviço está configurado para o horário de 19:17.
12/11/2018 11:07:47: O serviço está configurado para o horário de 19:17.
12/11/2018 11:08:47: O serviço está configurado para o horário de 19:17.
12/11/2018 11:09:47: O serviço está configurado para o horário de 19:17.
12/11/2018 11:10:47: O serviço está configurado para o horário de 19:17.
12/11/2018 11:11:47: O serviço está configurado para o horário de 19:17.
12/11/2018 11:12:47: O serviço está configurado para o horário de 19:17.
12/11/2018 11:13:47: O serviço está configurado para o horário de 19:17.
12/11/2018 11:14:47: O serviço está configurado para o horário de 19:17.
12/11/2018 11:15:47: O serviço está configurado para o horário de 19:17.
12/11/2018 11:16:47: O serviço está configurado para o horário de 19:17.
12/11/2018 11:17:47: O serviço está configurado para o horário de 19:17.
12/11/2018 11:18:47: O serviço está configurado para o horário de 19:17.
12/11/2018 11:19:47: O serviço está configurado para o horário de 19:17.
12/11/2018 11:20:47: O serviço está configurado para o horário de 19:17.
12/11/2018 11:21:47: O serviço está configurado para o horário de 19:17.
12/11/2018 11:22:47: O serviço está configurado para o horário de 19:17.
12/11/2018 11:23:47: O serviço está configurado para o horário de 19:17.
12/11/2018 11:24:47: O serviço está configurado para o horário de 19:17.
12/11/2018 11:25:47: O serviço está configurado para o horário de 19:17.
12/11/2018 11:26:47: O serviço está configurado para o horário de 19:17.
12/11/2018 11:27:47: O serviço está configurado para o horário de 19:17.
12/11/2018 11:28:47: O serviço está configurado para o horário de 19:17.
12/11/2018 11:29:47: O serviço está configurado para o horário de 19:17.
12/11/2018 11:30:47: O serviço está configurado para o horário de 19:17.
12/11/2018 11:31:47: O serviço está configurado para o horário de 19:17.
12/11/2018 11:32:47: O serviço está configurado para o horário de 19:17.
12/11/2018 11:33:47: O serviço está configurado para o horário de 19:17.
12/11/2018 11:34:47: O serviço está configurado para o horário de 19:17.
12/11/2018 11:35:47: O serviço está configurado para o horário de 19:17.
12/11/2018 11:36:47: O serviço está configurado para o horário de 19:17.
12/11/2018 11:37:47: O serviço está configurado para o horário de 19:17.
12/11/2018 11:38:47: O serviço está configurado para o horário de 19:17.
12/11/2018 11:39:47: O serviço está configurado para o horário de 19:17.
12/11/2018 11:40:47: O serviço está configurado para o horário de 19:17.
12/11/2018 11:41:47: O serviço está configurado para o horário de 19:17.
12/11/2018 11:42:47: O serviço está configurado para o horário de 19:17.
12/11/2018 11:43:47: O serviço está configurado para o horário de 19:17.
12/11/2018 11:44:47: O serviço está configurado para o horário de 19:17.
12/11/2018 11:45:47: O serviço está configurado para o horário de 19:17.
12/11/2018 11:46:47: O serviço está configurado para o horário de 19:17.
12/11/2018 11:47:47: O serviço está configurado para o horário de 19:17.
12/11/2018 11:48:48: O serviço está configurado para o horário de 19:17.
12/11/2018 11:49:48: O serviço está configurado para o horário de 19:17.
12/11/2018 11:50:48: O serviço está configurado para o horário de 19:17.
12/11/2018 11:51:48: O serviço está configurado para o horário de 19:17.
12/11/2018 11:52:48: O serviço está configurado para o horário de 19:17.
12/11/2018 11:53:48: O serviço está configurado para o horário de 19:17.
12/11/2018 11:54:48: O serviço está configurado para o horário de 19:17.
12/11/2018 11:55:48: O serviço está configurado para o horário de 19:17.
12/11/2018 11:56:48: O serviço está configurado para o horário de 19:17.
12/11/2018 11:57:48: O serviço está configurado para o horário de 19:17.
12/11/2018 11:58:48: O serviço está configurado para o horário de 19:17.
12/11/2018 11:59:48: O serviço está configurado para o horário de 19:17.
12/11/2018 12:00:48: O serviço está configurado para o horário de 19:17.
12/11/2018 12:01:48: O serviço está configurado para o horário de 19:17.
12/11/2018 12:02:48: O serviço está configurado para o horário de 19:17.
12/11/2018 12:03:48: O serviço está configurado para o horário de 19:17.
12/11/2018 12:04:48: O serviço está configurado para o horário de 19:17.
12/11/2018 12:05:48: O serviço está configurado para o horário de 19:17.
12/11/2018 12:06:48: O serviço está configurado para o horário de 19:17.
12/11/2018 12:07:48: O serviço está configurado para o horário de 19:17.
12/11/2018 12:08:48: O serviço está configurado para o horário de 19:17.
12/11/2018 12:09:48: O serviço está configurado para o horário de 19:17.
12/11/2018 12:10:48: O serviço está configurado para o horário de 19:17.
12/11/2018 12:11:48: O serviço está configurado para o horário de 19:17.
12/11/2018 12:12:48: O serviço está configurado para o horário de 19:17.
12/11/2018 12:13:48: O serviço está configurado para o horário de 19:17.
12/11/2018 12:14:48: O serviço está configurado para o horário de 19:17.
12/11/2018 12:15:48: O serviço está configurado para o horário de 19:17.
12/11/2018 12:16:48: O serviço está configurado para o horário de 19:17.
12/11/2018 12:17:48: O serviço está configurado para o horário de 19:17.
12/11/2018 12:18:48: O serviço está configurado para o horário de 19:17.
12/11/2018 12:19:48: O serviço está configurado para o horário de 19:17.
12/11/2018 12:20:48: O serviço está configurado para o horário de 19:17.
12/11/2018 12:21:48: O serviço está configurado para o horário de 19:17.
12/11/2018 12:22:48: O serviço está configurado para o horário de 19:17.
12/11/2018 12:23:48: O serviço está configurado para o horário de 19:17.
12/11/2018 12:24:48: O serviço está configurado para o horário de 19:17.
12/11/2018 12:25:48: O serviço está configurado para o horário de 19:17.
12/11/2018 12:26:48: O serviço está configurado para o horário de 19:17.
12/11/2018 12:27:48: O serviço está configurado para o horário de 19:17.
12/11/2018 12:28:48: O serviço está configurado para o horário de 19:17.
12/11/2018 12:29:48: O serviço está configurado para o horário de 19:17.
12/11/2018 12:30:48: O serviço está configurado para o horário de 19:17.
12/11/2018 12:31:48: O serviço está configurado para o horário de 19:17.
12/11/2018 12:32:48: O serviço está configurado para o horário de 19:17.
12/11/2018 12:33:48: O serviço está configurado para o horário de 19:17.
12/11/2018 12:34:48: O serviço está configurado para o horário de 19:17.
12/11/2018 12:35:48: O serviço está configurado para o horário de 19:17.
12/11/2018 12:36:48: O serviço está configurado para o horário de 19:17.
12/11/2018 12:37:48: O serviço está configurado para o horário de 19:17.
12/11/2018 12:38:48: O serviço está configurado para o horário de 19:17.
12/11/2018 12:39:48: O serviço está configurado para o horário de 19:17.
12/11/2018 12:40:48: O serviço está configurado para o horário de 19:17.
12/11/2018 12:41:48: O serviço está configurado para o horário de 19:17.
12/11/2018 12:42:48: O serviço está configurado para o horário de 19:17.
12/11/2018 12:43:48: O serviço está configurado para o horário de 19:17.
12/11/2018 12:44:48: O serviço está configurado para o horário de 19:17.
12/11/2018 12:45:48: O serviço está configurado para o horário de 19:17.
12/11/2018 12:46:48: O serviço está configurado para o horário de 19:17.
12/11/2018 12:47:48: O serviço está configurado para o horário de 19:17.
12/11/2018 12:48:48: O serviço está configurado para o horário de 19:17.
12/11/2018 12:49:48: O serviço está configurado para o horário de 19:17.
12/11/2018 12:50:48: O serviço está configurado para o horário de 19:17.
12/11/2018 12:51:48: O serviço está configurado para o horário de 19:17.
12/11/2018 12:52:48: O serviço está configurado para o horário de 19:17.
12/11/2018 12:53:48: O serviço está configurado para o horário de 19:17.
12/11/2018 12:54:48: O serviço está configurado para o horário de 19:17.
12/11/2018 12:55:48: O serviço está configurado para o horário de 19:17.
12/11/2018 12:56:48: O serviço está configurado para o horário de 19:17.
12/11/2018 12:57:48: O serviço está configurado para o horário de 19:17.
12/11/2018 12:58:48: O serviço está configurado para o horário de 19:17.
12/11/2018 12:59:48: O serviço está configurado para o horário de 19:17.
12/11/2018 13:00:48: O serviço está configurado para o horário de 19:17.
12/11/2018 13:01:48: O serviço está configurado para o horário de 19:17.
12/11/2018 13:02:49: O serviço está configurado para o horário de 19:17.
12/11/2018 13:03:49: O serviço está configurado para o horário de 19:17.
12/11/2018 13:04:49: O serviço está configurado para o horário de 19:17.
12/11/2018 13:05:49: O serviço está configurado para o horário de 19:17.
12/11/2018 13:06:49: O serviço está configurado para o horário de 19:17.
12/11/2018 13:07:49: O serviço está configurado para o horário de 19:17.
12/11/2018 13:08:49: O serviço está configurado para o horário de 19:17.
12/11/2018 13:09:49: O serviço está configurado para o horário de 19:17.
12/11/2018 13:10:49: O serviço está configurado para o horário de 19:17.
12/11/2018 13:11:49: O serviço está configurado para o horário de 19:17.
12/11/2018 13:12:49: O serviço está configurado para o horário de 19:17.
12/11/2018 13:13:49: O serviço está configurado para o horário de 19:17.
12/11/2018 13:14:49: O serviço está configurado para o horário de 19:17.
12/11/2018 13:15:49: O serviço está configurado para o horário de 19:17.
12/11/2018 13:16:49: O serviço está configurado para o horário de 19:17.
12/11/2018 13:17:49: O serviço está configurado para o horário de 19:17.
12/11/2018 13:18:49: O serviço está configurado para o horário de 19:17.
12/11/2018 13:19:49: O serviço está configurado para o horário de 19:17.
12/11/2018 13:20:49: O serviço está configurado para o horário de 19:17.
12/11/2018 13:21:49: O serviço está configurado para o horário de 19:17.
12/11/2018 13:22:49: O serviço está configurado para o horário de 19:17.
12/11/2018 13:23:49: O serviço está configurado para o horário de 19:17.
12/11/2018 13:24:49: O serviço está configurado para o horário de 19:17.
12/11/2018 13:25:49: O serviço está configurado para o horário de 19:17.
12/11/2018 13:26:49: O serviço está configurado para o horário de 19:17.
12/11/2018 13:27:49: O serviço está configurado para o horário de 19:17.
12/11/2018 13:28:49: O serviço está configurado para o horário de 19:17.
12/11/2018 13:29:49: O serviço está configurado para o horário de 19:17.
12/11/2018 13:30:49: O serviço está configurado para o horário de 19:17.
12/11/2018 13:31:49: O serviço está configurado para o horário de 19:17.
12/11/2018 13:32:49: O serviço está configurado para o horário de 19:17.
12/11/2018 13:33:49: O serviço está configurado para o horário de 19:17.
12/11/2018 13:34:49: O serviço está configurado para o horário de 19:17.
12/11/2018 13:35:49: O serviço está configurado para o horário de 19:17.
12/11/2018 13:36:49: O serviço está configurado para o horário de 19:17.
12/11/2018 13:37:49: O serviço está configurado para o horário de 19:17.
12/11/2018 13:38:49: O serviço está configurado para o horário de 19:17.
12/11/2018 13:39:49: O serviço está configurado para o horário de 19:17.
12/11/2018 13:40:49: O serviço está configurado para o horário de 19:17.
12/11/2018 13:41:49: O serviço está configurado para o horário de 19:17.
12/11/2018 13:42:49: O serviço está configurado para o horário de 19:17.
12/11/2018 13:43:49: O serviço está configurado para o horário de 19:17.
12/11/2018 13:44:49: O serviço está configurado para o horário de 19:17.
12/11/2018 13:45:49: O serviço está configurado para o horário de 19:17.
12/11/2018 13:46:49: O serviço está configurado para o horário de 19:17.
12/11/2018 13:47:49: O serviço está configurado para o horário de 19:17.
12/11/2018 13:48:49: O serviço está configurado para o horário de 19:17.
12/11/2018 13:49:49: O serviço está configurado para o horário de 19:17.
12/11/2018 13:50:49: O serviço está configurado para o horário de 19:17.
12/11/2018 13:51:49: O serviço está configurado para o horário de 19:17.
12/11/2018 13:52:49: O serviço está configurado para o horário de 19:17.
12/11/2018 13:53:49: O serviço está configurado para o horário de 19:17.
12/11/2018 13:54:49: O serviço está configurado para o horário de 19:17.
12/11/2018 13:55:49: O serviço está configurado para o horário de 19:17.
12/11/2018 13:56:49: O serviço está configurado para o horário de 19:17.
12/11/2018 13:57:49: O serviço está configurado para o horário de 19:17.
12/11/2018 13:58:49: O serviço está configurado para o horário de 19:17.
12/11/2018 13:59:49: O serviço está configurado para o horário de 19:17.
12/11/2018 14:00:49: O serviço está configurado para o horário de 19:17.
12/11/2018 14:01:49: O serviço está configurado para o horário de 19:17.
12/11/2018 14:02:49: O serviço está configurado para o horário de 19:17.
12/11/2018 14:03:49: O serviço está configurado para o horário de 19:17.
12/11/2018 14:04:49: O serviço está configurado para o horário de 19:17.
12/11/2018 14:05:49: O serviço está configurado para o horário de 19:17.
12/11/2018 14:06:49: O serviço está configurado para o horário de 19:17.
12/11/2018 14:07:49: O serviço está configurado para o horário de 19:17.
12/11/2018 14:08:49: O serviço está configurado para o horário de 19:17.
12/11/2018 14:09:49: O serviço está configurado para o horário de 19:17.
12/11/2018 14:10:49: O serviço está configurado para o horário de 19:17.
12/11/2018 14:11:49: O serviço está configurado para o horário de 19:17.
12/11/2018 14:12:49: O serviço está configurado para o horário de 19:17.
12/11/2018 14:13:49: O serviço está configurado para o horário de 19:17.
12/11/2018 14:14:49: O serviço está configurado para o horário de 19:17.
12/11/2018 14:15:50: O serviço está configurado para o horário de 19:17.
12/11/2018 14:16:50: O serviço está configurado para o horário de 19:17.
12/11/2018 14:17:50: O serviço está configurado para o horário de 19:17.
12/11/2018 14:18:50: O serviço está configurado para o horário de 19:17.
12/11/2018 14:19:50: O serviço está configurado para o horário de 19:17.
12/11/2018 14:20:50: O serviço está configurado para o horário de 19:17.
12/11/2018 14:21:50: O serviço está configurado para o horário de 19:17.
12/11/2018 14:22:50: O serviço está configurado para o horário de 19:17.
12/11/2018 14:23:50: O serviço está configurado para o horário de 19:17.
12/11/2018 14:24:50: O serviço está configurado para o horário de 19:17.
12/11/2018 14:25:50: O serviço está configurado para o horário de 19:17.
12/11/2018 14:26:50: O serviço está configurado para o horário de 19:17.
12/11/2018 14:27:50: O serviço está configurado para o horário de 19:17.
12/11/2018 14:28:50: O serviço está configurado para o horário de 19:17.
12/11/2018 14:29:50: O serviço está configurado para o horário de 19:17.
12/11/2018 14:30:50: O serviço está configurado para o horário de 19:17.
12/11/2018 14:31:50: O serviço está configurado para o horário de 19:17.
12/11/2018 14:32:50: O serviço está configurado para o horário de 19:17.
12/11/2018 14:33:50: O serviço está configurado para o horário de 19:17.
12/11/2018 14:34:50: O serviço está configurado para o horário de 19:17.
12/11/2018 14:35:50: O serviço está configurado para o horário de 19:17.
12/11/2018 14:36:50: O serviço está configurado para o horário de 19:17.
12/11/2018 14:37:50: O serviço está configurado para o horário de 19:17.
12/11/2018 14:38:50: O serviço está configurado para o horário de 19:17.
12/11/2018 14:39:50: O serviço está configurado para o horário de 19:17.
12/11/2018 14:40:50: O serviço está configurado para o horário de 19:17.
12/11/2018 14:41:50: O serviço está configurado para o horário de 19:17.
12/11/2018 14:42:50: O serviço está configurado para o horário de 19:17.
12/11/2018 14:43:50: O serviço está configurado para o horário de 19:17.
12/11/2018 14:44:50: O serviço está configurado para o horário de 19:17.
12/11/2018 14:45:50: O serviço está configurado para o horário de 19:17.
12/11/2018 14:46:50: O serviço está configurado para o horário de 19:17.
12/11/2018 14:47:50: O serviço está configurado para o horário de 19:17.
12/11/2018 14:48:50: O serviço está configurado para o horário de 19:17.
12/11/2018 14:49:50: O serviço está configurado para o horário de 19:17.
12/11/2018 14:50:50: O serviço está configurado para o horário de 19:17.
12/11/2018 14:51:50: O serviço está configurado para o horário de 19:17.
12/11/2018 14:52:50: O serviço está configurado para o horário de 19:17.
12/11/2018 14:53:50: O serviço está configurado para o horário de 19:17.
12/11/2018 14:54:50: O serviço está configurado para o horário de 19:17.
12/11/2018 14:55:50: O serviço está configurado para o horário de 19:17.
12/11/2018 14:56:50: O serviço está configurado para o horário de 19:17.
12/11/2018 14:57:50: O serviço está configurado para o horário de 19:17.
12/11/2018 14:58:50: O serviço está configurado para o horário de 19:17.
12/11/2018 14:59:50: O serviço está configurado para o horário de 19:17.
12/11/2018 15:00:50: O serviço está configurado para o horário de 19:17.
12/11/2018 15:01:50: O serviço está configurado para o horário de 19:17.
12/11/2018 15:02:50: O serviço está configurado para o horário de 19:17.
12/11/2018 15:03:50: O serviço está configurado para o horário de 19:17.
12/11/2018 15:04:50: O serviço está configurado para o horário de 19:17.
12/11/2018 15:05:50: O serviço está configurado para o horário de 19:17.
12/11/2018 15:06:50: O serviço está configurado para o horário de 19:17.
12/11/2018 15:07:50: O serviço está configurado para o horário de 19:17.
12/11/2018 15:08:50: O serviço está configurado para o horário de 19:17.
12/11/2018 15:09:50: O serviço está configurado para o horário de 19:17.
12/11/2018 15:10:50: O serviço está configurado para o horário de 19:17.
12/11/2018 15:11:50: O serviço está configurado para o horário de 19:17.
12/11/2018 15:12:50: O serviço está configurado para o horário de 19:17.
12/11/2018 15:13:50: O serviço está configurado para o horário de 19:17.
12/11/2018 15:14:50: O serviço está configurado para o horário de 19:17.
12/11/2018 15:15:50: O serviço está configurado para o horário de 19:17.
12/11/2018 15:16:50: O serviço está configurado para o horário de 19:17.
12/11/2018 15:17:50: O serviço está configurado para o horário de 19:17.
12/11/2018 15:18:50: O serviço está configurado para o horário de 19:17.
12/11/2018 15:19:50: O serviço está configurado para o horário de 19:17.
12/11/2018 15:20:50: O serviço está configurado para o horário de 19:17.
12/11/2018 15:21:50: O serviço está configurado para o horário de 19:17.
12/11/2018 15:22:50: O serviço está configurado para o horário de 19:17.
12/11/2018 15:23:50: O serviço está configurado para o horário de 19:17.
12/11/2018 15:24:50: O serviço está configurado para o horário de 19:17.
12/11/2018 15:25:50: O serviço está configurado para o horário de 19:17.
12/11/2018 15:26:50: O serviço está configurado para o horário de 19:17.
12/11/2018 15:27:50: O serviço está configurado para o horário de 19:17.
12/11/2018 15:28:50: O serviço está configurado para o horário de 19:17.
12/11/2018 15:29:51: O serviço está configurado para o horário de 19:17.
12/11/2018 15:30:51: O serviço está configurado para o horário de 19:17.
12/11/2018 15:31:51: O serviço está configurado para o horário de 19:17.
12/11/2018 15:32:51: O serviço está configurado para o horário de 19:17.
12/11/2018 15:33:51: O serviço está configurado para o horário de 19:17.
12/11/2018 15:34:51: O serviço está configurado para o horário de 19:17.
12/11/2018 15:35:51: O serviço está configurado para o horário de 19:17.
12/11/2018 15:36:51: O serviço está configurado para o horário de 19:17.
12/11/2018 15:37:51: O serviço está configurado para o horário de 19:17.
12/11/2018 15:38:51: O serviço está configurado para o horário de 19:17.
12/11/2018 15:39:51: O serviço está configurado para o horário de 19:17.
12/11/2018 15:40:51: O serviço está configurado para o horário de 19:17.
12/11/2018 15:41:51: O serviço está configurado para o horário de 19:17.
12/11/2018 15:42:51: O serviço está configurado para o horário de 19:17.
12/11/2018 15:43:51: O serviço está configurado para o horário de 19:17.
12/11/2018 15:44:51: O serviço está configurado para o horário de 19:17.
12/11/2018 15:45:51: O serviço está configurado para o horário de 19:17.
12/11/2018 15:46:51: O serviço está configurado para o horário de 19:17.
12/11/2018 15:47:51: O serviço está configurado para o horário de 19:17.
12/11/2018 15:48:51: O serviço está configurado para o horário de 19:17.
12/11/2018 15:49:51: O serviço está configurado para o horário de 19:17.
12/11/2018 15:50:51: O serviço está configurado para o horário de 19:17.
12/11/2018 15:51:51: O serviço está configurado para o horário de 19:17.
12/11/2018 15:52:51: O serviço está configurado para o horário de 19:17.
12/11/2018 15:53:51: O serviço está configurado para o horário de 19:17.
12/11/2018 15:54:51: O serviço está configurado para o horário de 19:17.
12/11/2018 15:55:51: O serviço está configurado para o horário de 19:17.
12/11/2018 15:56:51: O serviço está configurado para o horário de 19:17.
12/11/2018 15:57:51: O serviço está configurado para o horário de 19:17.
12/11/2018 15:58:51: O serviço está configurado para o horário de 19:17.
12/11/2018 15:59:51: O serviço está configurado para o horário de 19:17.
12/11/2018 16:00:51: O serviço está configurado para o horário de 19:17.
12/11/2018 16:01:51: O serviço está configurado para o horário de 19:17.
12/11/2018 16:02:51: O serviço está configurado para o horário de 19:17.
12/11/2018 16:03:51: O serviço está configurado para o horário de 19:17.
12/11/2018 16:04:51: O serviço está configurado para o horário de 19:17.
12/11/2018 16:05:51: O serviço está configurado para o horário de 19:17.
12/11/2018 16:06:51: O serviço está configurado para o horário de 19:17.
12/11/2018 16:07:51: O serviço está configurado para o horário de 19:17.
12/11/2018 16:08:51: O serviço está configurado para o horário de 19:17.
12/11/2018 16:09:51: O serviço está configurado para o horário de 19:17.
12/11/2018 16:10:51: O serviço está configurado para o horário de 19:17.
12/11/2018 16:11:51: O serviço está configurado para o horário de 19:17.
12/11/2018 16:12:51: O serviço está configurado para o horário de 19:17.
12/11/2018 16:13:51: O serviço está configurado para o horário de 19:17.
12/11/2018 16:14:51: O serviço está configurado para o horário de 19:17.
12/11/2018 16:15:51: O serviço está configurado para o horário de 19:17.
12/11/2018 16:16:51: O serviço está configurado para o horário de 19:17.
12/11/2018 16:17:51: O serviço está configurado para o horário de 19:17.
12/11/2018 16:18:51: O serviço está configurado para o horário de 19:17.
12/11/2018 16:19:51: O serviço está configurado para o horário de 19:17.
12/11/2018 16:20:51: O serviço está configurado para o horário de 19:17.
12/11/2018 16:21:51: O serviço está configurado para o horário de 19:17.
12/11/2018 16:22:51: O serviço está configurado para o horário de 19:17.
12/11/2018 16:23:51: O serviço está configurado para o horário de 19:17.
12/11/2018 16:24:51: O serviço está configurado para o horário de 19:17.
12/11/2018 16:25:51: O serviço está configurado para o horário de 19:17.
12/11/2018 16:26:51: O serviço está configurado para o horário de 19:17.
12/11/2018 16:27:51: O serviço está configurado para o horário de 19:17.
12/11/2018 16:28:51: O serviço está configurado para o horário de 19:17.
12/11/2018 16:29:51: O serviço está configurado para o horário de 19:17.
12/11/2018 16:30:51: O serviço está configurado para o horário de 19:17.
12/11/2018 16:31:51: O serviço está configurado para o horário de 19:17.
12/11/2018 16:32:51: O serviço está configurado para o horário de 19:17.
12/11/2018 16:33:51: O serviço está configurado para o horário de 19:17.
12/11/2018 16:34:51: O serviço está configurado para o horário de 19:17.
12/11/2018 16:35:51: O serviço está configurado para o horário de 19:17.
12/11/2018 16:36:51: O serviço está configurado para o horário de 19:17.
12/11/2018 16:37:51: O serviço está configurado para o horário de 19:17.
12/11/2018 16:38:51: O serviço está configurado para o horário de 19:17.
12/11/2018 16:39:51: O serviço está configurado para o horário de 19:17.
12/11/2018 16:40:51: O serviço está configurado para o horário de 19:17.
12/11/2018 16:41:51: O serviço está configurado para o horário de 19:17.
12/11/2018 16:42:52: O serviço está configurado para o horário de 19:17.
12/11/2018 16:43:52: O serviço está configurado para o horário de 19:17.
12/11/2018 16:44:52: O serviço está configurado para o horário de 19:17.
12/11/2018 16:45:52: O serviço está configurado para o horário de 19:17.
12/11/2018 16:46:52: O serviço está configurado para o horário de 19:17.
12/11/2018 16:47:52: O serviço está configurado para o horário de 19:17.
12/11/2018 16:48:52: O serviço está configurado para o horário de 19:17.
12/11/2018 16:49:52: O serviço está configurado para o horário de 19:17.
12/11/2018 16:50:52: O serviço está configurado para o horário de 19:17.
12/11/2018 16:51:52: O serviço está configurado para o horário de 19:17.
12/11/2018 16:52:52: O serviço está configurado para o horário de 19:17.
12/11/2018 16:53:52: O serviço está configurado para o horário de 19:17.
12/11/2018 16:54:52: O serviço está configurado para o horário de 19:17.
12/11/2018 16:55:52: O serviço está configurado para o horário de 19:17.
12/11/2018 16:56:52: O serviço está configurado para o horário de 19:17.
12/11/2018 16:57:52: O serviço está configurado para o horário de 19:17.
12/11/2018 16:58:52: O serviço está configurado para o horário de 19:17.
12/11/2018 16:59:52: O serviço está configurado para o horário de 19:17.
12/11/2018 17:00:52: O serviço está configurado para o horário de 19:17.
12/11/2018 17:01:52: O serviço está configurado para o horário de 19:17.
12/11/2018 17:02:52: O serviço está configurado para o horário de 19:17.
12/11/2018 17:03:52: O serviço está configurado para o horário de 19:17.
12/11/2018 17:04:52: O serviço está configurado para o horário de 19:17.
12/11/2018 17:05:52: O serviço está configurado para o horário de 19:17.
12/11/2018 17:06:52: O serviço está configurado para o horário de 19:17.
12/11/2018 17:07:52: O serviço está configurado para o horário de 19:17.
12/11/2018 17:08:52: O serviço está configurado para o horário de 19:17.
12/11/2018 17:09:52: O serviço está configurado para o horário de 19:17.
12/11/2018 17:10:52: O serviço está configurado para o horário de 19:17.
12/11/2018 17:11:52: O serviço está configurado para o horário de 19:17.
12/11/2018 17:12:52: O serviço está configurado para o horário de 19:17.
12/11/2018 17:13:52: O serviço está configurado para o horário de 19:17.
12/11/2018 17:14:52: O serviço está configurado para o horário de 19:17.
12/11/2018 17:15:52: O serviço está configurado para o horário de 19:17.
12/11/2018 17:16:52: O serviço está configurado para o horário de 19:17.
12/11/2018 17:17:52: O serviço está configurado para o horário de 19:17.
12/11/2018 17:18:52: O serviço está configurado para o horário de 19:17.
12/11/2018 17:19:52: O serviço está configurado para o horário de 19:17.
12/11/2018 17:20:52: O serviço está configurado para o horário de 19:17.
12/11/2018 17:21:52: O serviço está configurado para o horário de 19:17.
12/11/2018 17:22:52: O serviço está configurado para o horário de 19:17.
12/11/2018 17:23:52: O serviço está configurado para o horário de 19:17.
12/11/2018 17:24:52: O serviço está configurado para o horário de 19:17.
12/11/2018 17:25:52: O serviço está configurado para o horário de 19:17.
12/11/2018 17:26:52: O serviço está configurado para o horário de 19:17.
12/11/2018 17:27:52: O serviço está configurado para o horário de 19:17.
12/11/2018 17:28:52: O serviço está configurado para o horário de 19:17.
12/11/2018 17:29:52: O serviço está configurado para o horário de 19:17.
12/11/2018 17:30:52: O serviço está configurado para o horário de 19:17.
12/11/2018 17:31:52: O serviço está configurado para o horário de 19:17.
12/11/2018 17:32:52: O serviço está configurado para o horário de 19:17.
12/11/2018 17:33:52: O serviço está configurado para o horário de 19:17.
12/11/2018 17:34:52: O serviço está configurado para o horário de 19:17.
12/11/2018 17:35:52: O serviço está configurado para o horário de 19:17.
12/11/2018 17:36:52: O serviço está configurado para o horário de 19:17.
12/11/2018 17:37:52: O serviço está configurado para o horário de 19:17.
12/11/2018 17:38:52: O serviço está configurado para o horário de 19:17.
12/11/2018 17:39:52: O serviço está configurado para o horário de 19:17.
12/11/2018 17:40:52: O serviço está configurado para o horário de 19:17.
12/11/2018 17:41:52: O serviço está configurado para o horário de 19:17.
12/11/2018 17:42:52: O serviço está configurado para o horário de 19:17.
12/11/2018 17:43:52: O serviço está configurado para o horário de 19:17.
12/11/2018 17:44:52: O serviço está configurado para o horário de 19:17.
12/11/2018 17:45:52: O serviço está configurado para o horário de 19:17.
12/11/2018 17:46:52: O serviço está configurado para o horário de 19:17.
12/11/2018 17:47:52: O serviço está configurado para o horário de 19:17.
12/11/2018 17:48:52: O serviço está configurado para o horário de 19:17.
12/11/2018 17:49:52: O serviço está configurado para o horário de 19:17.
12/11/2018 17:50:52: O serviço está configurado para o horário de 19:17.
12/11/2018 17:51:52: O serviço está configurado para o horário de 19:17.
12/11/2018 17:52:52: O serviço está configurado para o horário de 19:17.
12/11/2018 17:53:52: O serviço está configurado para o horário de 19:17.
12/11/2018 17:54:52: O serviço está configurado para o horário de 19:17.
12/11/2018 17:55:52: O serviço está configurado para o horário de 19:17.
12/11/2018 17:56:53: O serviço está configurado para o horário de 19:17.
12/11/2018 17:57:53: O serviço está configurado para o horário de 19:17.
12/11/2018 17:58:53: O serviço está configurado para o horário de 19:17.
12/11/2018 17:59:53: O serviço está configurado para o horário de 19:17.
12/11/2018 18:00:53: O serviço está configurado para o horário de 19:17.
12/11/2018 18:01:53: O serviço está configurado para o horário de 19:17.
12/11/2018 18:02:53: O serviço está configurado para o horário de 19:17.
12/11/2018 18:03:53: O serviço está configurado para o horário de 19:17.
12/11/2018 18:04:53: O serviço está configurado para o horário de 19:17.
12/11/2018 18:05:53: O serviço está configurado para o horário de 19:17.
12/11/2018 18:06:53: O serviço está configurado para o horário de 19:17.
12/11/2018 18:07:53: O serviço está configurado para o horário de 19:17.
12/11/2018 18:08:53: O serviço está configurado para o horário de 19:17.
12/11/2018 18:09:53: O serviço está configurado para o horário de 19:17.
12/11/2018 18:10:53: O serviço está configurado para o horário de 19:17.
12/11/2018 18:11:53: O serviço está configurado para o horário de 19:17.
12/11/2018 18:12:53: O serviço está configurado para o horário de 19:17.
12/11/2018 18:13:53: O serviço está configurado para o horário de 19:17.
12/11/2018 18:14:53: O serviço está configurado para o horário de 19:17.
12/11/2018 18:15:53: O serviço está configurado para o horário de 19:17.
12/11/2018 18:16:53: O serviço está configurado para o horário de 19:17.
12/11/2018 18:17:53: O serviço está configurado para o horário de 19:17.
12/11/2018 18:18:53: O serviço está configurado para o horário de 19:17.
12/11/2018 18:19:53: O serviço está configurado para o horário de 19:17.
12/11/2018 18:20:53: O serviço está configurado para o horário de 19:17.
12/11/2018 18:21:53: O serviço está configurado para o horário de 19:17.
12/11/2018 18:22:53: O serviço está configurado para o horário de 19:17.
12/11/2018 18:23:53: O serviço está configurado para o horário de 19:17.
12/11/2018 18:24:53: O serviço está configurado para o horário de 19:17.
12/11/2018 18:25:53: O serviço está configurado para o horário de 19:17.
12/11/2018 18:26:53: O serviço está configurado para o horário de 19:17.
12/11/2018 18:27:53: O serviço está configurado para o horário de 19:17.
12/11/2018 18:28:53: O serviço está configurado para o horário de 19:17.
12/11/2018 18:29:53: O serviço está configurado para o horário de 19:17.
12/11/2018 18:30:53: O serviço está configurado para o horário de 19:17.
12/11/2018 18:31:53: O serviço está configurado para o horário de 19:17.
12/11/2018 18:32:53: O serviço está configurado para o horário de 19:17.
12/11/2018 18:33:53: O serviço está configurado para o horário de 19:17.
12/11/2018 18:34:53: O serviço está configurado para o horário de 19:17.
12/11/2018 18:35:53: O serviço está configurado para o horário de 19:17.
12/11/2018 18:36:53: O serviço está configurado para o horário de 19:17.
12/11/2018 18:37:53: O serviço está configurado para o horário de 19:17.
12/11/2018 18:38:53: O serviço está configurado para o horário de 19:17.
12/11/2018 18:39:53: O serviço está configurado para o horário de 19:17.
12/11/2018 18:40:53: O serviço está configurado para o horário de 19:17.
12/11/2018 18:41:53: O serviço está configurado para o horário de 19:17.
12/11/2018 18:42:53: O serviço está configurado para o horário de 19:17.
12/11/2018 18:43:53: O serviço está configurado para o horário de 19:17.
12/11/2018 18:44:53: O serviço está configurado para o horário de 19:17.
12/11/2018 18:45:53: O serviço está configurado para o horário de 19:17.
12/11/2018 18:46:53: O serviço está configurado para o horário de 19:17.
12/11/2018 18:47:53: O serviço está configurado para o horário de 19:17.
12/11/2018 18:48:53: O serviço está configurado para o horário de 19:17.
12/11/2018 18:49:53: O serviço está configurado para o horário de 19:17.
12/11/2018 18:50:53: O serviço está configurado para o horário de 19:17.
12/11/2018 18:51:53: O serviço está configurado para o horário de 19:17.
12/11/2018 18:52:53: O serviço está configurado para o horário de 19:17.
12/11/2018 18:53:53: O serviço está configurado para o horário de 19:17.
12/11/2018 18:54:53: O serviço está configurado para o horário de 19:17.
12/11/2018 18:55:53: O serviço está configurado para o horário de 19:17.
12/11/2018 18:56:53: O serviço está configurado para o horário de 19:17.
12/11/2018 18:57:53: O serviço está configurado para o horário de 19:17.
12/11/2018 18:58:53: O serviço está configurado para o horário de 19:17.
12/11/2018 18:59:53: O serviço está configurado para o horário de 19:17.
12/11/2018 19:00:53: O serviço está configurado para o horário de 19:17.
12/11/2018 19:01:53: O serviço está configurado para o horário de 19:17.
12/11/2018 19:02:53: O serviço está configurado para o horário de 19:17.
12/11/2018 19:03:53: O serviço está configurado para o horário de 19:17.
12/11/2018 19:04:53: O serviço está configurado para o horário de 19:17.
12/11/2018 19:05:53: O serviço está configurado para o horário de 19:17.
12/11/2018 19:06:53: O serviço está configurado para o horário de 19:17.
12/11/2018 19:07:53: O serviço está configurado para o horário de 19:17.
12/11/2018 19:08:53: O serviço está configurado para o horário de 19:17.
12/11/2018 19:09:53: O serviço está configurado para o horário de 19:17.
12/11/2018 19:10:54: O serviço está configurado para o horário de 19:17.
12/11/2018 19:11:54: O serviço está configurado para o horário de 19:17.
12/11/2018 19:12:54: O serviço está configurado para o horário de 19:17.
12/11/2018 19:13:54: O serviço está configurado para o horário de 19:17.
12/11/2018 19:14:54: O serviço está configurado para o horário de 19:17.
12/11/2018 19:15:54: O serviço está configurado para o horário de 19:17.
12/11/2018 19:16:54: O serviço está configurado para o horário de 19:17.
12/11/2018 19:17:54: O serviço está configurado para o horário de 19:17.
12/11/2018 19:17:54: Está na hora de buscar desenquadramentos no suitability.
12/11/2018 19:17:54: Procurando desenquadramentos...
12/11/2018 19:18:11: Error: Erro de rede ou específico à instância ao estabelecer conexão com o SQL Server. O servidor não foi encontrado ou não estava acessível. Verifique se o nome da instância está correto e se o SQL Server está configurado para permitir conexões remotas. (provider: TCP Provider, error: 0 - O tempo limite de espera foi atingido.) - System.Data.SqlClient.SqlException (0x80131904): Erro de rede ou específico à instância ao estabelecer conexão com o SQL Server. O servidor não foi encontrado ou não estava acessível. Verifique se o nome da instância está correto e se o SQL Server está configurado para permitir conexões remotas. (provider: TCP Provider, error: 0 - O tempo limite de espera foi atingido.) ---> System.ComponentModel.Win32Exception (0x80004005): O tempo limite de espera foi atingido
   em System.Data.SqlClient.SqlInternalConnectionTds..ctor(DbConnectionPoolIdentity identity, SqlConnectionString connectionOptions, SqlCredential credential, Object providerInfo, String newPassword, SecureString newSecurePassword, Boolean redirectedUserInstance, SqlConnectionString userConnectionOptions, SessionData reconnectSessionData, DbConnectionPool pool, String accessToken, Boolean applyTransientFaultHandling)
   em System.Data.SqlClient.SqlConnectionFactory.CreateConnection(DbConnectionOptions options, DbConnectionPoolKey poolKey, Object poolGroupProviderInfo, DbConnectionPool pool, DbConnection owningConnection, DbConnectionOptions userOptions)
   em System.Data.ProviderBase.DbConnectionFactory.CreatePooledConnection(DbConnectionPool pool, DbConnection owningObject, DbConnectionOptions options, DbConnectionPoolKey poolKey, DbConnectionOptions userOptions)
   em System.Data.ProviderBase.DbConnectionPool.CreateObject(DbConnection owningObject, DbConnectionOptions userOptions, DbConnectionInternal oldConnection)
   em System.Data.ProviderBase.DbConnectionPool.UserCreateRequest(DbConnection owningObject, DbConnectionOptions userOptions, DbConnectionInternal oldConnection)
   em System.Data.ProviderBase.DbConnectionPool.TryGetConnection(DbConnection owningObject, UInt32 waitForMultipleObjectsTimeout, Boolean allowCreate, Boolean onlyOneCheckConnection, DbConnectionOptions userOptions, DbConnectionInternal& connection)
   em System.Data.ProviderBase.DbConnectionPool.TryGetConnection(DbConnection owningObject, TaskCompletionSource`1 retry, DbConnectionOptions userOptions, DbConnectionInternal& connection)
   em System.Data.ProviderBase.DbConnectionFactory.TryGetConnection(DbConnection owningConnection, TaskCompletionSource`1 retry, DbConnectionOptions userOptions, DbConnectionInternal oldConnection, DbConnectionInternal& connection)
   em System.Data.ProviderBase.DbConnectionInternal.TryOpenConnectionInternal(DbConnection outerConnection, DbConnectionFactory connectionFactory, TaskCompletionSource`1 retry, DbConnectionOptions userOptions)
   em System.Data.ProviderBase.DbConnectionClosed.TryOpenConnection(DbConnection outerConnection, DbConnectionFactory connectionFactory, TaskCompletionSource`1 retry, DbConnectionOptions userOptions)
   em System.Data.SqlClient.SqlConnection.TryOpenInner(TaskCompletionSource`1 retry)
   em System.Data.SqlClient.SqlConnection.TryOpen(TaskCompletionSource`1 retry)
   em System.Data.SqlClient.SqlConnection.Open()
   em QX3.Portal.Services.Data.SuitabilityDAL.SelecionaClientesSuitability(Nullable`1 idClienteGlobal, Nullable`1 cpfcnpj, String cdCliente, String status, String investidor, String desenquadrado) na C:\GIT\brpartners\service\Data\Suitability\SuitabilityDAL.cs:linha 504
   em QX3.Portal.Services.Business.SuitabilityMethods.SelecionaClientesSuitability(Nullable`1 idClienteGlobal, Nullable`1 cpfcnpj, String cdCliente, String status, String investidor, String desenquadrado) na C:\GIT\brpartners\service\Business\Suitability\SuitabilityMethods.cs:linha 140
ClientConnectionId:00000000-0000-0000-0000-000000000000
Error Number:258,State:0,Class:20 -    em QX3.Portal.Services.Business.SuitabilityMethods.SelecionaClientesSuitability(Nullable`1 idClienteGlobal, Nullable`1 cpfcnpj, String cdCliente, String status, String investidor, String desenquadrado) na C:\GIT\brpartners\service\Business\Suitability\SuitabilityMethods.cs:linha 171
   em SuitabilityMismatch.SuitabilityMismatchService.GetClients() na C:\GIT\brpartners\solutions\BrPartners.Portal\SuitabilityMismatch\SuitabilityMismatchService.cs:linha 152
   em SuitabilityMismatch.SuitabilityMismatchService.Search() na C:\GIT\brpartners\solutions\BrPartners.Portal\SuitabilityMismatch\SuitabilityMismatchService.cs:linha 100
   em SuitabilityMismatch.SuitabilityMismatchService.Execute() na C:\GIT\brpartners\solutions\BrPartners.Portal\SuitabilityMismatch\SuitabilityMismatchService.cs:linha 65
12/11/2018 19:18:54: O serviço está configurado para o horário de 19:17.
12/11/2018 19:19:54: O serviço está configurado para o horário de 19:17.
12/11/2018 19:20:54: O serviço está configurado para o horário de 19:17.
12/11/2018 19:21:54: O serviço está configurado para o horário de 19:17.
12/11/2018 19:22:54: O serviço está configurado para o horário de 19:17.
12/11/2018 19:23:54: O serviço está configurado para o horário de 19:17.
12/11/2018 19:24:54: O serviço está configurado para o horário de 19:17.
12/11/2018 19:25:54: O serviço está configurado para o horário de 19:17.
12/11/2018 19:26:54: O serviço está configurado para o horário de 19:17.
12/11/2018 19:27:54: O serviço está configurado para o horário de 19:17.
12/11/2018 19:28:54: O serviço está configurado para o horário de 19:17.
12/11/2018 19:29:54: O serviço está configurado para o horário de 19:17.
12/11/2018 19:30:54: O serviço está configurado para o horário de 19:17.
12/11/2018 19:31:54: O serviço está configurado para o horário de 19:17.
12/11/2018 19:32:54: O serviço está configurado para o horário de 19:17.
12/11/2018 19:33:54: O serviço está configurado para o horário de 19:17.
12/11/2018 19:34:54: O serviço está configurado para o horário de 19:17.
12/11/2018 19:35:54: O serviço está configurado para o horário de 19:17.
12/11/2018 19:36:54: O serviço está configurado para o horário de 19:17.
12/11/2018 19:37:54: O serviço está configurado para o horário de 19:17.
12/11/2018 19:38:54: O serviço está configurado para o horário de 19:17.
12/11/2018 19:39:54: O serviço está configurado para o horário de 19:17.
12/11/2018 19:40:54: O serviço está configurado para o horário de 19:17.
12/11/2018 19:41:54: O serviço está configurado para o horário de 19:17.
12/11/2018 19:42:54: O serviço está configurado para o horário de 19:17.
12/11/2018 19:43:54: O serviço está configurado para o horário de 19:17.
12/11/2018 19:44:54: O serviço está configurado para o horário de 19:17.
12/11/2018 19:45:54: O serviço está configurado para o horário de 19:17.
12/11/2018 19:46:54: O serviço está configurado para o horário de 19:17.
12/11/2018 19:47:54: O serviço está configurado para o horário de 19:17.
12/11/2018 19:48:54: O serviço está configurado para o horário de 19:17.
12/11/2018 19:49:54: O serviço está configurado para o horário de 19:17.
12/11/2018 19:50:54: O serviço está configurado para o horário de 19:17.
12/11/2018 19:51:54: O serviço está configurado para o horário de 19:17.
12/11/2018 19:52:54: O serviço está configurado para o horário de 19:17.
12/11/2018 19:53:54: O serviço está configurado para o horário de 19:17.
12/11/2018 19:54:54: O serviço está configurado para o horário de 19:17.
12/11/2018 19:55:54: O serviço está configurado para o horário de 19:17.
12/11/2018 19:56:54: O serviço está configurado para o horário de 19:17.
12/11/2018 19:57:54: O serviço está configurado para o horário de 19:17.
12/11/2018 19:58:54: O serviço está configurado para o horário de 19:17.
12/11/2018 19:59:54: O serviço está configurado para o horário de 19:17.
12/11/2018 20:00:54: O serviço está configurado para o horário de 19:17.
12/11/2018 20:01:54: O serviço está configurado para o horário de 19:17.
12/11/2018 20:02:54: O serviço está configurado para o horário de 19:17.
12/11/2018 20:03:54: O serviço está configurado para o horário de 19:17.
12/11/2018 20:04:54: O serviço está configurado para o horário de 19:17.
12/11/2018 20:05:54: O serviço está configurado para o horário de 19:17.
12/11/2018 20:06:54: O serviço está configurado para o horário de 19:17.
12/11/2018 20:07:54: O serviço está configurado para o horário de 19:17.
12/11/2018 20:08:54: O serviço está configurado para o horário de 19:17.
12/11/2018 20:09:54: O serviço está configurado para o horário de 19:17.
12/11/2018 20:10:54: O serviço está configurado para o horário de 19:17.
12/11/2018 20:11:54: O serviço está configurado para o horário de 19:17.
12/11/2018 20:12:54: O serviço está configurado para o horário de 19:17.
12/11/2018 20:13:54: O serviço está configurado para o horário de 19:17.
12/11/2018 20:14:54: O serviço está configurado para o horário de 19:17.
12/11/2018 20:15:54: O serviço está configurado para o horário de 19:17.
12/11/2018 20:16:54: O serviço está configurado para o horário de 19:17.
12/11/2018 20:17:54: O serviço está configurado para o horário de 19:17.
12/11/2018 20:18:54: O serviço está configurado para o horário de 19:17.
12/11/2018 20:19:54: O serviço está configurado para o horário de 19:17.
12/11/2018 20:20:54: O serviço está configurado para o horário de 19:17.
12/11/2018 20:21:54: O serviço está configurado para o horário de 19:17.
12/11/2018 20:22:54: O serviço está configurado para o horário de 19:17.
12/11/2018 20:23:55: O serviço está configurado para o horário de 19:17.
12/11/2018 20:24:55: O serviço está configurado para o horário de 19:17.
12/11/2018 20:25:55: O serviço está configurado para o horário de 19:17.
12/11/2018 20:26:55: O serviço está configurado para o horário de 19:17.
12/11/2018 20:27:55: O serviço está configurado para o horário de 19:17.
12/11/2018 20:28:55: O serviço está configurado para o horário de 19:17.
12/11/2018 20:29:55: O serviço está configurado para o horário de 19:17.
12/11/2018 20:30:55: O serviço está configurado para o horário de 19:17.
12/11/2018 20:31:55: O serviço está configurado para o horário de 19:17.
12/11/2018 20:32:55: O serviço está configurado para o horário de 19:17.
12/11/2018 20:33:55: O serviço está configurado para o horário de 19:17.
12/11/2018 20:34:55: O serviço está configurado para o horário de 19:17.
12/11/2018 20:35:55: O serviço está configurado para o horário de 19:17.
12/11/2018 20:36:55: O serviço está configurado para o horário de 19:17.
12/11/2018 20:37:55: O serviço está configurado para o horário de 19:17.
12/11/2018 20:38:55: O serviço está configurado para o horário de 19:17.
12/11/2018 20:39:55: O serviço está configurado para o horário de 19:17.
12/11/2018 20:40:55: O serviço está configurado para o horário de 19:17.
12/11/2018 20:41:55: O serviço está configurado para o horário de 19:17.
12/11/2018 20:42:55: O serviço está configurado para o horário de 19:17.
12/11/2018 20:43:55: O serviço está configurado para o horário de 19:17.
12/11/2018 20:44:55: O serviço está configurado para o horário de 19:17.
12/11/2018 20:45:55: O serviço está configurado para o horário de 19:17.
12/11/2018 20:46:55: O serviço está configurado para o horário de 19:17.
12/11/2018 20:47:55: O serviço está configurado para o horário de 19:17.
12/11/2018 20:48:55: O serviço está configurado para o horário de 19:17.
12/11/2018 20:49:55: O serviço está configurado para o horário de 19:17.
12/11/2018 20:50:55: O serviço está configurado para o horário de 19:17.
12/11/2018 20:51:55: O serviço está configurado para o horário de 19:17.
12/11/2018 20:52:55: O serviço está configurado para o horário de 19:17.
12/11/2018 20:53:55: O serviço está configurado para o horário de 19:17.
12/11/2018 20:54:55: O serviço está configurado para o horário de 19:17.
12/11/2018 20:55:55: O serviço está configurado para o horário de 19:17.
12/11/2018 20:56:55: O serviço está configurado para o horário de 19:17.
12/11/2018 20:57:55: O serviço está configurado para o horário de 19:17.
12/11/2018 20:58:55: O serviço está configurado para o horário de 19:17.
12/11/2018 20:59:55: O serviço está configurado para o horário de 19:17.
12/11/2018 21:00:55: O serviço está configurado para o horário de 19:17.
12/11/2018 21:01:55: O serviço está configurado para o horário de 19:17.
12/11/2018 21:02:55: O serviço está configurado para o horário de 19:17.
12/11/2018 21:03:55: O serviço está configurado para o horário de 19:17.
12/11/2018 21:04:55: O serviço está configurado para o horário de 19:17.
12/11/2018 21:05:55: O serviço está configurado para o horário de 19:17.
12/11/2018 21:06:55: O serviço está configurado para o horário de 19:17.
12/11/2018 21:07:55: O serviço está configurado para o horário de 19:17.
12/11/2018 21:08:55: O serviço está configurado para o horário de 19:17.
12/11/2018 21:09:55: O serviço está configurado para o horário de 19:17.
12/11/2018 21:10:55: O serviço está configurado para o horário de 19:17.
12/11/2018 21:11:55: O serviço está configurado para o horário de 19:17.
12/11/2018 21:12:55: O serviço está configurado para o horário de 19:17.
12/11/2018 21:13:55: O serviço está configurado para o horário de 19:17.
12/11/2018 21:14:55: O serviço está configurado para o horário de 19:17.
12/11/2018 21:15:55: O serviço está configurado para o horário de 19:17.
12/11/2018 21:16:55: O serviço está configurado para o horário de 19:17.
12/11/2018 21:17:55: O serviço está configurado para o horário de 19:17.
12/11/2018 21:18:55: O serviço está configurado para o horário de 19:17.
12/11/2018 21:19:55: O serviço está configurado para o horário de 19:17.
12/11/2018 21:20:55: O serviço está configurado para o horário de 19:17.
12/11/2018 21:21:55: O serviço está configurado para o horário de 19:17.
12/11/2018 21:22:55: O serviço está configurado para o horário de 19:17.
12/11/2018 21:23:55: O serviço está configurado para o horário de 19:17.
12/11/2018 21:24:55: O serviço está configurado para o horário de 19:17.
12/11/2018 21:25:55: O serviço está configurado para o horário de 19:17.
12/11/2018 21:26:55: O serviço está configurado para o horário de 19:17.
12/11/2018 21:27:55: O serviço está configurado para o horário de 19:17.
12/11/2018 21:28:55: O serviço está configurado para o horário de 19:17.
12/11/2018 21:29:55: O serviço está configurado para o horário de 19:17.
12/11/2018 21:30:55: O serviço está configurado para o horário de 19:17.
12/11/2018 21:31:55: O serviço está configurado para o horário de 19:17.
12/11/2018 21:32:55: O serviço está configurado para o horário de 19:17.
12/11/2018 21:33:55: O serviço está configurado para o horário de 19:17.
12/11/2018 21:34:55: O serviço está configurado para o horário de 19:17.
12/11/2018 21:35:55: O serviço está configurado para o horário de 19:17.
12/11/2018 21:36:55: O serviço está configurado para o horário de 19:17.
12/11/2018 21:37:56: O serviço está configurado para o horário de 19:17.
12/11/2018 21:38:56: O serviço está configurado para o horário de 19:17.
12/11/2018 21:39:56: O serviço está configurado para o horário de 19:17.
12/11/2018 21:40:56: O serviço está configurado para o horário de 19:17.
12/11/2018 21:41:56: O serviço está configurado para o horário de 19:17.
12/11/2018 21:42:56: O serviço está configurado para o horário de 19:17.
12/11/2018 21:43:56: O serviço está configurado para o horário de 19:17.
12/11/2018 21:44:56: O serviço está configurado para o horário de 19:17.
12/11/2018 21:45:56: O serviço está configurado para o horário de 19:17.
12/11/2018 21:46:56: O serviço está configurado para o horário de 19:17.
12/11/2018 21:47:56: O serviço está configurado para o horário de 19:17.
12/11/2018 21:48:56: O serviço está configurado para o horário de 19:17.
12/11/2018 21:49:56: O serviço está configurado para o horário de 19:17.
12/11/2018 21:50:56: O serviço está configurado para o horário de 19:17.
12/11/2018 21:51:56: O serviço está configurado para o horário de 19:17.
12/11/2018 21:52:56: O serviço está configurado para o horário de 19:17.
12/11/2018 21:53:56: O serviço está configurado para o horário de 19:17.
12/11/2018 21:54:56: O serviço está configurado para o horário de 19:17.
12/11/2018 21:55:56: O serviço está configurado para o horário de 19:17.
12/11/2018 21:56:56: O serviço está configurado para o horário de 19:17.
12/11/2018 21:57:56: O serviço está configurado para o horário de 19:17.
12/11/2018 21:58:56: O serviço está configurado para o horário de 19:17.
12/11/2018 21:59:56: O serviço está configurado para o horário de 19:17.
12/11/2018 22:00:56: O serviço está configurado para o horário de 19:17.
12/11/2018 22:01:56: O serviço está configurado para o horário de 19:17.
12/11/2018 22:02:56: O serviço está configurado para o horário de 19:17.
12/11/2018 22:03:56: O serviço está configurado para o horário de 19:17.
12/11/2018 22:04:56: O serviço está configurado para o horário de 19:17.
12/11/2018 22:05:56: O serviço está configurado para o horário de 19:17.
12/11/2018 22:06:56: O serviço está configurado para o horário de 19:17.
12/11/2018 22:07:56: O serviço está configurado para o horário de 19:17.
12/11/2018 22:08:56: O serviço está configurado para o horário de 19:17.
12/11/2018 22:09:56: O serviço está configurado para o horário de 19:17.
12/11/2018 22:10:56: O serviço está configurado para o horário de 19:17.
12/11/2018 22:11:56: O serviço está configurado para o horário de 19:17.
12/11/2018 22:12:56: O serviço está configurado para o horário de 19:17.
12/11/2018 22:13:56: O serviço está configurado para o horário de 19:17.
12/11/2018 22:14:56: O serviço está configurado para o horário de 19:17.
12/11/2018 22:15:56: O serviço está configurado para o horário de 19:17.
12/11/2018 22:16:56: O serviço está configurado para o horário de 19:17.
12/11/2018 22:17:56: O serviço está configurado para o horário de 19:17.
12/11/2018 22:18:56: O serviço está configurado para o horário de 19:17.
12/11/2018 22:19:56: O serviço está configurado para o horário de 19:17.
12/11/2018 22:20:56: O serviço está configurado para o horário de 19:17.
12/11/2018 22:21:56: O serviço está configurado para o horário de 19:17.
12/11/2018 22:22:56: O serviço está configurado para o horário de 19:17.
12/11/2018 22:23:56: O serviço está configurado para o horário de 19:17.
12/11/2018 22:24:56: O serviço está configurado para o horário de 19:17.
12/11/2018 22:25:56: O serviço está configurado para o horário de 19:17.
12/11/2018 22:26:56: O serviço está configurado para o horário de 19:17.
12/11/2018 22:27:56: O serviço está configurado para o horário de 19:17.
12/11/2018 22:28:56: O serviço está configurado para o horário de 19:17.
12/11/2018 22:29:56: O serviço está configurado para o horário de 19:17.
12/11/2018 22:30:56: O serviço está configurado para o horário de 19:17.
12/11/2018 22:31:56: O serviço está configurado para o horário de 19:17.
12/11/2018 22:32:56: O serviço está configurado para o horário de 19:17.
12/11/2018 22:33:56: O serviço está configurado para o horário de 19:17.
12/11/2018 22:34:56: O serviço está configurado para o horário de 19:17.
12/11/2018 22:35:56: O serviço está configurado para o horário de 19:17.
12/11/2018 22:36:56: O serviço está configurado para o horário de 19:17.
12/11/2018 22:37:56: O serviço está configurado para o horário de 19:17.
12/11/2018 22:38:56: O serviço está configurado para o horário de 19:17.
12/11/2018 22:39:56: O serviço está configurado para o horário de 19:17.
12/11/2018 22:40:56: O serviço está configurado para o horário de 19:17.
12/11/2018 22:41:56: O serviço está configurado para o horário de 19:17.
12/11/2018 22:42:56: O serviço está configurado para o horário de 19:17.
12/11/2018 22:43:56: O serviço está configurado para o horário de 19:17.
12/11/2018 22:44:56: O serviço está configurado para o horário de 19:17.
12/11/2018 22:45:56: O serviço está configurado para o horário de 19:17.
12/11/2018 22:46:56: O serviço está configurado para o horário de 19:17.
12/11/2018 22:47:56: O serviço está configurado para o horário de 19:17.
12/11/2018 22:48:56: O serviço está configurado para o horário de 19:17.
12/11/2018 22:49:56: O serviço está configurado para o horário de 19:17.
12/11/2018 22:50:56: O serviço está configurado para o horário de 19:17.
12/11/2018 22:51:57: O serviço está configurado para o horário de 19:17.
12/11/2018 22:52:57: O serviço está configurado para o horário de 19:17.
12/11/2018 22:53:57: O serviço está configurado para o horário de 19:17.
12/11/2018 22:54:57: O serviço está configurado para o horário de 19:17.
12/11/2018 22:55:57: O serviço está configurado para o horário de 19:17.
12/11/2018 22:56:57: O serviço está configurado para o horário de 19:17.
12/11/2018 22:57:57: O serviço está configurado para o horário de 19:17.
12/11/2018 22:58:57: O serviço está configurado para o horário de 19:17.
12/11/2018 22:59:57: O serviço está configurado para o horário de 19:17.
12/11/2018 23:00:57: O serviço está configurado para o horário de 19:17.
12/11/2018 23:01:57: O serviço está configurado para o horário de 19:17.
12/11/2018 23:02:57: O serviço está configurado para o horário de 19:17.
12/11/2018 23:03:57: O serviço está configurado para o horário de 19:17.
12/11/2018 23:04:57: O serviço está configurado para o horário de 19:17.
12/11/2018 23:05:57: O serviço está configurado para o horário de 19:17.
12/11/2018 23:06:57: O serviço está configurado para o horário de 19:17.
12/11/2018 23:07:57: O serviço está configurado para o horário de 19:17.
12/11/2018 23:08:57: O serviço está configurado para o horário de 19:17.
12/11/2018 23:09:57: O serviço está configurado para o horário de 19:17.
12/11/2018 23:10:57: O serviço está configurado para o horário de 19:17.
12/11/2018 23:11:57: O serviço está configurado para o horário de 19:17.
12/11/2018 23:12:57: O serviço está configurado para o horário de 19:17.
12/11/2018 23:13:57: O serviço está configurado para o horário de 19:17.
12/11/2018 23:14:57: O serviço está configurado para o horário de 19:17.
12/11/2018 23:15:57: O serviço está configurado para o horário de 19:17.
12/11/2018 23:16:57: O serviço está configurado para o horário de 19:17.
12/11/2018 23:17:57: O serviço está configurado para o horário de 19:17.
12/11/2018 23:18:57: O serviço está configurado para o horário de 19:17.
12/11/2018 23:19:57: O serviço está configurado para o horário de 19:17.
12/11/2018 23:20:57: O serviço está configurado para o horário de 19:17.
12/11/2018 23:21:57: O serviço está configurado para o horário de 19:17.
12/11/2018 23:22:57: O serviço está configurado para o horário de 19:17.
12/11/2018 23:23:57: O serviço está configurado para o horário de 19:17.
12/11/2018 23:24:57: O serviço está configurado para o horário de 19:17.
12/11/2018 23:25:57: O serviço está configurado para o horário de 19:17.
12/11/2018 23:26:57: O serviço está configurado para o horário de 19:17.
12/11/2018 23:27:57: O serviço está configurado para o horário de 19:17.
12/11/2018 23:28:57: O serviço está configurado para o horário de 19:17.
12/11/2018 23:29:57: O serviço está configurado para o horário de 19:17.
12/11/2018 23:30:57: O serviço está configurado para o horário de 19:17.
12/11/2018 23:31:57: O serviço está configurado para o horário de 19:17.
12/11/2018 23:32:57: O serviço está configurado para o horário de 19:17.
12/11/2018 23:33:57: O serviço está configurado para o horário de 19:17.
12/11/2018 23:34:57: O serviço está configurado para o horário de 19:17.
12/11/2018 23:35:57: O serviço está configurado para o horário de 19:17.
12/11/2018 23:36:57: O serviço está configurado para o horário de 19:17.
12/11/2018 23:37:57: O serviço está configurado para o horário de 19:17.
12/11/2018 23:38:57: O serviço está configurado para o horário de 19:17.
12/11/2018 23:39:57: O serviço está configurado para o horário de 19:17.
12/11/2018 23:40:57: O serviço está configurado para o horário de 19:17.
12/11/2018 23:41:57: O serviço está configurado para o horário de 19:17.
12/11/2018 23:42:57: O serviço está configurado para o horário de 19:17.
12/11/2018 23:43:57: O serviço está configurado para o horário de 19:17.
12/11/2018 23:44:57: O serviço está configurado para o horário de 19:17.
12/11/2018 23:45:57: O serviço está configurado para o horário de 19:17.
12/11/2018 23:46:57: O serviço está configurado para o horário de 19:17.
12/11/2018 23:47:57: O serviço está configurado para o horário de 19:17.
12/11/2018 23:48:57: O serviço está configurado para o horário de 19:17.
12/11/2018 23:49:57: O serviço está configurado para o horário de 19:17.
12/11/2018 23:50:57: O serviço está configurado para o horário de 19:17.
12/11/2018 23:51:57: O serviço está configurado para o horário de 19:17.
12/11/2018 23:52:57: O serviço está configurado para o horário de 19:17.
12/11/2018 23:53:57: O serviço está configurado para o horário de 19:17.
12/11/2018 23:54:57: O serviço está configurado para o horário de 19:17.
12/11/2018 23:55:57: O serviço está configurado para o horário de 19:17.
12/11/2018 23:56:57: O serviço está configurado para o horário de 19:17.
12/11/2018 23:57:57: O serviço está configurado para o horário de 19:17.
12/11/2018 23:58:57: O serviço está configurado para o horário de 19:17.
12/11/2018 23:59:57: O serviço está configurado para o horário de 19:17.
