07/09/2018 13:54:18: O serviço está configurado para o horário de 18:48.
07/09/2018 13:55:19: O serviço está configurado para o horário de 18:48.
07/09/2018 13:56:18: O serviço está configurado para o horário de 18:48.
07/09/2018 13:57:21: O serviço está configurado para o horário de 18:48.
07/09/2018 13:58:19: O serviço está configurado para o horário de 18:48.
07/09/2018 13:59:19: O serviço está configurado para o horário de 18:48.
07/09/2018 14:00:19: O serviço está configurado para o horário de 18:48.
07/09/2018 14:01:19: O serviço está configurado para o horário de 18:48.
07/09/2018 14:02:19: O serviço está configurado para o horário de 18:48.
07/09/2018 14:03:19: O serviço está configurado para o horário de 18:48.
07/09/2018 14:04:19: O serviço está configurado para o horário de 18:48.
07/09/2018 14:05:19: O serviço está configurado para o horário de 18:48.
07/09/2018 14:06:19: O serviço está configurado para o horário de 18:48.
07/09/2018 14:07:19: O serviço está configurado para o horário de 18:48.
07/09/2018 14:08:19: O serviço está configurado para o horário de 18:48.
07/09/2018 14:09:19: O serviço está configurado para o horário de 18:48.
07/09/2018 14:10:19: O serviço está configurado para o horário de 18:48.
07/09/2018 14:11:19: O serviço está configurado para o horário de 18:48.
07/09/2018 14:12:19: O serviço está configurado para o horário de 18:48.
07/09/2018 14:13:19: O serviço está configurado para o horário de 18:48.
07/09/2018 14:14:19: O serviço está configurado para o horário de 18:48.
07/09/2018 14:15:19: O serviço está configurado para o horário de 18:48.
07/09/2018 14:16:19: O serviço está configurado para o horário de 18:48.
07/09/2018 14:17:19: O serviço está configurado para o horário de 18:48.
07/09/2018 14:18:19: O serviço está configurado para o horário de 18:48.
07/09/2018 14:19:19: O serviço está configurado para o horário de 18:48.
07/09/2018 14:20:19: O serviço está configurado para o horário de 18:48.
07/09/2018 14:21:19: O serviço está configurado para o horário de 18:48.
07/09/2018 14:22:19: O serviço está configurado para o horário de 18:48.
07/09/2018 14:23:19: O serviço está configurado para o horário de 18:48.
07/09/2018 14:24:19: O serviço está configurado para o horário de 18:48.
07/09/2018 14:25:19: O serviço está configurado para o horário de 18:48.
07/09/2018 14:26:19: O serviço está configurado para o horário de 18:48.
07/09/2018 14:27:19: O serviço está configurado para o horário de 18:48.
07/09/2018 14:28:19: O serviço está configurado para o horário de 18:48.
07/09/2018 14:29:19: O serviço está configurado para o horário de 18:48.
07/09/2018 14:30:19: O serviço está configurado para o horário de 18:48.
07/09/2018 14:31:19: O serviço está configurado para o horário de 18:48.
07/09/2018 14:32:19: O serviço está configurado para o horário de 18:48.
07/09/2018 14:33:19: O serviço está configurado para o horário de 18:48.
07/09/2018 14:34:19: O serviço está configurado para o horário de 18:48.
07/09/2018 14:35:19: O serviço está configurado para o horário de 18:48.
07/09/2018 14:36:19: O serviço está configurado para o horário de 18:48.
07/09/2018 14:37:19: O serviço está configurado para o horário de 18:48.
07/09/2018 14:38:19: O serviço está configurado para o horário de 18:48.
07/09/2018 14:39:19: O serviço está configurado para o horário de 18:48.
07/09/2018 14:40:19: O serviço está configurado para o horário de 18:48.
07/09/2018 14:41:19: O serviço está configurado para o horário de 18:48.
07/09/2018 14:42:19: O serviço está configurado para o horário de 18:48.
07/09/2018 14:43:19: O serviço está configurado para o horário de 18:48.
07/09/2018 14:44:19: O serviço está configurado para o horário de 18:48.
07/09/2018 14:45:19: O serviço está configurado para o horário de 18:48.
07/09/2018 14:46:19: O serviço está configurado para o horário de 18:48.
07/09/2018 14:47:19: O serviço está configurado para o horário de 18:48.
07/09/2018 14:48:19: O serviço está configurado para o horário de 18:48.
07/09/2018 14:49:19: O serviço está configurado para o horário de 18:48.
07/09/2018 14:50:19: O serviço está configurado para o horário de 18:48.
07/09/2018 14:51:19: O serviço está configurado para o horário de 18:48.
07/09/2018 14:52:19: O serviço está configurado para o horário de 18:48.
07/09/2018 14:53:19: O serviço está configurado para o horário de 18:48.
07/09/2018 14:54:19: O serviço está configurado para o horário de 18:48.
07/09/2018 14:55:19: O serviço está configurado para o horário de 18:48.
07/09/2018 14:56:19: O serviço está configurado para o horário de 18:48.
07/09/2018 14:57:19: O serviço está configurado para o horário de 18:48.
07/09/2018 14:58:19: O serviço está configurado para o horário de 18:48.
07/09/2018 14:59:19: O serviço está configurado para o horário de 18:48.
07/09/2018 15:00:19: O serviço está configurado para o horário de 18:48.
07/09/2018 15:01:19: O serviço está configurado para o horário de 18:48.
07/09/2018 15:02:19: O serviço está configurado para o horário de 18:48.
07/09/2018 15:03:19: O serviço está configurado para o horário de 18:48.
07/09/2018 15:04:19: O serviço está configurado para o horário de 18:48.
07/09/2018 15:05:19: O serviço está configurado para o horário de 18:48.
07/09/2018 15:06:19: O serviço está configurado para o horário de 18:48.
07/09/2018 15:07:20: O serviço está configurado para o horário de 18:48.
07/09/2018 15:08:20: O serviço está configurado para o horário de 18:48.
07/09/2018 15:09:20: O serviço está configurado para o horário de 18:48.
07/09/2018 15:10:20: O serviço está configurado para o horário de 18:48.
07/09/2018 15:11:20: O serviço está configurado para o horário de 18:48.
07/09/2018 15:12:20: O serviço está configurado para o horário de 18:48.
07/09/2018 15:13:20: O serviço está configurado para o horário de 18:48.
07/09/2018 15:14:20: O serviço está configurado para o horário de 18:48.
07/09/2018 15:15:20: O serviço está configurado para o horário de 18:48.
07/09/2018 15:16:20: O serviço está configurado para o horário de 18:48.
07/09/2018 15:17:20: O serviço está configurado para o horário de 18:48.
07/09/2018 15:18:20: O serviço está configurado para o horário de 18:48.
07/09/2018 15:19:20: O serviço está configurado para o horário de 18:48.
07/09/2018 15:20:20: O serviço está configurado para o horário de 18:48.
07/09/2018 15:21:20: O serviço está configurado para o horário de 18:48.
07/09/2018 15:22:20: O serviço está configurado para o horário de 18:48.
07/09/2018 15:23:20: O serviço está configurado para o horário de 18:48.
07/09/2018 15:24:20: O serviço está configurado para o horário de 18:48.
07/09/2018 15:25:20: O serviço está configurado para o horário de 18:48.
07/09/2018 15:26:20: O serviço está configurado para o horário de 18:48.
07/09/2018 15:27:20: O serviço está configurado para o horário de 18:48.
07/09/2018 15:28:20: O serviço está configurado para o horário de 18:48.
07/09/2018 15:29:20: O serviço está configurado para o horário de 18:48.
07/09/2018 15:30:20: O serviço está configurado para o horário de 18:48.
07/09/2018 15:31:20: O serviço está configurado para o horário de 18:48.
07/09/2018 15:32:20: O serviço está configurado para o horário de 18:48.
07/09/2018 15:33:20: O serviço está configurado para o horário de 18:48.
07/09/2018 15:34:20: O serviço está configurado para o horário de 18:48.
07/09/2018 15:35:20: O serviço está configurado para o horário de 18:48.
07/09/2018 15:36:20: O serviço está configurado para o horário de 18:48.
07/09/2018 15:37:20: O serviço está configurado para o horário de 18:48.
07/09/2018 15:38:20: O serviço está configurado para o horário de 18:48.
07/09/2018 15:39:20: O serviço está configurado para o horário de 18:48.
07/09/2018 15:40:20: O serviço está configurado para o horário de 18:48.
07/09/2018 15:41:20: O serviço está configurado para o horário de 18:48.
07/09/2018 15:42:20: O serviço está configurado para o horário de 18:48.
07/09/2018 15:43:20: O serviço está configurado para o horário de 18:48.
07/09/2018 15:44:20: O serviço está configurado para o horário de 18:48.
07/09/2018 15:45:20: O serviço está configurado para o horário de 18:48.
07/09/2018 15:46:20: O serviço está configurado para o horário de 18:48.
07/09/2018 15:47:20: O serviço está configurado para o horário de 18:48.
07/09/2018 15:48:20: O serviço está configurado para o horário de 18:48.
07/09/2018 15:49:20: O serviço está configurado para o horário de 18:48.
07/09/2018 15:50:20: O serviço está configurado para o horário de 18:48.
07/09/2018 15:51:20: O serviço está configurado para o horário de 18:48.
07/09/2018 15:52:20: O serviço está configurado para o horário de 18:48.
07/09/2018 15:53:20: O serviço está configurado para o horário de 18:48.
07/09/2018 15:54:20: O serviço está configurado para o horário de 18:48.
07/09/2018 15:55:20: O serviço está configurado para o horário de 18:48.
07/09/2018 15:56:20: O serviço está configurado para o horário de 18:48.
07/09/2018 15:57:20: O serviço está configurado para o horário de 18:48.
07/09/2018 15:58:20: O serviço está configurado para o horário de 18:48.
07/09/2018 15:59:20: O serviço está configurado para o horário de 18:48.
07/09/2018 16:00:20: O serviço está configurado para o horário de 18:48.
07/09/2018 16:01:20: O serviço está configurado para o horário de 18:48.
07/09/2018 16:02:20: O serviço está configurado para o horário de 18:48.
07/09/2018 16:03:20: O serviço está configurado para o horário de 18:48.
07/09/2018 16:04:21: O serviço está configurado para o horário de 18:48.
07/09/2018 16:05:21: O serviço está configurado para o horário de 18:48.
07/09/2018 16:06:21: O serviço está configurado para o horário de 18:48.
07/09/2018 16:07:21: O serviço está configurado para o horário de 18:48.
07/09/2018 16:08:21: O serviço está configurado para o horário de 18:48.
07/09/2018 16:09:21: O serviço está configurado para o horário de 18:48.
07/09/2018 16:10:21: O serviço está configurado para o horário de 18:48.
07/09/2018 16:11:21: O serviço está configurado para o horário de 18:48.
07/09/2018 16:12:21: O serviço está configurado para o horário de 18:48.
07/09/2018 16:13:21: O serviço está configurado para o horário de 18:48.
07/09/2018 16:14:21: O serviço está configurado para o horário de 18:48.
07/09/2018 16:15:21: O serviço está configurado para o horário de 18:48.
07/09/2018 16:16:21: O serviço está configurado para o horário de 18:48.
07/09/2018 16:17:21: O serviço está configurado para o horário de 18:48.
07/09/2018 16:18:21: O serviço está configurado para o horário de 18:48.
07/09/2018 16:19:21: O serviço está configurado para o horário de 18:48.
07/09/2018 16:20:21: O serviço está configurado para o horário de 18:48.
07/09/2018 16:21:21: O serviço está configurado para o horário de 18:48.
07/09/2018 16:22:21: O serviço está configurado para o horário de 18:48.
07/09/2018 16:23:21: O serviço está configurado para o horário de 18:48.
07/09/2018 16:24:21: O serviço está configurado para o horário de 18:48.
07/09/2018 16:25:21: O serviço está configurado para o horário de 18:48.
07/09/2018 16:26:21: O serviço está configurado para o horário de 18:48.
07/09/2018 16:27:21: O serviço está configurado para o horário de 18:48.
07/09/2018 16:28:21: O serviço está configurado para o horário de 18:48.
07/09/2018 16:29:21: O serviço está configurado para o horário de 18:48.
07/09/2018 16:30:21: O serviço está configurado para o horário de 18:48.
07/09/2018 16:31:21: O serviço está configurado para o horário de 18:48.
07/09/2018 16:32:21: O serviço está configurado para o horário de 18:48.
07/09/2018 16:33:21: O serviço está configurado para o horário de 18:48.
07/09/2018 16:34:21: O serviço está configurado para o horário de 18:48.
07/09/2018 16:35:21: O serviço está configurado para o horário de 18:48.
07/09/2018 16:36:21: O serviço está configurado para o horário de 18:48.
07/09/2018 16:37:21: O serviço está configurado para o horário de 18:48.
07/09/2018 16:38:21: O serviço está configurado para o horário de 18:48.
07/09/2018 16:39:21: O serviço está configurado para o horário de 18:48.
07/09/2018 16:40:21: O serviço está configurado para o horário de 18:48.
07/09/2018 16:41:21: O serviço está configurado para o horário de 18:48.
07/09/2018 16:42:21: O serviço está configurado para o horário de 18:48.
07/09/2018 16:43:21: O serviço está configurado para o horário de 18:48.
07/09/2018 16:44:21: O serviço está configurado para o horário de 18:48.
07/09/2018 16:45:21: O serviço está configurado para o horário de 18:48.
07/09/2018 16:46:21: O serviço está configurado para o horário de 18:48.
07/09/2018 16:47:21: O serviço está configurado para o horário de 18:48.
07/09/2018 16:48:21: O serviço está configurado para o horário de 18:48.
07/09/2018 16:49:21: O serviço está configurado para o horário de 18:48.
07/09/2018 16:50:21: O serviço está configurado para o horário de 18:48.
07/09/2018 16:51:21: O serviço está configurado para o horário de 18:48.
07/09/2018 16:52:21: O serviço está configurado para o horário de 18:48.
07/09/2018 16:53:21: O serviço está configurado para o horário de 18:48.
07/09/2018 16:54:21: O serviço está configurado para o horário de 18:48.
07/09/2018 16:55:21: O serviço está configurado para o horário de 18:48.
07/09/2018 16:56:21: O serviço está configurado para o horário de 18:48.
07/09/2018 16:57:21: O serviço está configurado para o horário de 18:48.
07/09/2018 16:58:21: O serviço está configurado para o horário de 18:48.
07/09/2018 16:59:21: O serviço está configurado para o horário de 18:48.
07/09/2018 17:00:21: O serviço está configurado para o horário de 18:48.
07/09/2018 17:01:21: O serviço está configurado para o horário de 18:48.
07/09/2018 17:02:21: O serviço está configurado para o horário de 18:48.
07/09/2018 17:03:21: O serviço está configurado para o horário de 18:48.
07/09/2018 17:04:21: O serviço está configurado para o horário de 18:48.
07/09/2018 17:05:21: O serviço está configurado para o horário de 18:48.
07/09/2018 17:06:21: O serviço está configurado para o horário de 18:48.
07/09/2018 17:07:21: O serviço está configurado para o horário de 18:48.
07/09/2018 17:08:21: O serviço está configurado para o horário de 18:48.
07/09/2018 17:09:21: O serviço está configurado para o horário de 18:48.
07/09/2018 17:10:21: O serviço está configurado para o horário de 18:48.
07/09/2018 17:11:21: O serviço está configurado para o horário de 18:48.
07/09/2018 17:12:21: O serviço está configurado para o horário de 18:48.
07/09/2018 17:13:22: O serviço está configurado para o horário de 18:48.
07/09/2018 17:14:22: O serviço está configurado para o horário de 18:48.
07/09/2018 17:15:22: O serviço está configurado para o horário de 18:48.
07/09/2018 17:16:22: O serviço está configurado para o horário de 18:48.
07/09/2018 17:17:22: O serviço está configurado para o horário de 18:48.
07/09/2018 17:18:22: O serviço está configurado para o horário de 18:48.
07/09/2018 17:19:22: O serviço está configurado para o horário de 18:48.
07/09/2018 17:20:22: O serviço está configurado para o horário de 18:48.
07/09/2018 17:21:22: O serviço está configurado para o horário de 18:48.
07/09/2018 17:22:22: O serviço está configurado para o horário de 18:48.
07/09/2018 17:23:22: O serviço está configurado para o horário de 18:48.
07/09/2018 17:24:22: O serviço está configurado para o horário de 18:48.
07/09/2018 17:25:22: O serviço está configurado para o horário de 18:48.
07/09/2018 17:26:22: O serviço está configurado para o horário de 18:48.
07/09/2018 17:27:22: O serviço está configurado para o horário de 18:48.
07/09/2018 17:28:22: O serviço está configurado para o horário de 18:48.
07/09/2018 17:29:22: O serviço está configurado para o horário de 18:48.
07/09/2018 17:30:22: O serviço está configurado para o horário de 18:48.
07/09/2018 17:31:22: O serviço está configurado para o horário de 18:48.
07/09/2018 17:32:22: O serviço está configurado para o horário de 18:48.
07/09/2018 17:33:22: O serviço está configurado para o horário de 18:48.
07/09/2018 17:34:22: O serviço está configurado para o horário de 18:48.
07/09/2018 17:35:22: O serviço está configurado para o horário de 18:48.
07/09/2018 17:36:22: O serviço está configurado para o horário de 18:48.
07/09/2018 17:37:22: O serviço está configurado para o horário de 18:48.
07/09/2018 17:38:22: O serviço está configurado para o horário de 18:48.
07/09/2018 17:39:22: O serviço está configurado para o horário de 18:48.
07/09/2018 17:40:22: O serviço está configurado para o horário de 18:48.
07/09/2018 17:41:22: O serviço está configurado para o horário de 18:48.
07/09/2018 17:42:22: O serviço está configurado para o horário de 18:48.
07/09/2018 17:43:22: O serviço está configurado para o horário de 18:48.
07/09/2018 17:44:22: O serviço está configurado para o horário de 18:48.
07/09/2018 17:45:22: O serviço está configurado para o horário de 18:48.
07/09/2018 17:46:22: O serviço está configurado para o horário de 18:48.
07/09/2018 17:47:22: O serviço está configurado para o horário de 18:48.
07/09/2018 17:48:22: O serviço está configurado para o horário de 18:48.
07/09/2018 17:49:22: O serviço está configurado para o horário de 18:48.
07/09/2018 17:50:22: O serviço está configurado para o horário de 18:48.
07/09/2018 17:51:22: O serviço está configurado para o horário de 18:48.
07/09/2018 17:52:22: O serviço está configurado para o horário de 18:48.
07/09/2018 17:53:22: O serviço está configurado para o horário de 18:48.
07/09/2018 17:54:22: O serviço está configurado para o horário de 18:48.
07/09/2018 17:55:22: O serviço está configurado para o horário de 18:48.
07/09/2018 17:56:22: O serviço está configurado para o horário de 18:48.
07/09/2018 17:57:22: O serviço está configurado para o horário de 18:48.
07/09/2018 17:58:22: O serviço está configurado para o horário de 18:48.
07/09/2018 17:59:22: O serviço está configurado para o horário de 18:48.
07/09/2018 18:00:22: O serviço está configurado para o horário de 18:48.
07/09/2018 18:01:22: O serviço está configurado para o horário de 18:48.
07/09/2018 18:02:22: O serviço está configurado para o horário de 18:48.
07/09/2018 18:03:22: O serviço está configurado para o horário de 18:48.
07/09/2018 18:04:22: O serviço está configurado para o horário de 18:48.
07/09/2018 18:05:22: O serviço está configurado para o horário de 18:48.
07/09/2018 18:06:22: O serviço está configurado para o horário de 18:48.
07/09/2018 18:07:22: O serviço está configurado para o horário de 18:48.
07/09/2018 18:08:22: O serviço está configurado para o horário de 18:48.
07/09/2018 18:09:22: O serviço está configurado para o horário de 18:48.
07/09/2018 18:10:22: O serviço está configurado para o horário de 18:48.
07/09/2018 18:11:22: O serviço está configurado para o horário de 18:48.
07/09/2018 18:12:22: O serviço está configurado para o horário de 18:48.
07/09/2018 18:13:22: O serviço está configurado para o horário de 18:48.
07/09/2018 18:14:22: O serviço está configurado para o horário de 18:48.
07/09/2018 18:15:22: O serviço está configurado para o horário de 18:48.
07/09/2018 18:16:22: O serviço está configurado para o horário de 18:48.
07/09/2018 18:17:22: O serviço está configurado para o horário de 18:48.
07/09/2018 18:18:22: O serviço está configurado para o horário de 18:48.
07/09/2018 18:19:22: O serviço está configurado para o horário de 18:48.
07/09/2018 18:20:22: O serviço está configurado para o horário de 18:48.
07/09/2018 18:21:22: O serviço está configurado para o horário de 18:48.
07/09/2018 18:22:22: O serviço está configurado para o horário de 18:48.
07/09/2018 18:23:22: O serviço está configurado para o horário de 18:48.
07/09/2018 18:24:22: O serviço está configurado para o horário de 18:48.
07/09/2018 18:25:22: O serviço está configurado para o horário de 18:48.
07/09/2018 18:26:22: O serviço está configurado para o horário de 18:48.
07/09/2018 18:27:23: O serviço está configurado para o horário de 18:48.
07/09/2018 18:28:23: O serviço está configurado para o horário de 18:48.
07/09/2018 18:29:23: O serviço está configurado para o horário de 18:48.
07/09/2018 18:30:23: O serviço está configurado para o horário de 18:48.
07/09/2018 18:31:23: O serviço está configurado para o horário de 18:48.
07/09/2018 18:32:23: O serviço está configurado para o horário de 18:48.
07/09/2018 18:33:23: O serviço está configurado para o horário de 18:48.
07/09/2018 18:34:23: O serviço está configurado para o horário de 18:48.
07/09/2018 18:35:23: O serviço está configurado para o horário de 18:48.
07/09/2018 18:36:23: O serviço está configurado para o horário de 18:48.
07/09/2018 18:37:23: O serviço está configurado para o horário de 18:48.
07/09/2018 18:38:23: O serviço está configurado para o horário de 18:48.
07/09/2018 18:39:23: O serviço está configurado para o horário de 18:48.
07/09/2018 18:40:23: O serviço está configurado para o horário de 18:48.
07/09/2018 18:41:23: O serviço está configurado para o horário de 18:48.
07/09/2018 18:42:23: O serviço está configurado para o horário de 18:48.
07/09/2018 18:43:23: O serviço está configurado para o horário de 18:48.
07/09/2018 18:44:23: O serviço está configurado para o horário de 18:48.
07/09/2018 18:45:23: O serviço está configurado para o horário de 18:48.
07/09/2018 18:46:23: O serviço está configurado para o horário de 18:48.
07/09/2018 18:47:23: O serviço está configurado para o horário de 18:48.
07/09/2018 18:48:23: O serviço está configurado para o horário de 18:48.
07/09/2018 18:48:23: Está na hora de buscar desenquadramentos no suitability.
07/09/2018 18:48:23: Procurando desenquadramentos...
07/09/2018 18:48:38: Error: Erro de rede ou específico à instância ao estabelecer conexão com o SQL Server. O servidor não foi encontrado ou não estava acessível. Verifique se o nome da instância está correto e se o SQL Server está configurado para permitir conexões remotas. (provider: TCP Provider, error: 0 - O tempo limite de espera foi atingido.) - System.Data.SqlClient.SqlException (0x80131904): Erro de rede ou específico à instância ao estabelecer conexão com o SQL Server. O servidor não foi encontrado ou não estava acessível. Verifique se o nome da instância está correto e se o SQL Server está configurado para permitir conexões remotas. (provider: TCP Provider, error: 0 - O tempo limite de espera foi atingido.) ---> System.ComponentModel.Win32Exception (0x80004005): O tempo limite de espera foi atingido
   em System.Data.SqlClient.SqlInternalConnectionTds..ctor(DbConnectionPoolIdentity identity, SqlConnectionString connectionOptions, SqlCredential credential, Object providerInfo, String newPassword, SecureString newSecurePassword, Boolean redirectedUserInstance, SqlConnectionString userConnectionOptions, SessionData reconnectSessionData, DbConnectionPool pool, String accessToken, Boolean applyTransientFaultHandling)
   em System.Data.SqlClient.SqlConnectionFactory.CreateConnection(DbConnectionOptions options, DbConnectionPoolKey poolKey, Object poolGroupProviderInfo, DbConnectionPool pool, DbConnection owningConnection, DbConnectionOptions userOptions)
   em System.Data.ProviderBase.DbConnectionFactory.CreatePooledConnection(DbConnectionPool pool, DbConnection owningObject, DbConnectionOptions options, DbConnectionPoolKey poolKey, DbConnectionOptions userOptions)
   em System.Data.ProviderBase.DbConnectionPool.CreateObject(DbConnection owningObject, DbConnectionOptions userOptions, DbConnectionInternal oldConnection)
   em System.Data.ProviderBase.DbConnectionPool.UserCreateRequest(DbConnection owningObject, DbConnectionOptions userOptions, DbConnectionInternal oldConnection)
   em System.Data.ProviderBase.DbConnectionPool.TryGetConnection(DbConnection owningObject, UInt32 waitForMultipleObjectsTimeout, Boolean allowCreate, Boolean onlyOneCheckConnection, DbConnectionOptions userOptions, DbConnectionInternal& connection)
   em System.Data.ProviderBase.DbConnectionPool.TryGetConnection(DbConnection owningObject, TaskCompletionSource`1 retry, DbConnectionOptions userOptions, DbConnectionInternal& connection)
   em System.Data.ProviderBase.DbConnectionFactory.TryGetConnection(DbConnection owningConnection, TaskCompletionSource`1 retry, DbConnectionOptions userOptions, DbConnectionInternal oldConnection, DbConnectionInternal& connection)
   em System.Data.ProviderBase.DbConnectionInternal.TryOpenConnectionInternal(DbConnection outerConnection, DbConnectionFactory connectionFactory, TaskCompletionSource`1 retry, DbConnectionOptions userOptions)
   em System.Data.ProviderBase.DbConnectionClosed.TryOpenConnection(DbConnection outerConnection, DbConnectionFactory connectionFactory, TaskCompletionSource`1 retry, DbConnectionOptions userOptions)
   em System.Data.SqlClient.SqlConnection.TryOpenInner(TaskCompletionSource`1 retry)
   em System.Data.SqlClient.SqlConnection.TryOpen(TaskCompletionSource`1 retry)
   em System.Data.SqlClient.SqlConnection.Open()
   em QX3.Portal.Services.Data.SuitabilityDAL.SelecionaClientesSuitability(Nullable`1 idClienteGlobal, Nullable`1 cpfcnpj, String cdCliente, String status, String investidor, String desenquadrado) na C:\GIT\brpartners\service\Data\Suitability\SuitabilityDAL.cs:linha 503
   em QX3.Portal.Services.Business.SuitabilityMethods.SelecionaClientesSuitability(Nullable`1 idClienteGlobal, Nullable`1 cpfcnpj, String cdCliente, String status, String investidor, String desenquadrado) na C:\GIT\brpartners\service\Business\Suitability\SuitabilityMethods.cs:linha 140
ClientConnectionId:00000000-0000-0000-0000-000000000000
Error Number:258,State:0,Class:20 -    em QX3.Portal.Services.Business.SuitabilityMethods.SelecionaClientesSuitability(Nullable`1 idClienteGlobal, Nullable`1 cpfcnpj, String cdCliente, String status, String investidor, String desenquadrado) na C:\GIT\brpartners\service\Business\Suitability\SuitabilityMethods.cs:linha 171
   em SuitabilityMismatch.SuitabilityMismatchService.GetClients() na C:\GIT\brpartners\solutions\BrPartners.Portal\SuitabilityMismatch\SuitabilityMismatchService.cs:linha 149
   em SuitabilityMismatch.SuitabilityMismatchService.Search() na C:\GIT\brpartners\solutions\BrPartners.Portal\SuitabilityMismatch\SuitabilityMismatchService.cs:linha 100
   em SuitabilityMismatch.SuitabilityMismatchService.Execute() na C:\GIT\brpartners\solutions\BrPartners.Portal\SuitabilityMismatch\SuitabilityMismatchService.cs:linha 65
07/09/2018 18:49:23: O serviço está configurado para o horário de 18:48.
07/09/2018 18:50:23: O serviço está configurado para o horário de 18:48.
07/09/2018 18:51:23: O serviço está configurado para o horário de 18:48.
07/09/2018 18:52:23: O serviço está configurado para o horário de 18:48.
07/09/2018 18:53:23: O serviço está configurado para o horário de 18:48.
07/09/2018 18:54:23: O serviço está configurado para o horário de 18:48.
07/09/2018 18:55:23: O serviço está configurado para o horário de 18:48.
07/09/2018 18:56:40: O serviço está configurado para o horário de 18:48.
07/09/2018 18:57:40: O serviço está configurado para o horário de 18:48.
07/09/2018 18:58:40: O serviço está configurado para o horário de 18:48.
07/09/2018 18:59:40: O serviço está configurado para o horário de 18:48.
07/09/2018 19:00:40: O serviço está configurado para o horário de 18:48.
07/09/2018 19:01:40: O serviço está configurado para o horário de 18:48.
07/09/2018 19:02:40: O serviço está configurado para o horário de 18:48.
07/09/2018 19:03:40: O serviço está configurado para o horário de 18:48.
07/09/2018 19:04:40: O serviço está configurado para o horário de 18:48.
07/09/2018 19:05:40: O serviço está configurado para o horário de 18:48.
07/09/2018 19:06:40: O serviço está configurado para o horário de 18:48.
07/09/2018 19:07:40: O serviço está configurado para o horário de 18:48.
07/09/2018 19:08:40: O serviço está configurado para o horário de 18:48.
07/09/2018 19:09:40: O serviço está configurado para o horário de 18:48.
07/09/2018 19:10:40: O serviço está configurado para o horário de 18:48.
07/09/2018 19:11:40: O serviço está configurado para o horário de 18:48.
07/09/2018 19:12:40: O serviço está configurado para o horário de 18:48.
07/09/2018 19:13:40: O serviço está configurado para o horário de 18:48.
07/09/2018 19:14:40: O serviço está configurado para o horário de 18:48.
07/09/2018 19:15:40: O serviço está configurado para o horário de 18:48.
07/09/2018 19:16:40: O serviço está configurado para o horário de 18:48.
07/09/2018 19:17:40: O serviço está configurado para o horário de 18:48.
07/09/2018 19:18:41: O serviço está configurado para o horário de 18:48.
07/09/2018 19:19:41: O serviço está configurado para o horário de 18:48.
07/09/2018 19:20:41: O serviço está configurado para o horário de 18:48.
07/09/2018 19:21:41: O serviço está configurado para o horário de 18:48.
07/09/2018 19:22:41: O serviço está configurado para o horário de 18:48.
07/09/2018 19:23:41: O serviço está configurado para o horário de 18:48.
07/09/2018 19:24:41: O serviço está configurado para o horário de 18:48.
07/09/2018 19:25:41: O serviço está configurado para o horário de 18:48.
07/09/2018 19:26:41: O serviço está configurado para o horário de 18:48.
07/09/2018 19:27:41: O serviço está configurado para o horário de 18:48.
07/09/2018 19:28:41: O serviço está configurado para o horário de 18:48.
07/09/2018 19:29:41: O serviço está configurado para o horário de 18:48.
07/09/2018 19:30:41: O serviço está configurado para o horário de 18:48.
07/09/2018 19:31:41: O serviço está configurado para o horário de 18:48.
07/09/2018 19:32:41: O serviço está configurado para o horário de 18:48.
07/09/2018 19:33:41: O serviço está configurado para o horário de 18:48.
07/09/2018 19:34:41: O serviço está configurado para o horário de 18:48.
07/09/2018 19:35:41: O serviço está configurado para o horário de 18:48.
07/09/2018 19:36:41: O serviço está configurado para o horário de 18:48.
07/09/2018 19:37:41: O serviço está configurado para o horário de 18:48.
07/09/2018 19:38:41: O serviço está configurado para o horário de 18:48.
07/09/2018 19:39:41: O serviço está configurado para o horário de 18:48.
07/09/2018 19:40:41: O serviço está configurado para o horário de 18:48.
07/09/2018 19:41:41: O serviço está configurado para o horário de 18:48.
07/09/2018 19:42:41: O serviço está configurado para o horário de 18:48.
07/09/2018 19:43:41: O serviço está configurado para o horário de 18:48.
07/09/2018 19:44:41: O serviço está configurado para o horário de 18:48.
07/09/2018 19:45:41: O serviço está configurado para o horário de 18:48.
07/09/2018 19:46:41: O serviço está configurado para o horário de 18:48.
07/09/2018 19:47:41: O serviço está configurado para o horário de 18:48.
07/09/2018 19:48:41: O serviço está configurado para o horário de 18:48.
07/09/2018 19:49:41: O serviço está configurado para o horário de 18:48.
07/09/2018 19:50:41: O serviço está configurado para o horário de 18:48.
07/09/2018 19:51:41: O serviço está configurado para o horário de 18:48.
07/09/2018 19:52:41: O serviço está configurado para o horário de 18:48.
07/09/2018 19:53:41: O serviço está configurado para o horário de 18:48.
07/09/2018 19:54:41: O serviço está configurado para o horário de 18:48.
07/09/2018 19:55:41: O serviço está configurado para o horário de 18:48.
07/09/2018 19:56:41: O serviço está configurado para o horário de 18:48.
07/09/2018 19:57:41: O serviço está configurado para o horário de 18:48.
07/09/2018 19:58:41: O serviço está configurado para o horário de 18:48.
07/09/2018 19:59:41: O serviço está configurado para o horário de 18:48.
07/09/2018 20:00:41: O serviço está configurado para o horário de 18:48.
07/09/2018 20:01:41: O serviço está configurado para o horário de 18:48.
07/09/2018 20:02:41: O serviço está configurado para o horário de 18:48.
07/09/2018 20:03:41: O serviço está configurado para o horário de 18:48.
07/09/2018 20:04:41: O serviço está configurado para o horário de 18:48.
07/09/2018 20:05:41: O serviço está configurado para o horário de 18:48.
07/09/2018 20:06:41: O serviço está configurado para o horário de 18:48.
07/09/2018 20:07:41: O serviço está configurado para o horário de 18:48.
07/09/2018 20:08:41: O serviço está configurado para o horário de 18:48.
07/09/2018 20:09:41: O serviço está configurado para o horário de 18:48.
07/09/2018 20:10:41: O serviço está configurado para o horário de 18:48.
07/09/2018 20:11:41: O serviço está configurado para o horário de 18:48.
07/09/2018 20:12:41: O serviço está configurado para o horário de 18:48.
07/09/2018 20:13:41: O serviço está configurado para o horário de 18:48.
07/09/2018 20:14:41: O serviço está configurado para o horário de 18:48.
07/09/2018 20:15:41: O serviço está configurado para o horário de 18:48.
07/09/2018 20:16:41: O serviço está configurado para o horário de 18:48.
07/09/2018 20:17:41: O serviço está configurado para o horário de 18:48.
07/09/2018 20:18:41: O serviço está configurado para o horário de 18:48.
07/09/2018 20:19:41: O serviço está configurado para o horário de 18:48.
07/09/2018 20:20:41: O serviço está configurado para o horário de 18:48.
07/09/2018 20:21:41: O serviço está configurado para o horário de 18:48.
07/09/2018 20:22:41: O serviço está configurado para o horário de 18:48.
07/09/2018 20:23:41: O serviço está configurado para o horário de 18:48.
07/09/2018 20:24:41: O serviço está configurado para o horário de 18:48.
07/09/2018 20:25:41: O serviço está configurado para o horário de 18:48.
07/09/2018 20:26:41: O serviço está configurado para o horário de 18:48.
07/09/2018 20:27:41: O serviço está configurado para o horário de 18:48.
07/09/2018 20:28:41: O serviço está configurado para o horário de 18:48.
07/09/2018 20:29:41: O serviço está configurado para o horário de 18:48.
07/09/2018 20:30:41: O serviço está configurado para o horário de 18:48.
07/09/2018 20:31:41: O serviço está configurado para o horário de 18:48.
07/09/2018 20:32:42: O serviço está configurado para o horário de 18:48.
07/09/2018 20:33:42: O serviço está configurado para o horário de 18:48.
07/09/2018 20:34:42: O serviço está configurado para o horário de 18:48.
07/09/2018 20:35:42: O serviço está configurado para o horário de 18:48.
07/09/2018 20:36:42: O serviço está configurado para o horário de 18:48.
07/09/2018 20:37:42: O serviço está configurado para o horário de 18:48.
07/09/2018 20:38:42: O serviço está configurado para o horário de 18:48.
07/09/2018 20:39:42: O serviço está configurado para o horário de 18:48.
07/09/2018 20:40:42: O serviço está configurado para o horário de 18:48.
07/09/2018 20:41:42: O serviço está configurado para o horário de 18:48.
07/09/2018 20:42:42: O serviço está configurado para o horário de 18:48.
07/09/2018 20:43:42: O serviço está configurado para o horário de 18:48.
07/09/2018 20:44:42: O serviço está configurado para o horário de 18:48.
07/09/2018 20:45:42: O serviço está configurado para o horário de 18:48.
07/09/2018 20:46:42: O serviço está configurado para o horário de 18:48.
07/09/2018 20:47:42: O serviço está configurado para o horário de 18:48.
07/09/2018 20:48:42: O serviço está configurado para o horário de 18:48.
07/09/2018 20:49:42: O serviço está configurado para o horário de 18:48.
07/09/2018 20:50:42: O serviço está configurado para o horário de 18:48.
07/09/2018 20:51:42: O serviço está configurado para o horário de 18:48.
07/09/2018 20:52:42: O serviço está configurado para o horário de 18:48.
07/09/2018 20:53:42: O serviço está configurado para o horário de 18:48.
07/09/2018 20:54:42: O serviço está configurado para o horário de 18:48.
07/09/2018 20:55:42: O serviço está configurado para o horário de 18:48.
07/09/2018 20:56:42: O serviço está configurado para o horário de 18:48.
07/09/2018 20:57:42: O serviço está configurado para o horário de 18:48.
07/09/2018 20:58:42: O serviço está configurado para o horário de 18:48.
07/09/2018 20:59:42: O serviço está configurado para o horário de 18:48.
07/09/2018 21:00:42: O serviço está configurado para o horário de 18:48.
07/09/2018 21:01:42: O serviço está configurado para o horário de 18:48.
07/09/2018 21:02:42: O serviço está configurado para o horário de 18:48.
07/09/2018 21:03:42: O serviço está configurado para o horário de 18:48.
07/09/2018 21:04:42: O serviço está configurado para o horário de 18:48.
07/09/2018 21:05:42: O serviço está configurado para o horário de 18:48.
07/09/2018 21:06:42: O serviço está configurado para o horário de 18:48.
07/09/2018 21:07:42: O serviço está configurado para o horário de 18:48.
07/09/2018 21:08:42: O serviço está configurado para o horário de 18:48.
07/09/2018 21:09:42: O serviço está configurado para o horário de 18:48.
07/09/2018 21:10:42: O serviço está configurado para o horário de 18:48.
07/09/2018 21:11:42: O serviço está configurado para o horário de 18:48.
07/09/2018 21:12:42: O serviço está configurado para o horário de 18:48.
07/09/2018 21:13:42: O serviço está configurado para o horário de 18:48.
07/09/2018 21:14:42: O serviço está configurado para o horário de 18:48.
07/09/2018 21:15:42: O serviço está configurado para o horário de 18:48.
07/09/2018 21:16:42: O serviço está configurado para o horário de 18:48.
07/09/2018 21:17:42: O serviço está configurado para o horário de 18:48.
07/09/2018 21:18:42: O serviço está configurado para o horário de 18:48.
07/09/2018 21:19:42: O serviço está configurado para o horário de 18:48.
07/09/2018 21:20:42: O serviço está configurado para o horário de 18:48.
07/09/2018 21:21:42: O serviço está configurado para o horário de 18:48.
07/09/2018 21:22:42: O serviço está configurado para o horário de 18:48.
07/09/2018 21:23:42: O serviço está configurado para o horário de 18:48.
07/09/2018 21:24:42: O serviço está configurado para o horário de 18:48.
07/09/2018 21:25:42: O serviço está configurado para o horário de 18:48.
07/09/2018 21:26:42: O serviço está configurado para o horário de 18:48.
07/09/2018 21:27:42: O serviço está configurado para o horário de 18:48.
07/09/2018 21:28:42: O serviço está configurado para o horário de 18:48.
07/09/2018 21:29:42: O serviço está configurado para o horário de 18:48.
07/09/2018 21:30:42: O serviço está configurado para o horário de 18:48.
07/09/2018 21:31:42: O serviço está configurado para o horário de 18:48.
07/09/2018 21:32:42: O serviço está configurado para o horário de 18:48.
07/09/2018 21:33:42: O serviço está configurado para o horário de 18:48.
07/09/2018 21:34:42: O serviço está configurado para o horário de 18:48.
07/09/2018 21:35:42: O serviço está configurado para o horário de 18:48.
07/09/2018 21:36:42: O serviço está configurado para o horário de 18:48.
07/09/2018 21:37:42: O serviço está configurado para o horário de 18:48.
07/09/2018 21:38:42: O serviço está configurado para o horário de 18:48.
07/09/2018 21:39:42: O serviço está configurado para o horário de 18:48.
07/09/2018 21:40:42: O serviço está configurado para o horário de 18:48.
07/09/2018 21:41:42: O serviço está configurado para o horário de 18:48.
07/09/2018 21:42:42: O serviço está configurado para o horário de 18:48.
07/09/2018 21:43:42: O serviço está configurado para o horário de 18:48.
07/09/2018 21:44:42: O serviço está configurado para o horário de 18:48.
07/09/2018 21:45:43: O serviço está configurado para o horário de 18:48.
07/09/2018 21:46:43: O serviço está configurado para o horário de 18:48.
07/09/2018 21:47:43: O serviço está configurado para o horário de 18:48.
07/09/2018 21:48:43: O serviço está configurado para o horário de 18:48.
07/09/2018 21:49:43: O serviço está configurado para o horário de 18:48.
07/09/2018 21:50:43: O serviço está configurado para o horário de 18:48.
07/09/2018 21:51:43: O serviço está configurado para o horário de 18:48.
07/09/2018 21:52:43: O serviço está configurado para o horário de 18:48.
07/09/2018 21:53:43: O serviço está configurado para o horário de 18:48.
07/09/2018 21:54:43: O serviço está configurado para o horário de 18:48.
07/09/2018 21:55:43: O serviço está configurado para o horário de 18:48.
07/09/2018 21:56:43: O serviço está configurado para o horário de 18:48.
07/09/2018 21:57:43: O serviço está configurado para o horário de 18:48.
07/09/2018 21:58:43: O serviço está configurado para o horário de 18:48.
07/09/2018 21:59:43: O serviço está configurado para o horário de 18:48.
07/09/2018 22:00:43: O serviço está configurado para o horário de 18:48.
07/09/2018 22:01:43: O serviço está configurado para o horário de 18:48.
07/09/2018 22:02:43: O serviço está configurado para o horário de 18:48.
07/09/2018 22:03:43: O serviço está configurado para o horário de 18:48.
07/09/2018 22:04:43: O serviço está configurado para o horário de 18:48.
07/09/2018 22:05:43: O serviço está configurado para o horário de 18:48.
07/09/2018 22:06:43: O serviço está configurado para o horário de 18:48.
07/09/2018 22:07:43: O serviço está configurado para o horário de 18:48.
07/09/2018 22:08:43: O serviço está configurado para o horário de 18:48.
07/09/2018 22:09:43: O serviço está configurado para o horário de 18:48.
07/09/2018 22:10:43: O serviço está configurado para o horário de 18:48.
07/09/2018 22:11:43: O serviço está configurado para o horário de 18:48.
07/09/2018 22:12:43: O serviço está configurado para o horário de 18:48.
07/09/2018 22:13:43: O serviço está configurado para o horário de 18:48.
07/09/2018 22:14:43: O serviço está configurado para o horário de 18:48.
07/09/2018 22:15:43: O serviço está configurado para o horário de 18:48.
07/09/2018 22:16:43: O serviço está configurado para o horário de 18:48.
07/09/2018 22:17:43: O serviço está configurado para o horário de 18:48.
07/09/2018 22:18:43: O serviço está configurado para o horário de 18:48.
07/09/2018 22:19:43: O serviço está configurado para o horário de 18:48.
07/09/2018 22:20:43: O serviço está configurado para o horário de 18:48.
07/09/2018 22:21:43: O serviço está configurado para o horário de 18:48.
07/09/2018 22:22:43: O serviço está configurado para o horário de 18:48.
07/09/2018 22:23:43: O serviço está configurado para o horário de 18:48.
07/09/2018 22:24:43: O serviço está configurado para o horário de 18:48.
07/09/2018 22:25:43: O serviço está configurado para o horário de 18:48.
07/09/2018 22:26:43: O serviço está configurado para o horário de 18:48.
07/09/2018 22:27:43: O serviço está configurado para o horário de 18:48.
07/09/2018 22:28:43: O serviço está configurado para o horário de 18:48.
07/09/2018 22:29:43: O serviço está configurado para o horário de 18:48.
07/09/2018 22:30:43: O serviço está configurado para o horário de 18:48.
07/09/2018 22:31:43: O serviço está configurado para o horário de 18:48.
07/09/2018 22:32:43: O serviço está configurado para o horário de 18:48.
07/09/2018 22:33:43: O serviço está configurado para o horário de 18:48.
07/09/2018 22:34:43: O serviço está configurado para o horário de 18:48.
07/09/2018 22:35:43: O serviço está configurado para o horário de 18:48.
07/09/2018 22:36:43: O serviço está configurado para o horário de 18:48.
07/09/2018 22:37:43: O serviço está configurado para o horário de 18:48.
07/09/2018 22:38:43: O serviço está configurado para o horário de 18:48.
07/09/2018 22:39:43: O serviço está configurado para o horário de 18:48.
07/09/2018 22:40:43: O serviço está configurado para o horário de 18:48.
07/09/2018 22:41:43: O serviço está configurado para o horário de 18:48.
07/09/2018 22:42:43: O serviço está configurado para o horário de 18:48.
07/09/2018 22:43:43: O serviço está configurado para o horário de 18:48.
07/09/2018 22:44:43: O serviço está configurado para o horário de 18:48.
07/09/2018 22:45:43: O serviço está configurado para o horário de 18:48.
07/09/2018 22:46:43: O serviço está configurado para o horário de 18:48.
07/09/2018 22:47:43: O serviço está configurado para o horário de 18:48.
07/09/2018 22:48:43: O serviço está configurado para o horário de 18:48.
07/09/2018 22:49:43: O serviço está configurado para o horário de 18:48.
07/09/2018 22:50:43: O serviço está configurado para o horário de 18:48.
07/09/2018 22:51:43: O serviço está configurado para o horário de 18:48.
07/09/2018 22:52:43: O serviço está configurado para o horário de 18:48.
07/09/2018 22:53:43: O serviço está configurado para o horário de 18:48.
07/09/2018 22:54:43: O serviço está configurado para o horário de 18:48.
07/09/2018 22:55:43: O serviço está configurado para o horário de 18:48.
07/09/2018 22:56:43: O serviço está configurado para o horário de 18:48.
07/09/2018 22:57:43: O serviço está configurado para o horário de 18:48.
07/09/2018 22:58:43: O serviço está configurado para o horário de 18:48.
07/09/2018 22:59:44: O serviço está configurado para o horário de 18:48.
07/09/2018 23:00:44: O serviço está configurado para o horário de 18:48.
07/09/2018 23:01:44: O serviço está configurado para o horário de 18:48.
07/09/2018 23:02:44: O serviço está configurado para o horário de 18:48.
07/09/2018 23:03:44: O serviço está configurado para o horário de 18:48.
07/09/2018 23:04:44: O serviço está configurado para o horário de 18:48.
07/09/2018 23:05:44: O serviço está configurado para o horário de 18:48.
07/09/2018 23:06:44: O serviço está configurado para o horário de 18:48.
07/09/2018 23:07:44: O serviço está configurado para o horário de 18:48.
07/09/2018 23:08:44: O serviço está configurado para o horário de 18:48.
07/09/2018 23:09:44: O serviço está configurado para o horário de 18:48.
07/09/2018 23:10:44: O serviço está configurado para o horário de 18:48.
07/09/2018 23:11:44: O serviço está configurado para o horário de 18:48.
07/09/2018 23:12:44: O serviço está configurado para o horário de 18:48.
07/09/2018 23:13:44: O serviço está configurado para o horário de 18:48.
07/09/2018 23:14:44: O serviço está configurado para o horário de 18:48.
07/09/2018 23:15:44: O serviço está configurado para o horário de 18:48.
07/09/2018 23:16:44: O serviço está configurado para o horário de 18:48.
07/09/2018 23:17:44: O serviço está configurado para o horário de 18:48.
07/09/2018 23:18:44: O serviço está configurado para o horário de 18:48.
07/09/2018 23:19:44: O serviço está configurado para o horário de 18:48.
07/09/2018 23:20:44: O serviço está configurado para o horário de 18:48.
07/09/2018 23:21:44: O serviço está configurado para o horário de 18:48.
07/09/2018 23:22:44: O serviço está configurado para o horário de 18:48.
07/09/2018 23:23:44: O serviço está configurado para o horário de 18:48.
07/09/2018 23:24:44: O serviço está configurado para o horário de 18:48.
07/09/2018 23:25:44: O serviço está configurado para o horário de 18:48.
07/09/2018 23:26:44: O serviço está configurado para o horário de 18:48.
07/09/2018 23:27:44: O serviço está configurado para o horário de 18:48.
07/09/2018 23:28:44: O serviço está configurado para o horário de 18:48.
07/09/2018 23:29:44: O serviço está configurado para o horário de 18:48.
07/09/2018 23:30:44: O serviço está configurado para o horário de 18:48.
07/09/2018 23:31:44: O serviço está configurado para o horário de 18:48.
07/09/2018 23:32:44: O serviço está configurado para o horário de 18:48.
07/09/2018 23:33:44: O serviço está configurado para o horário de 18:48.
07/09/2018 23:34:44: O serviço está configurado para o horário de 18:48.
07/09/2018 23:35:44: O serviço está configurado para o horário de 18:48.
07/09/2018 23:36:44: O serviço está configurado para o horário de 18:48.
07/09/2018 23:37:44: O serviço está configurado para o horário de 18:48.
07/09/2018 23:38:44: O serviço está configurado para o horário de 18:48.
07/09/2018 23:39:44: O serviço está configurado para o horário de 18:48.
07/09/2018 23:40:44: O serviço está configurado para o horário de 18:48.
07/09/2018 23:41:44: O serviço está configurado para o horário de 18:48.
07/09/2018 23:42:44: O serviço está configurado para o horário de 18:48.
07/09/2018 23:43:44: O serviço está configurado para o horário de 18:48.
07/09/2018 23:44:44: O serviço está configurado para o horário de 18:48.
07/09/2018 23:45:44: O serviço está configurado para o horário de 18:48.
07/09/2018 23:46:44: O serviço está configurado para o horário de 18:48.
07/09/2018 23:47:44: O serviço está configurado para o horário de 18:48.
07/09/2018 23:48:44: O serviço está configurado para o horário de 18:48.
07/09/2018 23:49:44: O serviço está configurado para o horário de 18:48.
07/09/2018 23:50:44: O serviço está configurado para o horário de 18:48.
07/09/2018 23:51:44: O serviço está configurado para o horário de 18:48.
07/09/2018 23:52:44: O serviço está configurado para o horário de 18:48.
07/09/2018 23:53:44: O serviço está configurado para o horário de 18:48.
07/09/2018 23:54:44: O serviço está configurado para o horário de 18:48.
07/09/2018 23:55:44: O serviço está configurado para o horário de 18:48.
07/09/2018 23:56:44: O serviço está configurado para o horário de 18:48.
07/09/2018 23:57:44: O serviço está configurado para o horário de 18:48.
07/09/2018 23:58:44: O serviço está configurado para o horário de 18:48.
07/09/2018 23:59:44: O serviço está configurado para o horário de 18:48.
