30/07/2018 00:00:12: O serviço está configurado para o horário de 18:48.
30/07/2018 00:01:12: O serviço está configurado para o horário de 18:48.
30/07/2018 00:02:12: O serviço está configurado para o horário de 18:48.
30/07/2018 00:03:12: O serviço está configurado para o horário de 18:48.
30/07/2018 00:04:12: O serviço está configurado para o horário de 18:48.
30/07/2018 00:05:12: O serviço está configurado para o horário de 18:48.
30/07/2018 00:06:12: O serviço está configurado para o horário de 18:48.
30/07/2018 00:07:12: O serviço está configurado para o horário de 18:48.
30/07/2018 00:08:12: O serviço está configurado para o horário de 18:48.
30/07/2018 00:09:12: O serviço está configurado para o horário de 18:48.
30/07/2018 00:10:12: O serviço está configurado para o horário de 18:48.
30/07/2018 00:11:12: O serviço está configurado para o horário de 18:48.
30/07/2018 00:12:13: O serviço está configurado para o horário de 18:48.
30/07/2018 00:13:13: O serviço está configurado para o horário de 18:48.
30/07/2018 00:14:13: O serviço está configurado para o horário de 18:48.
30/07/2018 00:15:13: O serviço está configurado para o horário de 18:48.
30/07/2018 00:16:13: O serviço está configurado para o horário de 18:48.
30/07/2018 00:17:13: O serviço está configurado para o horário de 18:48.
30/07/2018 00:18:13: O serviço está configurado para o horário de 18:48.
30/07/2018 00:19:13: O serviço está configurado para o horário de 18:48.
30/07/2018 00:20:13: O serviço está configurado para o horário de 18:48.
30/07/2018 00:21:13: O serviço está configurado para o horário de 18:48.
30/07/2018 00:22:13: O serviço está configurado para o horário de 18:48.
30/07/2018 00:23:13: O serviço está configurado para o horário de 18:48.
30/07/2018 00:24:13: O serviço está configurado para o horário de 18:48.
30/07/2018 00:25:13: O serviço está configurado para o horário de 18:48.
30/07/2018 00:26:13: O serviço está configurado para o horário de 18:48.
30/07/2018 00:27:13: O serviço está configurado para o horário de 18:48.
30/07/2018 00:28:13: O serviço está configurado para o horário de 18:48.
30/07/2018 00:29:13: O serviço está configurado para o horário de 18:48.
30/07/2018 00:30:13: O serviço está configurado para o horário de 18:48.
30/07/2018 00:31:13: O serviço está configurado para o horário de 18:48.
30/07/2018 00:32:13: O serviço está configurado para o horário de 18:48.
30/07/2018 00:33:13: O serviço está configurado para o horário de 18:48.
30/07/2018 00:34:13: O serviço está configurado para o horário de 18:48.
30/07/2018 00:35:13: O serviço está configurado para o horário de 18:48.
30/07/2018 00:36:13: O serviço está configurado para o horário de 18:48.
30/07/2018 00:37:13: O serviço está configurado para o horário de 18:48.
30/07/2018 00:38:13: O serviço está configurado para o horário de 18:48.
30/07/2018 00:39:13: O serviço está configurado para o horário de 18:48.
30/07/2018 00:40:13: O serviço está configurado para o horário de 18:48.
30/07/2018 00:41:13: O serviço está configurado para o horário de 18:48.
30/07/2018 00:42:13: O serviço está configurado para o horário de 18:48.
30/07/2018 00:43:13: O serviço está configurado para o horário de 18:48.
30/07/2018 00:44:13: O serviço está configurado para o horário de 18:48.
30/07/2018 00:45:13: O serviço está configurado para o horário de 18:48.
30/07/2018 00:46:13: O serviço está configurado para o horário de 18:48.
30/07/2018 00:47:13: O serviço está configurado para o horário de 18:48.
30/07/2018 00:48:13: O serviço está configurado para o horário de 18:48.
30/07/2018 00:49:13: O serviço está configurado para o horário de 18:48.
30/07/2018 00:50:13: O serviço está configurado para o horário de 18:48.
30/07/2018 00:51:13: O serviço está configurado para o horário de 18:48.
30/07/2018 00:52:13: O serviço está configurado para o horário de 18:48.
30/07/2018 00:53:13: O serviço está configurado para o horário de 18:48.
30/07/2018 00:54:13: O serviço está configurado para o horário de 18:48.
30/07/2018 00:55:13: O serviço está configurado para o horário de 18:48.
30/07/2018 00:56:13: O serviço está configurado para o horário de 18:48.
30/07/2018 00:57:13: O serviço está configurado para o horário de 18:48.
30/07/2018 00:58:13: O serviço está configurado para o horário de 18:48.
30/07/2018 00:59:13: O serviço está configurado para o horário de 18:48.
30/07/2018 01:00:13: O serviço está configurado para o horário de 18:48.
30/07/2018 01:01:13: O serviço está configurado para o horário de 18:48.
30/07/2018 01:02:13: O serviço está configurado para o horário de 18:48.
30/07/2018 01:03:13: O serviço está configurado para o horário de 18:48.
30/07/2018 01:04:13: O serviço está configurado para o horário de 18:48.
30/07/2018 01:05:13: O serviço está configurado para o horário de 18:48.
30/07/2018 01:06:13: O serviço está configurado para o horário de 18:48.
30/07/2018 01:07:13: O serviço está configurado para o horário de 18:48.
30/07/2018 01:08:13: O serviço está configurado para o horário de 18:48.
30/07/2018 01:09:13: O serviço está configurado para o horário de 18:48.
30/07/2018 01:10:13: O serviço está configurado para o horário de 18:48.
30/07/2018 01:11:13: O serviço está configurado para o horário de 18:48.
30/07/2018 01:12:13: O serviço está configurado para o horário de 18:48.
30/07/2018 01:13:13: O serviço está configurado para o horário de 18:48.
30/07/2018 01:14:13: O serviço está configurado para o horário de 18:48.
30/07/2018 08:34:07: O serviço está configurado para o horário de 18:48.
30/07/2018 08:35:07: O serviço está configurado para o horário de 18:48.
30/07/2018 08:36:07: O serviço está configurado para o horário de 18:48.
30/07/2018 08:37:07: O serviço está configurado para o horário de 18:48.
30/07/2018 08:38:07: O serviço está configurado para o horário de 18:48.
30/07/2018 08:39:07: O serviço está configurado para o horário de 18:48.
30/07/2018 08:40:07: O serviço está configurado para o horário de 18:48.
30/07/2018 08:41:07: O serviço está configurado para o horário de 18:48.
30/07/2018 08:42:07: O serviço está configurado para o horário de 18:48.
30/07/2018 08:43:07: O serviço está configurado para o horário de 18:48.
30/07/2018 08:44:07: O serviço está configurado para o horário de 18:48.
30/07/2018 08:45:07: O serviço está configurado para o horário de 18:48.
30/07/2018 08:46:07: O serviço está configurado para o horário de 18:48.
30/07/2018 08:47:07: O serviço está configurado para o horário de 18:48.
30/07/2018 08:48:07: O serviço está configurado para o horário de 18:48.
30/07/2018 08:49:07: O serviço está configurado para o horário de 18:48.
30/07/2018 08:50:07: O serviço está configurado para o horário de 18:48.
30/07/2018 08:51:07: O serviço está configurado para o horário de 18:48.
30/07/2018 08:52:07: O serviço está configurado para o horário de 18:48.
30/07/2018 08:53:07: O serviço está configurado para o horário de 18:48.
30/07/2018 08:54:07: O serviço está configurado para o horário de 18:48.
30/07/2018 08:55:07: O serviço está configurado para o horário de 18:48.
30/07/2018 08:56:07: O serviço está configurado para o horário de 18:48.
30/07/2018 08:57:07: O serviço está configurado para o horário de 18:48.
30/07/2018 08:58:07: O serviço está configurado para o horário de 18:48.
30/07/2018 08:59:07: O serviço está configurado para o horário de 18:48.
30/07/2018 09:00:07: O serviço está configurado para o horário de 18:48.
30/07/2018 09:01:07: O serviço está configurado para o horário de 18:48.
30/07/2018 09:02:07: O serviço está configurado para o horário de 18:48.
30/07/2018 09:03:07: O serviço está configurado para o horário de 18:48.
30/07/2018 09:04:07: O serviço está configurado para o horário de 18:48.
30/07/2018 09:05:07: O serviço está configurado para o horário de 18:48.
30/07/2018 09:06:07: O serviço está configurado para o horário de 18:48.
30/07/2018 09:07:07: O serviço está configurado para o horário de 18:48.
30/07/2018 09:08:07: O serviço está configurado para o horário de 18:48.
30/07/2018 09:09:08: O serviço está configurado para o horário de 18:48.
30/07/2018 09:10:08: O serviço está configurado para o horário de 18:48.
30/07/2018 09:11:08: O serviço está configurado para o horário de 18:48.
30/07/2018 09:12:08: O serviço está configurado para o horário de 18:48.
30/07/2018 09:13:08: O serviço está configurado para o horário de 18:48.
30/07/2018 09:14:08: O serviço está configurado para o horário de 18:48.
30/07/2018 09:15:08: O serviço está configurado para o horário de 18:48.
30/07/2018 09:16:08: O serviço está configurado para o horário de 18:48.
30/07/2018 09:17:08: O serviço está configurado para o horário de 18:48.
30/07/2018 09:18:08: O serviço está configurado para o horário de 18:48.
30/07/2018 09:19:08: O serviço está configurado para o horário de 18:48.
30/07/2018 09:20:08: O serviço está configurado para o horário de 18:48.
30/07/2018 09:21:08: O serviço está configurado para o horário de 18:48.
30/07/2018 09:22:08: O serviço está configurado para o horário de 18:48.
30/07/2018 09:23:08: O serviço está configurado para o horário de 18:48.
30/07/2018 09:24:08: O serviço está configurado para o horário de 18:48.
30/07/2018 09:25:08: O serviço está configurado para o horário de 18:48.
30/07/2018 09:26:08: O serviço está configurado para o horário de 18:48.
30/07/2018 09:27:08: O serviço está configurado para o horário de 18:48.
30/07/2018 09:28:08: O serviço está configurado para o horário de 18:48.
30/07/2018 09:29:09: O serviço está configurado para o horário de 18:48.
30/07/2018 09:30:09: O serviço está configurado para o horário de 18:48.
30/07/2018 09:31:09: O serviço está configurado para o horário de 18:48.
30/07/2018 09:32:09: O serviço está configurado para o horário de 18:48.
30/07/2018 09:33:09: O serviço está configurado para o horário de 18:48.
30/07/2018 09:34:09: O serviço está configurado para o horário de 18:48.
30/07/2018 09:35:09: O serviço está configurado para o horário de 18:48.
30/07/2018 09:36:09: O serviço está configurado para o horário de 18:48.
30/07/2018 09:37:09: O serviço está configurado para o horário de 18:48.
30/07/2018 09:38:09: O serviço está configurado para o horário de 18:48.
30/07/2018 09:39:09: O serviço está configurado para o horário de 18:48.
30/07/2018 09:40:09: O serviço está configurado para o horário de 18:48.
30/07/2018 09:41:09: O serviço está configurado para o horário de 18:48.
30/07/2018 09:42:09: O serviço está configurado para o horário de 18:48.
30/07/2018 09:43:09: O serviço está configurado para o horário de 18:48.
30/07/2018 09:44:09: O serviço está configurado para o horário de 18:48.
30/07/2018 09:45:09: O serviço está configurado para o horário de 18:48.
30/07/2018 09:46:09: O serviço está configurado para o horário de 18:48.
30/07/2018 09:47:09: O serviço está configurado para o horário de 18:48.
30/07/2018 09:48:10: O serviço está configurado para o horário de 18:48.
30/07/2018 09:49:10: O serviço está configurado para o horário de 18:48.
30/07/2018 09:50:10: O serviço está configurado para o horário de 18:48.
30/07/2018 09:51:10: O serviço está configurado para o horário de 18:48.
30/07/2018 09:52:10: O serviço está configurado para o horário de 18:48.
30/07/2018 09:53:10: O serviço está configurado para o horário de 18:48.
30/07/2018 09:54:10: O serviço está configurado para o horário de 18:48.
30/07/2018 09:55:10: O serviço está configurado para o horário de 18:48.
30/07/2018 09:56:10: O serviço está configurado para o horário de 18:48.
30/07/2018 09:57:10: O serviço está configurado para o horário de 18:48.
30/07/2018 09:58:10: O serviço está configurado para o horário de 18:48.
30/07/2018 09:59:10: O serviço está configurado para o horário de 18:48.
30/07/2018 10:00:10: O serviço está configurado para o horário de 18:48.
30/07/2018 10:01:10: O serviço está configurado para o horário de 18:48.
30/07/2018 10:02:10: O serviço está configurado para o horário de 18:48.
30/07/2018 10:03:10: O serviço está configurado para o horário de 18:48.
30/07/2018 10:04:10: O serviço está configurado para o horário de 18:48.
30/07/2018 10:05:10: O serviço está configurado para o horário de 18:48.
30/07/2018 10:06:10: O serviço está configurado para o horário de 18:48.
30/07/2018 10:07:10: O serviço está configurado para o horário de 18:48.
30/07/2018 10:08:10: O serviço está configurado para o horário de 18:48.
30/07/2018 10:09:10: O serviço está configurado para o horário de 18:48.
30/07/2018 10:10:10: O serviço está configurado para o horário de 18:48.
30/07/2018 10:11:10: O serviço está configurado para o horário de 18:48.
30/07/2018 10:12:10: O serviço está configurado para o horário de 18:48.
30/07/2018 10:13:10: O serviço está configurado para o horário de 18:48.
30/07/2018 10:14:10: O serviço está configurado para o horário de 18:48.
30/07/2018 10:15:10: O serviço está configurado para o horário de 18:48.
30/07/2018 10:16:10: O serviço está configurado para o horário de 18:48.
30/07/2018 10:17:11: O serviço está configurado para o horário de 18:48.
30/07/2018 10:18:11: O serviço está configurado para o horário de 18:48.
30/07/2018 10:19:11: O serviço está configurado para o horário de 18:48.
30/07/2018 10:20:11: O serviço está configurado para o horário de 18:48.
30/07/2018 10:21:11: O serviço está configurado para o horário de 18:48.
30/07/2018 10:22:11: O serviço está configurado para o horário de 18:48.
30/07/2018 10:23:11: O serviço está configurado para o horário de 18:48.
30/07/2018 10:24:11: O serviço está configurado para o horário de 18:48.
30/07/2018 10:25:11: O serviço está configurado para o horário de 18:48.
30/07/2018 10:26:11: O serviço está configurado para o horário de 18:48.
30/07/2018 10:27:11: O serviço está configurado para o horário de 18:48.
30/07/2018 10:28:11: O serviço está configurado para o horário de 18:48.
30/07/2018 10:29:11: O serviço está configurado para o horário de 18:48.
30/07/2018 10:30:11: O serviço está configurado para o horário de 18:48.
30/07/2018 10:31:11: O serviço está configurado para o horário de 18:48.
30/07/2018 10:32:11: O serviço está configurado para o horário de 18:48.
30/07/2018 10:33:11: O serviço está configurado para o horário de 18:48.
30/07/2018 10:34:11: O serviço está configurado para o horário de 18:48.
30/07/2018 10:35:11: O serviço está configurado para o horário de 18:48.
30/07/2018 10:36:11: O serviço está configurado para o horário de 18:48.
30/07/2018 10:37:11: O serviço está configurado para o horário de 18:48.
30/07/2018 10:38:11: O serviço está configurado para o horário de 18:48.
30/07/2018 10:39:11: O serviço está configurado para o horário de 18:48.
30/07/2018 10:40:11: O serviço está configurado para o horário de 18:48.
30/07/2018 10:41:11: O serviço está configurado para o horário de 18:48.
30/07/2018 10:42:11: O serviço está configurado para o horário de 18:48.
30/07/2018 10:43:11: O serviço está configurado para o horário de 18:48.
30/07/2018 10:44:11: O serviço está configurado para o horário de 18:48.
30/07/2018 10:45:11: O serviço está configurado para o horário de 18:48.
30/07/2018 10:46:11: O serviço está configurado para o horário de 18:48.
30/07/2018 10:47:11: O serviço está configurado para o horário de 18:48.
30/07/2018 10:48:11: O serviço está configurado para o horário de 18:48.
30/07/2018 10:49:11: O serviço está configurado para o horário de 18:48.
30/07/2018 10:50:11: O serviço está configurado para o horário de 18:48.
30/07/2018 10:51:11: O serviço está configurado para o horário de 18:48.
30/07/2018 10:52:11: O serviço está configurado para o horário de 18:48.
30/07/2018 10:53:11: O serviço está configurado para o horário de 18:48.
30/07/2018 10:54:11: O serviço está configurado para o horário de 18:48.
30/07/2018 10:55:11: O serviço está configurado para o horário de 18:48.
30/07/2018 10:56:12: O serviço está configurado para o horário de 18:48.
30/07/2018 10:57:12: O serviço está configurado para o horário de 18:48.
30/07/2018 10:58:12: O serviço está configurado para o horário de 18:48.
30/07/2018 10:59:12: O serviço está configurado para o horário de 18:48.
30/07/2018 11:00:12: O serviço está configurado para o horário de 18:48.
30/07/2018 11:01:12: O serviço está configurado para o horário de 18:48.
30/07/2018 11:02:12: O serviço está configurado para o horário de 18:48.
30/07/2018 11:03:12: O serviço está configurado para o horário de 18:48.
30/07/2018 11:04:12: O serviço está configurado para o horário de 18:48.
30/07/2018 11:05:12: O serviço está configurado para o horário de 18:48.
30/07/2018 11:06:12: O serviço está configurado para o horário de 18:48.
30/07/2018 11:07:12: O serviço está configurado para o horário de 18:48.
30/07/2018 11:08:12: O serviço está configurado para o horário de 18:48.
30/07/2018 11:09:12: O serviço está configurado para o horário de 18:48.
30/07/2018 11:10:12: O serviço está configurado para o horário de 18:48.
30/07/2018 11:11:12: O serviço está configurado para o horário de 18:48.
30/07/2018 11:12:12: O serviço está configurado para o horário de 18:48.
30/07/2018 11:13:12: O serviço está configurado para o horário de 18:48.
30/07/2018 11:14:12: O serviço está configurado para o horário de 18:48.
30/07/2018 11:15:12: O serviço está configurado para o horário de 18:48.
30/07/2018 11:16:12: O serviço está configurado para o horário de 18:48.
30/07/2018 11:17:12: O serviço está configurado para o horário de 18:48.
30/07/2018 11:18:12: O serviço está configurado para o horário de 18:48.
30/07/2018 11:19:12: O serviço está configurado para o horário de 18:48.
30/07/2018 11:20:12: O serviço está configurado para o horário de 18:48.
30/07/2018 11:21:12: O serviço está configurado para o horário de 18:48.
30/07/2018 11:22:12: O serviço está configurado para o horário de 18:48.
30/07/2018 11:23:12: O serviço está configurado para o horário de 18:48.
30/07/2018 11:24:12: O serviço está configurado para o horário de 18:48.
30/07/2018 11:25:12: O serviço está configurado para o horário de 18:48.
30/07/2018 11:26:12: O serviço está configurado para o horário de 18:48.
30/07/2018 11:27:12: O serviço está configurado para o horário de 18:48.
30/07/2018 11:28:12: O serviço está configurado para o horário de 18:48.
30/07/2018 11:29:12: O serviço está configurado para o horário de 18:48.
30/07/2018 11:30:12: O serviço está configurado para o horário de 18:48.
30/07/2018 11:31:12: O serviço está configurado para o horário de 18:48.
30/07/2018 11:32:12: O serviço está configurado para o horário de 18:48.
30/07/2018 11:33:12: O serviço está configurado para o horário de 18:48.
30/07/2018 11:34:12: O serviço está configurado para o horário de 18:48.
30/07/2018 11:35:12: O serviço está configurado para o horário de 18:48.
30/07/2018 11:36:12: O serviço está configurado para o horário de 18:48.
30/07/2018 11:37:12: O serviço está configurado para o horário de 18:48.
30/07/2018 11:38:12: O serviço está configurado para o horário de 18:48.
30/07/2018 11:39:12: O serviço está configurado para o horário de 18:48.
30/07/2018 11:40:12: O serviço está configurado para o horário de 18:48.
30/07/2018 11:41:12: O serviço está configurado para o horário de 18:48.
30/07/2018 11:42:12: O serviço está configurado para o horário de 18:48.
30/07/2018 11:43:12: O serviço está configurado para o horário de 18:48.
30/07/2018 11:44:12: O serviço está configurado para o horário de 18:48.
30/07/2018 11:45:12: O serviço está configurado para o horário de 18:48.
30/07/2018 11:46:12: O serviço está configurado para o horário de 18:48.
30/07/2018 11:47:12: O serviço está configurado para o horário de 18:48.
30/07/2018 11:48:12: O serviço está configurado para o horário de 18:48.
30/07/2018 11:49:12: O serviço está configurado para o horário de 18:48.
30/07/2018 11:50:12: O serviço está configurado para o horário de 18:48.
30/07/2018 11:51:12: O serviço está configurado para o horário de 18:48.
30/07/2018 11:52:12: O serviço está configurado para o horário de 18:48.
30/07/2018 11:53:12: O serviço está configurado para o horário de 18:48.
30/07/2018 11:54:12: O serviço está configurado para o horário de 18:48.
30/07/2018 11:55:12: O serviço está configurado para o horário de 18:48.
30/07/2018 11:56:12: O serviço está configurado para o horário de 18:48.
30/07/2018 11:57:12: O serviço está configurado para o horário de 18:48.
30/07/2018 11:58:12: O serviço está configurado para o horário de 18:48.
30/07/2018 11:59:12: O serviço está configurado para o horário de 18:48.
30/07/2018 12:00:12: O serviço está configurado para o horário de 18:48.
30/07/2018 12:01:12: O serviço está configurado para o horário de 18:48.
30/07/2018 12:02:12: O serviço está configurado para o horário de 18:48.
30/07/2018 12:03:12: O serviço está configurado para o horário de 18:48.
30/07/2018 12:04:19: O serviço está configurado para o horário de 18:48.
30/07/2018 12:05:13: O serviço está configurado para o horário de 18:48.
30/07/2018 12:06:13: O serviço está configurado para o horário de 18:48.
30/07/2018 12:07:13: O serviço está configurado para o horário de 18:48.
30/07/2018 12:08:13: O serviço está configurado para o horário de 18:48.
30/07/2018 12:09:13: O serviço está configurado para o horário de 18:48.
30/07/2018 12:10:13: O serviço está configurado para o horário de 18:48.
30/07/2018 12:11:13: O serviço está configurado para o horário de 18:48.
30/07/2018 12:12:13: O serviço está configurado para o horário de 18:48.
30/07/2018 12:13:13: O serviço está configurado para o horário de 18:48.
30/07/2018 12:14:13: O serviço está configurado para o horário de 18:48.
30/07/2018 12:15:13: O serviço está configurado para o horário de 18:48.
30/07/2018 12:16:13: O serviço está configurado para o horário de 18:48.
30/07/2018 12:17:13: O serviço está configurado para o horário de 18:48.
30/07/2018 12:18:13: O serviço está configurado para o horário de 18:48.
30/07/2018 12:19:13: O serviço está configurado para o horário de 18:48.
30/07/2018 12:20:13: O serviço está configurado para o horário de 18:48.
30/07/2018 12:21:13: O serviço está configurado para o horário de 18:48.
30/07/2018 12:22:13: O serviço está configurado para o horário de 18:48.
30/07/2018 12:23:13: O serviço está configurado para o horário de 18:48.
30/07/2018 12:24:13: O serviço está configurado para o horário de 18:48.
30/07/2018 12:25:13: O serviço está configurado para o horário de 18:48.
30/07/2018 12:26:13: O serviço está configurado para o horário de 18:48.
30/07/2018 12:27:13: O serviço está configurado para o horário de 18:48.
30/07/2018 12:28:13: O serviço está configurado para o horário de 18:48.
30/07/2018 12:29:13: O serviço está configurado para o horário de 18:48.
30/07/2018 12:30:13: O serviço está configurado para o horário de 18:48.
30/07/2018 12:31:13: O serviço está configurado para o horário de 18:48.
30/07/2018 12:32:13: O serviço está configurado para o horário de 18:48.
30/07/2018 12:33:13: O serviço está configurado para o horário de 18:48.
30/07/2018 12:34:13: O serviço está configurado para o horário de 18:48.
30/07/2018 12:35:13: O serviço está configurado para o horário de 18:48.
30/07/2018 12:36:13: O serviço está configurado para o horário de 18:48.
30/07/2018 12:37:13: O serviço está configurado para o horário de 18:48.
30/07/2018 12:38:13: O serviço está configurado para o horário de 18:48.
30/07/2018 12:39:13: O serviço está configurado para o horário de 18:48.
30/07/2018 12:40:13: O serviço está configurado para o horário de 18:48.
30/07/2018 12:41:13: O serviço está configurado para o horário de 18:48.
30/07/2018 12:42:13: O serviço está configurado para o horário de 18:48.
30/07/2018 12:43:13: O serviço está configurado para o horário de 18:48.
30/07/2018 12:44:13: O serviço está configurado para o horário de 18:48.
30/07/2018 12:45:13: O serviço está configurado para o horário de 18:48.
30/07/2018 12:46:13: O serviço está configurado para o horário de 18:48.
30/07/2018 12:47:13: O serviço está configurado para o horário de 18:48.
30/07/2018 12:48:13: O serviço está configurado para o horário de 18:48.
30/07/2018 12:49:13: O serviço está configurado para o horário de 18:48.
30/07/2018 12:50:13: O serviço está configurado para o horário de 18:48.
30/07/2018 12:51:13: O serviço está configurado para o horário de 18:48.
30/07/2018 12:52:13: O serviço está configurado para o horário de 18:48.
30/07/2018 12:53:13: O serviço está configurado para o horário de 18:48.
30/07/2018 12:54:13: O serviço está configurado para o horário de 18:48.
30/07/2018 12:55:13: O serviço está configurado para o horário de 18:48.
30/07/2018 12:56:13: O serviço está configurado para o horário de 18:48.
30/07/2018 12:57:13: O serviço está configurado para o horário de 18:48.
30/07/2018 12:58:13: O serviço está configurado para o horário de 18:48.
30/07/2018 12:59:13: O serviço está configurado para o horário de 18:48.
30/07/2018 13:00:13: O serviço está configurado para o horário de 18:48.
30/07/2018 13:01:13: O serviço está configurado para o horário de 18:48.
30/07/2018 13:02:13: O serviço está configurado para o horário de 18:48.
30/07/2018 13:03:13: O serviço está configurado para o horário de 18:48.
30/07/2018 13:04:13: O serviço está configurado para o horário de 18:48.
30/07/2018 13:05:13: O serviço está configurado para o horário de 18:48.
30/07/2018 13:06:13: O serviço está configurado para o horário de 18:48.
30/07/2018 13:07:13: O serviço está configurado para o horário de 18:48.
30/07/2018 13:08:13: O serviço está configurado para o horário de 18:48.
30/07/2018 13:09:13: O serviço está configurado para o horário de 18:48.
30/07/2018 13:10:13: O serviço está configurado para o horário de 18:48.
30/07/2018 13:11:13: O serviço está configurado para o horário de 18:48.
30/07/2018 13:12:14: O serviço está configurado para o horário de 18:48.
30/07/2018 13:13:14: O serviço está configurado para o horário de 18:48.
30/07/2018 13:14:14: O serviço está configurado para o horário de 18:48.
30/07/2018 13:15:14: O serviço está configurado para o horário de 18:48.
30/07/2018 13:16:14: O serviço está configurado para o horário de 18:48.
30/07/2018 13:17:14: O serviço está configurado para o horário de 18:48.
30/07/2018 13:18:14: O serviço está configurado para o horário de 18:48.
30/07/2018 13:19:14: O serviço está configurado para o horário de 18:48.
30/07/2018 13:20:14: O serviço está configurado para o horário de 18:48.
30/07/2018 13:21:14: O serviço está configurado para o horário de 18:48.
30/07/2018 13:22:14: O serviço está configurado para o horário de 18:48.
30/07/2018 13:23:14: O serviço está configurado para o horário de 18:48.
30/07/2018 13:24:14: O serviço está configurado para o horário de 18:48.
30/07/2018 13:25:14: O serviço está configurado para o horário de 18:48.
30/07/2018 13:26:14: O serviço está configurado para o horário de 18:48.
30/07/2018 13:27:14: O serviço está configurado para o horário de 18:48.
30/07/2018 13:28:14: O serviço está configurado para o horário de 18:48.
30/07/2018 13:29:14: O serviço está configurado para o horário de 18:48.
30/07/2018 13:30:14: O serviço está configurado para o horário de 18:48.
30/07/2018 13:31:14: O serviço está configurado para o horário de 18:48.
30/07/2018 13:32:14: O serviço está configurado para o horário de 18:48.
30/07/2018 13:33:14: O serviço está configurado para o horário de 18:48.
30/07/2018 13:34:14: O serviço está configurado para o horário de 18:48.
30/07/2018 13:35:14: O serviço está configurado para o horário de 18:48.
30/07/2018 13:36:14: O serviço está configurado para o horário de 18:48.
30/07/2018 13:37:14: O serviço está configurado para o horário de 18:48.
30/07/2018 13:38:14: O serviço está configurado para o horário de 18:48.
30/07/2018 13:39:14: O serviço está configurado para o horário de 18:48.
30/07/2018 13:40:14: O serviço está configurado para o horário de 18:48.
30/07/2018 13:41:14: O serviço está configurado para o horário de 18:48.
30/07/2018 13:42:14: O serviço está configurado para o horário de 18:48.
30/07/2018 13:43:14: O serviço está configurado para o horário de 18:48.
30/07/2018 13:44:14: O serviço está configurado para o horário de 18:48.
30/07/2018 13:45:14: O serviço está configurado para o horário de 18:48.
30/07/2018 13:46:14: O serviço está configurado para o horário de 18:48.
30/07/2018 13:47:14: O serviço está configurado para o horário de 18:48.
30/07/2018 13:48:14: O serviço está configurado para o horário de 18:48.
30/07/2018 13:49:14: O serviço está configurado para o horário de 18:48.
30/07/2018 13:50:14: O serviço está configurado para o horário de 18:48.
30/07/2018 13:51:14: O serviço está configurado para o horário de 18:48.
30/07/2018 13:52:14: O serviço está configurado para o horário de 18:48.
30/07/2018 13:53:14: O serviço está configurado para o horário de 18:48.
30/07/2018 13:54:14: O serviço está configurado para o horário de 18:48.
30/07/2018 13:55:14: O serviço está configurado para o horário de 18:48.
30/07/2018 13:56:14: O serviço está configurado para o horário de 18:48.
30/07/2018 13:57:14: O serviço está configurado para o horário de 18:48.
30/07/2018 13:58:15: O serviço está configurado para o horário de 18:48.
30/07/2018 13:59:15: O serviço está configurado para o horário de 18:48.
30/07/2018 14:00:15: O serviço está configurado para o horário de 18:48.
30/07/2018 14:01:15: O serviço está configurado para o horário de 18:48.
30/07/2018 14:02:15: O serviço está configurado para o horário de 18:48.
30/07/2018 14:03:15: O serviço está configurado para o horário de 18:48.
30/07/2018 14:04:15: O serviço está configurado para o horário de 18:48.
30/07/2018 14:05:15: O serviço está configurado para o horário de 18:48.
30/07/2018 14:06:15: O serviço está configurado para o horário de 18:48.
30/07/2018 14:07:15: O serviço está configurado para o horário de 18:48.
30/07/2018 14:08:15: O serviço está configurado para o horário de 18:48.
30/07/2018 14:09:15: O serviço está configurado para o horário de 18:48.
30/07/2018 14:10:15: O serviço está configurado para o horário de 18:48.
30/07/2018 14:11:15: O serviço está configurado para o horário de 18:48.
30/07/2018 14:12:15: O serviço está configurado para o horário de 18:48.
30/07/2018 14:13:15: O serviço está configurado para o horário de 18:48.
30/07/2018 14:14:15: O serviço está configurado para o horário de 18:48.
30/07/2018 14:15:15: O serviço está configurado para o horário de 18:48.
30/07/2018 14:16:15: O serviço está configurado para o horário de 18:48.
30/07/2018 14:17:15: O serviço está configurado para o horário de 18:48.
30/07/2018 14:18:15: O serviço está configurado para o horário de 18:48.
30/07/2018 14:19:15: O serviço está configurado para o horário de 18:48.
30/07/2018 14:20:15: O serviço está configurado para o horário de 18:48.
30/07/2018 14:21:15: O serviço está configurado para o horário de 18:48.
30/07/2018 14:22:15: O serviço está configurado para o horário de 18:48.
30/07/2018 14:23:15: O serviço está configurado para o horário de 18:48.
30/07/2018 14:24:15: O serviço está configurado para o horário de 18:48.
30/07/2018 14:25:15: O serviço está configurado para o horário de 18:48.
30/07/2018 14:26:15: O serviço está configurado para o horário de 18:48.
30/07/2018 14:27:15: O serviço está configurado para o horário de 18:48.
30/07/2018 14:28:15: O serviço está configurado para o horário de 18:48.
30/07/2018 14:29:15: O serviço está configurado para o horário de 18:48.
30/07/2018 14:30:15: O serviço está configurado para o horário de 18:48.
30/07/2018 14:31:15: O serviço está configurado para o horário de 18:48.
30/07/2018 14:32:15: O serviço está configurado para o horário de 18:48.
30/07/2018 14:33:15: O serviço está configurado para o horário de 18:48.
30/07/2018 14:34:15: O serviço está configurado para o horário de 18:48.
30/07/2018 14:35:15: O serviço está configurado para o horário de 18:48.
30/07/2018 14:36:15: O serviço está configurado para o horário de 18:48.
30/07/2018 14:37:15: O serviço está configurado para o horário de 18:48.
30/07/2018 14:38:15: O serviço está configurado para o horário de 18:48.
30/07/2018 14:39:15: O serviço está configurado para o horário de 18:48.
30/07/2018 14:40:15: O serviço está configurado para o horário de 18:48.
30/07/2018 14:41:15: O serviço está configurado para o horário de 18:48.
30/07/2018 14:42:15: O serviço está configurado para o horário de 18:48.
30/07/2018 14:43:15: O serviço está configurado para o horário de 18:48.
30/07/2018 14:44:15: O serviço está configurado para o horário de 18:48.
30/07/2018 14:45:15: O serviço está configurado para o horário de 18:48.
30/07/2018 14:46:15: O serviço está configurado para o horário de 18:48.
30/07/2018 14:47:15: O serviço está configurado para o horário de 18:48.
30/07/2018 14:48:15: O serviço está configurado para o horário de 18:48.
30/07/2018 14:49:15: O serviço está configurado para o horário de 18:48.
30/07/2018 14:50:15: O serviço está configurado para o horário de 18:48.
30/07/2018 14:51:15: O serviço está configurado para o horário de 18:48.
30/07/2018 14:52:15: O serviço está configurado para o horário de 18:48.
30/07/2018 14:53:15: O serviço está configurado para o horário de 18:48.
30/07/2018 14:54:15: O serviço está configurado para o horário de 18:48.
30/07/2018 14:55:15: O serviço está configurado para o horário de 18:48.
30/07/2018 14:56:15: O serviço está configurado para o horário de 18:48.
30/07/2018 14:57:15: O serviço está configurado para o horário de 18:48.
30/07/2018 14:58:15: O serviço está configurado para o horário de 18:48.
30/07/2018 14:59:15: O serviço está configurado para o horário de 18:48.
30/07/2018 15:00:15: O serviço está configurado para o horário de 18:48.
30/07/2018 15:01:15: O serviço está configurado para o horário de 18:48.
30/07/2018 15:02:15: O serviço está configurado para o horário de 18:48.
30/07/2018 15:03:15: O serviço está configurado para o horário de 18:48.
30/07/2018 15:04:15: O serviço está configurado para o horário de 18:48.
30/07/2018 15:05:15: O serviço está configurado para o horário de 18:48.
30/07/2018 15:06:15: O serviço está configurado para o horário de 18:48.
30/07/2018 15:07:15: O serviço está configurado para o horário de 18:48.
30/07/2018 15:08:15: O serviço está configurado para o horário de 18:48.
30/07/2018 15:09:15: O serviço está configurado para o horário de 18:48.
30/07/2018 15:10:15: O serviço está configurado para o horário de 18:48.
30/07/2018 15:11:16: O serviço está configurado para o horário de 18:48.
30/07/2018 15:12:16: O serviço está configurado para o horário de 18:48.
30/07/2018 15:13:16: O serviço está configurado para o horário de 18:48.
30/07/2018 15:14:16: O serviço está configurado para o horário de 18:48.
30/07/2018 15:15:16: O serviço está configurado para o horário de 18:48.
30/07/2018 15:16:16: O serviço está configurado para o horário de 18:48.
30/07/2018 15:17:16: O serviço está configurado para o horário de 18:48.
30/07/2018 15:18:16: O serviço está configurado para o horário de 18:48.
30/07/2018 15:19:16: O serviço está configurado para o horário de 18:48.
30/07/2018 15:20:16: O serviço está configurado para o horário de 18:48.
30/07/2018 15:21:16: O serviço está configurado para o horário de 18:48.
30/07/2018 15:22:16: O serviço está configurado para o horário de 18:48.
30/07/2018 15:23:16: O serviço está configurado para o horário de 18:48.
30/07/2018 15:24:16: O serviço está configurado para o horário de 18:48.
30/07/2018 15:25:16: O serviço está configurado para o horário de 18:48.
30/07/2018 15:26:16: O serviço está configurado para o horário de 18:48.
30/07/2018 15:27:16: O serviço está configurado para o horário de 18:48.
30/07/2018 15:28:16: O serviço está configurado para o horário de 18:48.
30/07/2018 15:29:16: O serviço está configurado para o horário de 18:48.
30/07/2018 15:30:16: O serviço está configurado para o horário de 18:48.
30/07/2018 15:31:16: O serviço está configurado para o horário de 18:48.
30/07/2018 15:32:16: O serviço está configurado para o horário de 18:48.
30/07/2018 15:33:16: O serviço está configurado para o horário de 18:48.
30/07/2018 15:34:16: O serviço está configurado para o horário de 18:48.
30/07/2018 15:35:16: O serviço está configurado para o horário de 18:48.
30/07/2018 15:36:16: O serviço está configurado para o horário de 18:48.
30/07/2018 15:37:16: O serviço está configurado para o horário de 18:48.
30/07/2018 15:38:16: O serviço está configurado para o horário de 18:48.
30/07/2018 15:39:16: O serviço está configurado para o horário de 18:48.
30/07/2018 15:40:16: O serviço está configurado para o horário de 18:48.
30/07/2018 15:41:16: O serviço está configurado para o horário de 18:48.
30/07/2018 15:42:16: O serviço está configurado para o horário de 18:48.
30/07/2018 15:43:16: O serviço está configurado para o horário de 18:48.
30/07/2018 15:44:16: O serviço está configurado para o horário de 18:48.
30/07/2018 15:45:16: O serviço está configurado para o horário de 18:48.
30/07/2018 15:46:16: O serviço está configurado para o horário de 18:48.
30/07/2018 15:47:16: O serviço está configurado para o horário de 18:48.
30/07/2018 15:48:16: O serviço está configurado para o horário de 18:48.
30/07/2018 15:49:16: O serviço está configurado para o horário de 18:48.
30/07/2018 15:50:16: O serviço está configurado para o horário de 18:48.
30/07/2018 15:51:16: O serviço está configurado para o horário de 18:48.
30/07/2018 15:52:16: O serviço está configurado para o horário de 18:48.
30/07/2018 15:53:16: O serviço está configurado para o horário de 18:48.
30/07/2018 15:54:16: O serviço está configurado para o horário de 18:48.
30/07/2018 15:55:16: O serviço está configurado para o horário de 18:48.
30/07/2018 15:56:16: O serviço está configurado para o horário de 18:48.
30/07/2018 15:57:16: O serviço está configurado para o horário de 18:48.
30/07/2018 15:58:16: O serviço está configurado para o horário de 18:48.
30/07/2018 15:59:16: O serviço está configurado para o horário de 18:48.
30/07/2018 16:00:16: O serviço está configurado para o horário de 18:48.
30/07/2018 16:01:16: O serviço está configurado para o horário de 18:48.
30/07/2018 16:02:16: O serviço está configurado para o horário de 18:48.
30/07/2018 16:03:16: O serviço está configurado para o horário de 18:48.
30/07/2018 16:04:16: O serviço está configurado para o horário de 18:48.
30/07/2018 16:05:16: O serviço está configurado para o horário de 18:48.
30/07/2018 16:06:16: O serviço está configurado para o horário de 18:48.
30/07/2018 16:07:16: O serviço está configurado para o horário de 18:48.
30/07/2018 16:08:16: O serviço está configurado para o horário de 18:48.
30/07/2018 16:09:16: O serviço está configurado para o horário de 18:48.
30/07/2018 16:10:16: O serviço está configurado para o horário de 18:48.
30/07/2018 16:11:16: O serviço está configurado para o horário de 18:48.
30/07/2018 16:12:16: O serviço está configurado para o horário de 18:48.
30/07/2018 16:13:16: O serviço está configurado para o horário de 18:48.
30/07/2018 16:14:16: O serviço está configurado para o horário de 18:48.
30/07/2018 16:15:16: O serviço está configurado para o horário de 18:48.
30/07/2018 16:16:16: O serviço está configurado para o horário de 18:48.
30/07/2018 16:17:16: O serviço está configurado para o horário de 18:48.
30/07/2018 16:18:16: O serviço está configurado para o horário de 18:48.
30/07/2018 16:19:16: O serviço está configurado para o horário de 18:48.
30/07/2018 16:20:16: O serviço está configurado para o horário de 18:48.
30/07/2018 16:21:16: O serviço está configurado para o horário de 18:48.
30/07/2018 16:22:16: O serviço está configurado para o horário de 18:48.
30/07/2018 16:23:16: O serviço está configurado para o horário de 18:48.
30/07/2018 16:24:16: O serviço está configurado para o horário de 18:48.
30/07/2018 16:25:17: O serviço está configurado para o horário de 18:48.
30/07/2018 16:26:17: O serviço está configurado para o horário de 18:48.
30/07/2018 16:27:17: O serviço está configurado para o horário de 18:48.
30/07/2018 16:28:17: O serviço está configurado para o horário de 18:48.
30/07/2018 16:29:17: O serviço está configurado para o horário de 18:48.
30/07/2018 16:30:17: O serviço está configurado para o horário de 18:48.
30/07/2018 16:31:17: O serviço está configurado para o horário de 18:48.
30/07/2018 16:32:17: O serviço está configurado para o horário de 18:48.
30/07/2018 16:33:17: O serviço está configurado para o horário de 18:48.
30/07/2018 16:34:17: O serviço está configurado para o horário de 18:48.
30/07/2018 16:35:17: O serviço está configurado para o horário de 18:48.
30/07/2018 16:36:17: O serviço está configurado para o horário de 18:48.
30/07/2018 16:37:17: O serviço está configurado para o horário de 18:48.
30/07/2018 16:38:17: O serviço está configurado para o horário de 18:48.
30/07/2018 16:39:17: O serviço está configurado para o horário de 18:48.
30/07/2018 16:40:17: O serviço está configurado para o horário de 18:48.
30/07/2018 16:41:17: O serviço está configurado para o horário de 18:48.
30/07/2018 16:42:17: O serviço está configurado para o horário de 18:48.
30/07/2018 16:43:17: O serviço está configurado para o horário de 18:48.
30/07/2018 16:44:17: O serviço está configurado para o horário de 18:48.
30/07/2018 16:45:17: O serviço está configurado para o horário de 18:48.
30/07/2018 16:46:17: O serviço está configurado para o horário de 18:48.
30/07/2018 16:47:17: O serviço está configurado para o horário de 18:48.
30/07/2018 16:48:17: O serviço está configurado para o horário de 18:48.
30/07/2018 16:49:17: O serviço está configurado para o horário de 18:48.
30/07/2018 16:50:17: O serviço está configurado para o horário de 18:48.
30/07/2018 16:51:17: O serviço está configurado para o horário de 18:48.
30/07/2018 16:52:17: O serviço está configurado para o horário de 18:48.
30/07/2018 16:53:17: O serviço está configurado para o horário de 18:48.
30/07/2018 16:54:17: O serviço está configurado para o horário de 18:48.
30/07/2018 16:55:17: O serviço está configurado para o horário de 18:48.
30/07/2018 16:56:17: O serviço está configurado para o horário de 18:48.
30/07/2018 16:57:17: O serviço está configurado para o horário de 18:48.
30/07/2018 16:58:17: O serviço está configurado para o horário de 18:48.
30/07/2018 16:59:17: O serviço está configurado para o horário de 18:48.
30/07/2018 17:00:17: O serviço está configurado para o horário de 18:48.
30/07/2018 17:01:17: O serviço está configurado para o horário de 18:48.
30/07/2018 17:02:17: O serviço está configurado para o horário de 18:48.
30/07/2018 17:03:17: O serviço está configurado para o horário de 18:48.
30/07/2018 17:04:17: O serviço está configurado para o horário de 18:48.
30/07/2018 17:05:17: O serviço está configurado para o horário de 18:48.
30/07/2018 17:06:17: O serviço está configurado para o horário de 18:48.
30/07/2018 17:07:17: O serviço está configurado para o horário de 18:48.
30/07/2018 17:08:17: O serviço está configurado para o horário de 18:48.
30/07/2018 17:09:17: O serviço está configurado para o horário de 18:48.
30/07/2018 17:10:17: O serviço está configurado para o horário de 18:48.
30/07/2018 17:11:17: O serviço está configurado para o horário de 18:48.
30/07/2018 17:12:17: O serviço está configurado para o horário de 18:48.
30/07/2018 17:13:17: O serviço está configurado para o horário de 18:48.
30/07/2018 17:14:17: O serviço está configurado para o horário de 18:48.
30/07/2018 17:15:17: O serviço está configurado para o horário de 18:48.
30/07/2018 17:16:17: O serviço está configurado para o horário de 18:48.
30/07/2018 17:17:17: O serviço está configurado para o horário de 18:48.
30/07/2018 17:18:17: O serviço está configurado para o horário de 18:48.
30/07/2018 17:19:17: O serviço está configurado para o horário de 18:48.
30/07/2018 17:20:17: O serviço está configurado para o horário de 18:48.
30/07/2018 17:21:17: O serviço está configurado para o horário de 18:48.
30/07/2018 17:22:17: O serviço está configurado para o horário de 18:48.
30/07/2018 17:23:17: O serviço está configurado para o horário de 18:48.
30/07/2018 17:24:17: O serviço está configurado para o horário de 18:48.
30/07/2018 17:25:17: O serviço está configurado para o horário de 18:48.
30/07/2018 17:26:17: O serviço está configurado para o horário de 18:48.
30/07/2018 17:27:17: O serviço está configurado para o horário de 18:48.
30/07/2018 17:28:17: O serviço está configurado para o horário de 18:48.
30/07/2018 17:29:17: O serviço está configurado para o horário de 18:48.
30/07/2018 17:30:17: O serviço está configurado para o horário de 18:48.
30/07/2018 17:31:17: O serviço está configurado para o horário de 18:48.
30/07/2018 17:32:17: O serviço está configurado para o horário de 18:48.
30/07/2018 17:33:17: O serviço está configurado para o horário de 18:48.
30/07/2018 17:34:17: O serviço está configurado para o horário de 18:48.
30/07/2018 17:35:17: O serviço está configurado para o horário de 18:48.
30/07/2018 17:36:17: O serviço está configurado para o horário de 18:48.
30/07/2018 17:37:17: O serviço está configurado para o horário de 18:48.
30/07/2018 17:38:17: O serviço está configurado para o horário de 18:48.
30/07/2018 17:39:18: O serviço está configurado para o horário de 18:48.
30/07/2018 17:40:18: O serviço está configurado para o horário de 18:48.
30/07/2018 17:41:18: O serviço está configurado para o horário de 18:48.
30/07/2018 17:42:18: O serviço está configurado para o horário de 18:48.
30/07/2018 17:43:18: O serviço está configurado para o horário de 18:48.
30/07/2018 17:44:18: O serviço está configurado para o horário de 18:48.
30/07/2018 17:45:18: O serviço está configurado para o horário de 18:48.
30/07/2018 17:46:18: O serviço está configurado para o horário de 18:48.
30/07/2018 17:47:18: O serviço está configurado para o horário de 18:48.
30/07/2018 17:48:18: O serviço está configurado para o horário de 18:48.
30/07/2018 17:49:18: O serviço está configurado para o horário de 18:48.
30/07/2018 17:50:18: O serviço está configurado para o horário de 18:48.
30/07/2018 17:51:18: O serviço está configurado para o horário de 18:48.
30/07/2018 17:52:18: O serviço está configurado para o horário de 18:48.
30/07/2018 17:53:18: O serviço está configurado para o horário de 18:48.
30/07/2018 17:54:18: O serviço está configurado para o horário de 18:48.
30/07/2018 17:55:18: O serviço está configurado para o horário de 18:48.
30/07/2018 17:56:18: O serviço está configurado para o horário de 18:48.
30/07/2018 17:57:18: O serviço está configurado para o horário de 18:48.
30/07/2018 17:58:18: O serviço está configurado para o horário de 18:48.
30/07/2018 17:59:18: O serviço está configurado para o horário de 18:48.
30/07/2018 18:00:18: O serviço está configurado para o horário de 18:48.
30/07/2018 18:01:18: O serviço está configurado para o horário de 18:48.
30/07/2018 18:02:18: O serviço está configurado para o horário de 18:48.
30/07/2018 18:03:18: O serviço está configurado para o horário de 18:48.
30/07/2018 18:04:18: O serviço está configurado para o horário de 18:48.
30/07/2018 18:05:18: O serviço está configurado para o horário de 18:48.
30/07/2018 18:06:18: O serviço está configurado para o horário de 18:48.
30/07/2018 18:07:18: O serviço está configurado para o horário de 18:48.
30/07/2018 18:08:18: O serviço está configurado para o horário de 18:48.
30/07/2018 18:09:18: O serviço está configurado para o horário de 18:48.
30/07/2018 18:10:18: O serviço está configurado para o horário de 18:48.
30/07/2018 18:11:18: O serviço está configurado para o horário de 18:48.
30/07/2018 18:12:18: O serviço está configurado para o horário de 18:48.
30/07/2018 18:13:18: O serviço está configurado para o horário de 18:48.
30/07/2018 18:14:18: O serviço está configurado para o horário de 18:48.
30/07/2018 18:15:18: O serviço está configurado para o horário de 18:48.
30/07/2018 18:16:18: O serviço está configurado para o horário de 18:48.
30/07/2018 18:17:18: O serviço está configurado para o horário de 18:48.
30/07/2018 18:18:18: O serviço está configurado para o horário de 18:48.
30/07/2018 18:19:18: O serviço está configurado para o horário de 18:48.
30/07/2018 18:20:18: O serviço está configurado para o horário de 18:48.
30/07/2018 18:21:18: O serviço está configurado para o horário de 18:48.
30/07/2018 18:22:18: O serviço está configurado para o horário de 18:48.
30/07/2018 18:23:18: O serviço está configurado para o horário de 18:48.
30/07/2018 18:24:18: O serviço está configurado para o horário de 18:48.
30/07/2018 18:25:18: O serviço está configurado para o horário de 18:48.
30/07/2018 18:26:18: O serviço está configurado para o horário de 18:48.
30/07/2018 18:27:18: O serviço está configurado para o horário de 18:48.
30/07/2018 18:28:18: O serviço está configurado para o horário de 18:48.
30/07/2018 18:29:18: O serviço está configurado para o horário de 18:48.
30/07/2018 18:30:18: O serviço está configurado para o horário de 18:48.
30/07/2018 18:31:18: O serviço está configurado para o horário de 18:48.
30/07/2018 18:32:18: O serviço está configurado para o horário de 18:48.
30/07/2018 18:33:18: O serviço está configurado para o horário de 18:48.
30/07/2018 18:34:18: O serviço está configurado para o horário de 18:48.
30/07/2018 18:35:18: O serviço está configurado para o horário de 18:48.
30/07/2018 18:36:18: O serviço está configurado para o horário de 18:48.
30/07/2018 18:37:18: O serviço está configurado para o horário de 18:48.
30/07/2018 18:38:18: O serviço está configurado para o horário de 18:48.
30/07/2018 18:39:18: O serviço está configurado para o horário de 18:48.
30/07/2018 18:40:18: O serviço está configurado para o horário de 18:48.
30/07/2018 18:41:18: O serviço está configurado para o horário de 18:48.
30/07/2018 18:42:18: O serviço está configurado para o horário de 18:48.
30/07/2018 18:43:18: O serviço está configurado para o horário de 18:48.
30/07/2018 18:44:18: O serviço está configurado para o horário de 18:48.
30/07/2018 18:45:18: O serviço está configurado para o horário de 18:48.
30/07/2018 18:46:18: O serviço está configurado para o horário de 18:48.
30/07/2018 18:47:18: O serviço está configurado para o horário de 18:48.
30/07/2018 18:48:18: O serviço está configurado para o horário de 18:48.
30/07/2018 18:48:18: Está na hora de buscar desenquadramentos no suitability.
30/07/2018 18:48:18: Procurando desenquadramentos...
30/07/2018 18:48:34: Error: Erro de rede ou específico à instância ao estabelecer conexão com o SQL Server. O servidor não foi encontrado ou não estava acessível. Verifique se o nome da instância está correto e se o SQL Server está configurado para permitir conexões remotas. (provider: TCP Provider, error: 0 - O tempo limite de espera foi atingido.) - System.Data.SqlClient.SqlException (0x80131904): Erro de rede ou específico à instância ao estabelecer conexão com o SQL Server. O servidor não foi encontrado ou não estava acessível. Verifique se o nome da instância está correto e se o SQL Server está configurado para permitir conexões remotas. (provider: TCP Provider, error: 0 - O tempo limite de espera foi atingido.) ---> System.ComponentModel.Win32Exception (0x80004005): O tempo limite de espera foi atingido
   em System.Data.SqlClient.SqlInternalConnectionTds..ctor(DbConnectionPoolIdentity identity, SqlConnectionString connectionOptions, SqlCredential credential, Object providerInfo, String newPassword, SecureString newSecurePassword, Boolean redirectedUserInstance, SqlConnectionString userConnectionOptions, SessionData reconnectSessionData, DbConnectionPool pool, String accessToken, Boolean applyTransientFaultHandling)
   em System.Data.SqlClient.SqlConnectionFactory.CreateConnection(DbConnectionOptions options, DbConnectionPoolKey poolKey, Object poolGroupProviderInfo, DbConnectionPool pool, DbConnection owningConnection, DbConnectionOptions userOptions)
   em System.Data.ProviderBase.DbConnectionFactory.CreatePooledConnection(DbConnectionPool pool, DbConnection owningObject, DbConnectionOptions options, DbConnectionPoolKey poolKey, DbConnectionOptions userOptions)
   em System.Data.ProviderBase.DbConnectionPool.CreateObject(DbConnection owningObject, DbConnectionOptions userOptions, DbConnectionInternal oldConnection)
   em System.Data.ProviderBase.DbConnectionPool.UserCreateRequest(DbConnection owningObject, DbConnectionOptions userOptions, DbConnectionInternal oldConnection)
   em System.Data.ProviderBase.DbConnectionPool.TryGetConnection(DbConnection owningObject, UInt32 waitForMultipleObjectsTimeout, Boolean allowCreate, Boolean onlyOneCheckConnection, DbConnectionOptions userOptions, DbConnectionInternal& connection)
   em System.Data.ProviderBase.DbConnectionPool.TryGetConnection(DbConnection owningObject, TaskCompletionSource`1 retry, DbConnectionOptions userOptions, DbConnectionInternal& connection)
   em System.Data.ProviderBase.DbConnectionFactory.TryGetConnection(DbConnection owningConnection, TaskCompletionSource`1 retry, DbConnectionOptions userOptions, DbConnectionInternal oldConnection, DbConnectionInternal& connection)
   em System.Data.ProviderBase.DbConnectionInternal.TryOpenConnectionInternal(DbConnection outerConnection, DbConnectionFactory connectionFactory, TaskCompletionSource`1 retry, DbConnectionOptions userOptions)
   em System.Data.ProviderBase.DbConnectionClosed.TryOpenConnection(DbConnection outerConnection, DbConnectionFactory connectionFactory, TaskCompletionSource`1 retry, DbConnectionOptions userOptions)
   em System.Data.SqlClient.SqlConnection.TryOpenInner(TaskCompletionSource`1 retry)
   em System.Data.SqlClient.SqlConnection.TryOpen(TaskCompletionSource`1 retry)
   em System.Data.SqlClient.SqlConnection.Open()
   em QX3.Portal.Services.Data.SuitabilityDAL.SelecionaClientesSuitability(Nullable`1 idClienteGlobal, Nullable`1 cpfcnpj, String cdCliente, String status, String investidor, String desenquadrado) na C:\GIT\brpartners\service\Data\Suitability\SuitabilityDAL.cs:linha 503
   em QX3.Portal.Services.Business.SuitabilityMethods.SelecionaClientesSuitability(Nullable`1 idClienteGlobal, Nullable`1 cpfcnpj, String cdCliente, String status, String investidor, String desenquadrado) na C:\GIT\brpartners\service\Business\Suitability\SuitabilityMethods.cs:linha 140
ClientConnectionId:00000000-0000-0000-0000-000000000000
Error Number:258,State:0,Class:20 -    em QX3.Portal.Services.Business.SuitabilityMethods.SelecionaClientesSuitability(Nullable`1 idClienteGlobal, Nullable`1 cpfcnpj, String cdCliente, String status, String investidor, String desenquadrado) na C:\GIT\brpartners\service\Business\Suitability\SuitabilityMethods.cs:linha 171
   em SuitabilityMismatch.SuitabilityMismatchService.GetClients() na C:\GIT\brpartners\solutions\BrPartners.Portal\SuitabilityMismatch\SuitabilityMismatchService.cs:linha 149
   em SuitabilityMismatch.SuitabilityMismatchService.Search() na C:\GIT\brpartners\solutions\BrPartners.Portal\SuitabilityMismatch\SuitabilityMismatchService.cs:linha 100
   em SuitabilityMismatch.SuitabilityMismatchService.Execute() na C:\GIT\brpartners\solutions\BrPartners.Portal\SuitabilityMismatch\SuitabilityMismatchService.cs:linha 65
30/07/2018 18:49:18: O serviço está configurado para o horário de 18:48.
30/07/2018 18:50:18: O serviço está configurado para o horário de 18:48.
30/07/2018 18:51:18: O serviço está configurado para o horário de 18:48.
30/07/2018 18:52:19: O serviço está configurado para o horário de 18:48.
30/07/2018 18:53:19: O serviço está configurado para o horário de 18:48.
30/07/2018 18:54:19: O serviço está configurado para o horário de 18:48.
30/07/2018 18:55:19: O serviço está configurado para o horário de 18:48.
30/07/2018 18:56:19: O serviço está configurado para o horário de 18:48.
30/07/2018 18:57:19: O serviço está configurado para o horário de 18:48.
30/07/2018 18:58:19: O serviço está configurado para o horário de 18:48.
30/07/2018 18:59:19: O serviço está configurado para o horário de 18:48.
30/07/2018 19:00:19: O serviço está configurado para o horário de 18:48.
30/07/2018 19:01:19: O serviço está configurado para o horário de 18:48.
30/07/2018 19:02:19: O serviço está configurado para o horário de 18:48.
30/07/2018 19:03:19: O serviço está configurado para o horário de 18:48.
30/07/2018 19:04:19: O serviço está configurado para o horário de 18:48.
30/07/2018 19:05:19: O serviço está configurado para o horário de 18:48.
30/07/2018 19:06:19: O serviço está configurado para o horário de 18:48.
30/07/2018 19:07:19: O serviço está configurado para o horário de 18:48.
30/07/2018 19:08:19: O serviço está configurado para o horário de 18:48.
30/07/2018 19:09:19: O serviço está configurado para o horário de 18:48.
30/07/2018 19:10:19: O serviço está configurado para o horário de 18:48.
30/07/2018 19:11:19: O serviço está configurado para o horário de 18:48.
30/07/2018 19:12:19: O serviço está configurado para o horário de 18:48.
30/07/2018 19:13:19: O serviço está configurado para o horário de 18:48.
30/07/2018 19:14:19: O serviço está configurado para o horário de 18:48.
30/07/2018 19:15:19: O serviço está configurado para o horário de 18:48.
30/07/2018 19:16:19: O serviço está configurado para o horário de 18:48.
30/07/2018 19:17:19: O serviço está configurado para o horário de 18:48.
30/07/2018 19:18:19: O serviço está configurado para o horário de 18:48.
30/07/2018 19:19:19: O serviço está configurado para o horário de 18:48.
30/07/2018 19:20:19: O serviço está configurado para o horário de 18:48.
30/07/2018 19:21:19: O serviço está configurado para o horário de 18:48.
30/07/2018 19:22:19: O serviço está configurado para o horário de 18:48.
30/07/2018 19:23:19: O serviço está configurado para o horário de 18:48.
30/07/2018 19:24:19: O serviço está configurado para o horário de 18:48.
30/07/2018 19:25:19: O serviço está configurado para o horário de 18:48.
30/07/2018 19:26:19: O serviço está configurado para o horário de 18:48.
30/07/2018 19:27:19: O serviço está configurado para o horário de 18:48.
30/07/2018 19:28:19: O serviço está configurado para o horário de 18:48.
30/07/2018 19:29:19: O serviço está configurado para o horário de 18:48.
30/07/2018 19:30:19: O serviço está configurado para o horário de 18:48.
30/07/2018 19:31:19: O serviço está configurado para o horário de 18:48.
30/07/2018 19:32:19: O serviço está configurado para o horário de 18:48.
30/07/2018 19:33:19: O serviço está configurado para o horário de 18:48.
30/07/2018 19:34:19: O serviço está configurado para o horário de 18:48.
30/07/2018 19:35:19: O serviço está configurado para o horário de 18:48.
30/07/2018 19:36:19: O serviço está configurado para o horário de 18:48.
30/07/2018 19:37:19: O serviço está configurado para o horário de 18:48.
30/07/2018 19:38:19: O serviço está configurado para o horário de 18:48.
30/07/2018 19:39:19: O serviço está configurado para o horário de 18:48.
30/07/2018 19:40:19: O serviço está configurado para o horário de 18:48.
30/07/2018 19:41:19: O serviço está configurado para o horário de 18:48.
30/07/2018 19:42:19: O serviço está configurado para o horário de 18:48.
30/07/2018 19:43:19: O serviço está configurado para o horário de 18:48.
30/07/2018 19:44:19: O serviço está configurado para o horário de 18:48.
30/07/2018 19:45:19: O serviço está configurado para o horário de 18:48.
30/07/2018 19:46:19: O serviço está configurado para o horário de 18:48.
30/07/2018 19:47:19: O serviço está configurado para o horário de 18:48.
30/07/2018 19:48:19: O serviço está configurado para o horário de 18:48.
30/07/2018 19:49:19: O serviço está configurado para o horário de 18:48.
30/07/2018 19:50:19: O serviço está configurado para o horário de 18:48.
30/07/2018 19:51:19: O serviço está configurado para o horário de 18:48.
30/07/2018 19:52:19: O serviço está configurado para o horário de 18:48.
30/07/2018 19:53:19: O serviço está configurado para o horário de 18:48.
30/07/2018 19:54:19: O serviço está configurado para o horário de 18:48.
30/07/2018 19:55:19: O serviço está configurado para o horário de 18:48.
30/07/2018 19:56:19: O serviço está configurado para o horário de 18:48.
30/07/2018 19:57:19: O serviço está configurado para o horário de 18:48.
30/07/2018 19:58:19: O serviço está configurado para o horário de 18:48.
30/07/2018 19:59:19: O serviço está configurado para o horário de 18:48.
30/07/2018 20:00:19: O serviço está configurado para o horário de 18:48.
30/07/2018 20:01:19: O serviço está configurado para o horário de 18:48.
30/07/2018 20:02:19: O serviço está configurado para o horário de 18:48.
30/07/2018 20:03:19: O serviço está configurado para o horário de 18:48.
30/07/2018 20:04:19: O serviço está configurado para o horário de 18:48.
30/07/2018 20:05:19: O serviço está configurado para o horário de 18:48.
30/07/2018 20:06:20: O serviço está configurado para o horário de 18:48.
30/07/2018 20:07:20: O serviço está configurado para o horário de 18:48.
30/07/2018 20:08:20: O serviço está configurado para o horário de 18:48.
30/07/2018 20:09:20: O serviço está configurado para o horário de 18:48.
30/07/2018 20:10:20: O serviço está configurado para o horário de 18:48.
30/07/2018 20:11:20: O serviço está configurado para o horário de 18:48.
30/07/2018 20:12:20: O serviço está configurado para o horário de 18:48.
30/07/2018 20:13:20: O serviço está configurado para o horário de 18:48.
30/07/2018 20:14:20: O serviço está configurado para o horário de 18:48.
30/07/2018 20:15:20: O serviço está configurado para o horário de 18:48.
30/07/2018 20:16:20: O serviço está configurado para o horário de 18:48.
30/07/2018 20:17:20: O serviço está configurado para o horário de 18:48.
30/07/2018 20:18:20: O serviço está configurado para o horário de 18:48.
30/07/2018 20:19:20: O serviço está configurado para o horário de 18:48.
30/07/2018 20:20:20: O serviço está configurado para o horário de 18:48.
30/07/2018 20:21:20: O serviço está configurado para o horário de 18:48.
30/07/2018 20:22:20: O serviço está configurado para o horário de 18:48.
30/07/2018 20:23:20: O serviço está configurado para o horário de 18:48.
30/07/2018 20:24:20: O serviço está configurado para o horário de 18:48.
30/07/2018 20:25:20: O serviço está configurado para o horário de 18:48.
30/07/2018 20:26:20: O serviço está configurado para o horário de 18:48.
30/07/2018 20:27:20: O serviço está configurado para o horário de 18:48.
30/07/2018 20:28:20: O serviço está configurado para o horário de 18:48.
30/07/2018 20:29:20: O serviço está configurado para o horário de 18:48.
30/07/2018 20:30:20: O serviço está configurado para o horário de 18:48.
30/07/2018 20:31:20: O serviço está configurado para o horário de 18:48.
30/07/2018 20:32:20: O serviço está configurado para o horário de 18:48.
30/07/2018 20:33:20: O serviço está configurado para o horário de 18:48.
30/07/2018 20:34:20: O serviço está configurado para o horário de 18:48.
30/07/2018 20:35:20: O serviço está configurado para o horário de 18:48.
30/07/2018 20:36:20: O serviço está configurado para o horário de 18:48.
30/07/2018 20:37:20: O serviço está configurado para o horário de 18:48.
30/07/2018 20:38:20: O serviço está configurado para o horário de 18:48.
30/07/2018 20:39:20: O serviço está configurado para o horário de 18:48.
30/07/2018 20:40:20: O serviço está configurado para o horário de 18:48.
30/07/2018 20:41:20: O serviço está configurado para o horário de 18:48.
30/07/2018 20:42:20: O serviço está configurado para o horário de 18:48.
30/07/2018 20:43:20: O serviço está configurado para o horário de 18:48.
30/07/2018 20:44:20: O serviço está configurado para o horário de 18:48.
30/07/2018 20:45:20: O serviço está configurado para o horário de 18:48.
30/07/2018 20:46:20: O serviço está configurado para o horário de 18:48.
30/07/2018 20:47:20: O serviço está configurado para o horário de 18:48.
30/07/2018 20:48:20: O serviço está configurado para o horário de 18:48.
30/07/2018 20:49:20: O serviço está configurado para o horário de 18:48.
30/07/2018 20:50:20: O serviço está configurado para o horário de 18:48.
30/07/2018 20:51:20: O serviço está configurado para o horário de 18:48.
30/07/2018 20:52:20: O serviço está configurado para o horário de 18:48.
30/07/2018 20:53:20: O serviço está configurado para o horário de 18:48.
30/07/2018 20:54:20: O serviço está configurado para o horário de 18:48.
30/07/2018 20:55:20: O serviço está configurado para o horário de 18:48.
30/07/2018 20:56:20: O serviço está configurado para o horário de 18:48.
30/07/2018 20:57:20: O serviço está configurado para o horário de 18:48.
30/07/2018 20:58:20: O serviço está configurado para o horário de 18:48.
30/07/2018 20:59:20: O serviço está configurado para o horário de 18:48.
30/07/2018 21:00:20: O serviço está configurado para o horário de 18:48.
30/07/2018 21:01:20: O serviço está configurado para o horário de 18:48.
30/07/2018 21:02:20: O serviço está configurado para o horário de 18:48.
30/07/2018 21:03:20: O serviço está configurado para o horário de 18:48.
30/07/2018 21:04:20: O serviço está configurado para o horário de 18:48.
30/07/2018 21:05:20: O serviço está configurado para o horário de 18:48.
30/07/2018 21:06:20: O serviço está configurado para o horário de 18:48.
30/07/2018 21:07:20: O serviço está configurado para o horário de 18:48.
30/07/2018 21:08:20: O serviço está configurado para o horário de 18:48.
30/07/2018 21:09:20: O serviço está configurado para o horário de 18:48.
30/07/2018 21:10:20: O serviço está configurado para o horário de 18:48.
30/07/2018 21:11:20: O serviço está configurado para o horário de 18:48.
30/07/2018 21:12:20: O serviço está configurado para o horário de 18:48.
30/07/2018 21:13:20: O serviço está configurado para o horário de 18:48.
30/07/2018 21:14:20: O serviço está configurado para o horário de 18:48.
30/07/2018 21:15:20: O serviço está configurado para o horário de 18:48.
30/07/2018 21:16:20: O serviço está configurado para o horário de 18:48.
30/07/2018 21:17:20: O serviço está configurado para o horário de 18:48.
30/07/2018 21:18:20: O serviço está configurado para o horário de 18:48.
30/07/2018 21:19:21: O serviço está configurado para o horário de 18:48.
30/07/2018 21:20:21: O serviço está configurado para o horário de 18:48.
30/07/2018 21:21:21: O serviço está configurado para o horário de 18:48.
30/07/2018 21:22:21: O serviço está configurado para o horário de 18:48.
30/07/2018 21:23:21: O serviço está configurado para o horário de 18:48.
30/07/2018 21:24:21: O serviço está configurado para o horário de 18:48.
30/07/2018 21:25:21: O serviço está configurado para o horário de 18:48.
30/07/2018 21:26:21: O serviço está configurado para o horário de 18:48.
30/07/2018 21:27:21: O serviço está configurado para o horário de 18:48.
30/07/2018 21:28:21: O serviço está configurado para o horário de 18:48.
30/07/2018 21:29:21: O serviço está configurado para o horário de 18:48.
30/07/2018 21:30:21: O serviço está configurado para o horário de 18:48.
30/07/2018 21:31:21: O serviço está configurado para o horário de 18:48.
30/07/2018 21:32:21: O serviço está configurado para o horário de 18:48.
30/07/2018 21:33:21: O serviço está configurado para o horário de 18:48.
30/07/2018 21:34:21: O serviço está configurado para o horário de 18:48.
30/07/2018 21:35:21: O serviço está configurado para o horário de 18:48.
30/07/2018 21:36:21: O serviço está configurado para o horário de 18:48.
30/07/2018 21:37:21: O serviço está configurado para o horário de 18:48.
30/07/2018 21:38:21: O serviço está configurado para o horário de 18:48.
30/07/2018 21:39:21: O serviço está configurado para o horário de 18:48.
30/07/2018 21:40:21: O serviço está configurado para o horário de 18:48.
30/07/2018 21:41:21: O serviço está configurado para o horário de 18:48.
30/07/2018 21:42:21: O serviço está configurado para o horário de 18:48.
30/07/2018 21:43:21: O serviço está configurado para o horário de 18:48.
30/07/2018 21:44:21: O serviço está configurado para o horário de 18:48.
30/07/2018 21:45:21: O serviço está configurado para o horário de 18:48.
30/07/2018 21:46:21: O serviço está configurado para o horário de 18:48.
30/07/2018 21:47:21: O serviço está configurado para o horário de 18:48.
30/07/2018 21:48:21: O serviço está configurado para o horário de 18:48.
30/07/2018 21:49:21: O serviço está configurado para o horário de 18:48.
30/07/2018 21:50:21: O serviço está configurado para o horário de 18:48.
30/07/2018 21:51:21: O serviço está configurado para o horário de 18:48.
30/07/2018 21:52:21: O serviço está configurado para o horário de 18:48.
30/07/2018 21:53:21: O serviço está configurado para o horário de 18:48.
30/07/2018 21:54:21: O serviço está configurado para o horário de 18:48.
30/07/2018 21:55:21: O serviço está configurado para o horário de 18:48.
30/07/2018 21:56:21: O serviço está configurado para o horário de 18:48.
30/07/2018 21:57:21: O serviço está configurado para o horário de 18:48.
30/07/2018 21:58:21: O serviço está configurado para o horário de 18:48.
30/07/2018 21:59:21: O serviço está configurado para o horário de 18:48.
30/07/2018 22:00:21: O serviço está configurado para o horário de 18:48.
30/07/2018 22:01:21: O serviço está configurado para o horário de 18:48.
30/07/2018 22:02:21: O serviço está configurado para o horário de 18:48.
30/07/2018 22:03:21: O serviço está configurado para o horário de 18:48.
30/07/2018 22:04:21: O serviço está configurado para o horário de 18:48.
30/07/2018 22:05:21: O serviço está configurado para o horário de 18:48.
30/07/2018 22:06:21: O serviço está configurado para o horário de 18:48.
30/07/2018 22:07:21: O serviço está configurado para o horário de 18:48.
30/07/2018 22:08:21: O serviço está configurado para o horário de 18:48.
30/07/2018 22:09:21: O serviço está configurado para o horário de 18:48.
30/07/2018 22:10:21: O serviço está configurado para o horário de 18:48.
30/07/2018 22:11:21: O serviço está configurado para o horário de 18:48.
30/07/2018 22:12:21: O serviço está configurado para o horário de 18:48.
30/07/2018 22:13:21: O serviço está configurado para o horário de 18:48.
30/07/2018 22:14:21: O serviço está configurado para o horário de 18:48.
30/07/2018 22:15:21: O serviço está configurado para o horário de 18:48.
30/07/2018 22:16:21: O serviço está configurado para o horário de 18:48.
30/07/2018 22:17:21: O serviço está configurado para o horário de 18:48.
30/07/2018 22:18:21: O serviço está configurado para o horário de 18:48.
30/07/2018 22:19:21: O serviço está configurado para o horário de 18:48.
30/07/2018 22:20:21: O serviço está configurado para o horário de 18:48.
30/07/2018 22:21:21: O serviço está configurado para o horário de 18:48.
30/07/2018 22:22:21: O serviço está configurado para o horário de 18:48.
30/07/2018 22:23:21: O serviço está configurado para o horário de 18:48.
30/07/2018 22:24:21: O serviço está configurado para o horário de 18:48.
30/07/2018 22:25:21: O serviço está configurado para o horário de 18:48.
30/07/2018 22:26:21: O serviço está configurado para o horário de 18:48.
30/07/2018 22:27:21: O serviço está configurado para o horário de 18:48.
30/07/2018 22:28:21: O serviço está configurado para o horário de 18:48.
30/07/2018 22:29:21: O serviço está configurado para o horário de 18:48.
30/07/2018 22:30:21: O serviço está configurado para o horário de 18:48.
30/07/2018 22:31:21: O serviço está configurado para o horário de 18:48.
30/07/2018 22:32:21: O serviço está configurado para o horário de 18:48.
30/07/2018 22:33:22: O serviço está configurado para o horário de 18:48.
30/07/2018 22:34:22: O serviço está configurado para o horário de 18:48.
30/07/2018 22:35:22: O serviço está configurado para o horário de 18:48.
30/07/2018 22:36:22: O serviço está configurado para o horário de 18:48.
30/07/2018 22:37:22: O serviço está configurado para o horário de 18:48.
30/07/2018 22:38:22: O serviço está configurado para o horário de 18:48.
30/07/2018 22:39:22: O serviço está configurado para o horário de 18:48.
30/07/2018 22:40:22: O serviço está configurado para o horário de 18:48.
30/07/2018 22:41:22: O serviço está configurado para o horário de 18:48.
30/07/2018 22:42:22: O serviço está configurado para o horário de 18:48.
30/07/2018 22:43:22: O serviço está configurado para o horário de 18:48.
30/07/2018 22:44:22: O serviço está configurado para o horário de 18:48.
30/07/2018 22:45:22: O serviço está configurado para o horário de 18:48.
30/07/2018 22:46:22: O serviço está configurado para o horário de 18:48.
30/07/2018 22:47:22: O serviço está configurado para o horário de 18:48.
30/07/2018 22:48:22: O serviço está configurado para o horário de 18:48.
30/07/2018 22:49:22: O serviço está configurado para o horário de 18:48.
30/07/2018 22:50:22: O serviço está configurado para o horário de 18:48.
30/07/2018 22:51:22: O serviço está configurado para o horário de 18:48.
30/07/2018 22:52:22: O serviço está configurado para o horário de 18:48.
30/07/2018 22:53:22: O serviço está configurado para o horário de 18:48.
30/07/2018 22:54:22: O serviço está configurado para o horário de 18:48.
30/07/2018 22:55:22: O serviço está configurado para o horário de 18:48.
30/07/2018 22:56:22: O serviço está configurado para o horário de 18:48.
30/07/2018 22:57:22: O serviço está configurado para o horário de 18:48.
30/07/2018 22:58:22: O serviço está configurado para o horário de 18:48.
30/07/2018 22:59:22: O serviço está configurado para o horário de 18:48.
30/07/2018 23:00:22: O serviço está configurado para o horário de 18:48.
30/07/2018 23:01:22: O serviço está configurado para o horário de 18:48.
30/07/2018 23:02:22: O serviço está configurado para o horário de 18:48.
30/07/2018 23:03:22: O serviço está configurado para o horário de 18:48.
30/07/2018 23:04:22: O serviço está configurado para o horário de 18:48.
30/07/2018 23:05:22: O serviço está configurado para o horário de 18:48.
30/07/2018 23:06:22: O serviço está configurado para o horário de 18:48.
30/07/2018 23:07:22: O serviço está configurado para o horário de 18:48.
30/07/2018 23:08:22: O serviço está configurado para o horário de 18:48.
30/07/2018 23:09:22: O serviço está configurado para o horário de 18:48.
30/07/2018 23:10:22: O serviço está configurado para o horário de 18:48.
30/07/2018 23:11:22: O serviço está configurado para o horário de 18:48.
30/07/2018 23:12:22: O serviço está configurado para o horário de 18:48.
30/07/2018 23:13:22: O serviço está configurado para o horário de 18:48.
30/07/2018 23:14:22: O serviço está configurado para o horário de 18:48.
30/07/2018 23:15:22: O serviço está configurado para o horário de 18:48.
30/07/2018 23:16:22: O serviço está configurado para o horário de 18:48.
30/07/2018 23:17:22: O serviço está configurado para o horário de 18:48.
30/07/2018 23:18:22: O serviço está configurado para o horário de 18:48.
30/07/2018 23:19:22: O serviço está configurado para o horário de 18:48.
30/07/2018 23:20:22: O serviço está configurado para o horário de 18:48.
30/07/2018 23:21:22: O serviço está configurado para o horário de 18:48.
30/07/2018 23:22:22: O serviço está configurado para o horário de 18:48.
30/07/2018 23:23:22: O serviço está configurado para o horário de 18:48.
30/07/2018 23:24:22: O serviço está configurado para o horário de 18:48.
30/07/2018 23:25:22: O serviço está configurado para o horário de 18:48.
30/07/2018 23:26:22: O serviço está configurado para o horário de 18:48.
30/07/2018 23:27:22: O serviço está configurado para o horário de 18:48.
30/07/2018 23:28:22: O serviço está configurado para o horário de 18:48.
30/07/2018 23:29:22: O serviço está configurado para o horário de 18:48.
30/07/2018 23:30:22: O serviço está configurado para o horário de 18:48.
30/07/2018 23:31:22: O serviço está configurado para o horário de 18:48.
30/07/2018 23:32:22: O serviço está configurado para o horário de 18:48.
30/07/2018 23:33:22: O serviço está configurado para o horário de 18:48.
30/07/2018 23:34:22: O serviço está configurado para o horário de 18:48.
30/07/2018 23:35:22: O serviço está configurado para o horário de 18:48.
30/07/2018 23:36:22: O serviço está configurado para o horário de 18:48.
30/07/2018 23:37:22: O serviço está configurado para o horário de 18:48.
30/07/2018 23:38:22: O serviço está configurado para o horário de 18:48.
30/07/2018 23:39:22: O serviço está configurado para o horário de 18:48.
30/07/2018 23:40:22: O serviço está configurado para o horário de 18:48.
30/07/2018 23:41:22: O serviço está configurado para o horário de 18:48.
30/07/2018 23:42:22: O serviço está configurado para o horário de 18:48.
30/07/2018 23:43:22: O serviço está configurado para o horário de 18:48.
30/07/2018 23:44:22: O serviço está configurado para o horário de 18:48.
30/07/2018 23:45:22: O serviço está configurado para o horário de 18:48.
30/07/2018 23:46:22: O serviço está configurado para o horário de 18:48.
30/07/2018 23:47:23: O serviço está configurado para o horário de 18:48.
30/07/2018 23:48:23: O serviço está configurado para o horário de 18:48.
30/07/2018 23:49:23: O serviço está configurado para o horário de 18:48.
30/07/2018 23:50:23: O serviço está configurado para o horário de 18:48.
30/07/2018 23:51:23: O serviço está configurado para o horário de 18:48.
30/07/2018 23:52:23: O serviço está configurado para o horário de 18:48.
30/07/2018 23:53:23: O serviço está configurado para o horário de 18:48.
30/07/2018 23:54:23: O serviço está configurado para o horário de 18:48.
30/07/2018 23:55:23: O serviço está configurado para o horário de 18:48.
30/07/2018 23:56:23: O serviço está configurado para o horário de 18:48.
30/07/2018 23:57:23: O serviço está configurado para o horário de 18:48.
30/07/2018 23:58:23: O serviço está configurado para o horário de 18:48.
30/07/2018 23:59:23: O serviço está configurado para o horário de 18:48.
