27/03/2019 12:31:42: O serviço está configurado para o horário de 19:17.
27/03/2019 12:32:42: O serviço está configurado para o horário de 19:17.
27/03/2019 12:33:42: O serviço está configurado para o horário de 19:17.
27/03/2019 12:34:42: O serviço está configurado para o horário de 19:17.
27/03/2019 12:35:42: O serviço está configurado para o horário de 19:17.
27/03/2019 12:36:42: O serviço está configurado para o horário de 19:17.
27/03/2019 12:37:42: O serviço está configurado para o horário de 19:17.
27/03/2019 12:38:42: O serviço está configurado para o horário de 19:17.
27/03/2019 12:39:42: O serviço está configurado para o horário de 19:17.
27/03/2019 12:40:42: O serviço está configurado para o horário de 19:17.
27/03/2019 12:41:42: O serviço está configurado para o horário de 19:17.
27/03/2019 12:42:42: O serviço está configurado para o horário de 19:17.
27/03/2019 12:43:42: O serviço está configurado para o horário de 19:17.
27/03/2019 12:44:42: O serviço está configurado para o horário de 19:17.
27/03/2019 12:45:42: O serviço está configurado para o horário de 19:17.
27/03/2019 12:46:42: O serviço está configurado para o horário de 19:17.
27/03/2019 12:47:42: O serviço está configurado para o horário de 19:17.
27/03/2019 12:48:42: O serviço está configurado para o horário de 19:17.
27/03/2019 12:49:42: O serviço está configurado para o horário de 19:17.
27/03/2019 12:50:42: O serviço está configurado para o horário de 19:17.
27/03/2019 12:51:42: O serviço está configurado para o horário de 19:17.
27/03/2019 12:52:42: O serviço está configurado para o horário de 19:17.
27/03/2019 12:53:42: O serviço está configurado para o horário de 19:17.
27/03/2019 12:54:42: O serviço está configurado para o horário de 19:17.
27/03/2019 12:55:42: O serviço está configurado para o horário de 19:17.
27/03/2019 12:56:42: O serviço está configurado para o horário de 19:17.
27/03/2019 12:57:42: O serviço está configurado para o horário de 19:17.
27/03/2019 12:58:42: O serviço está configurado para o horário de 19:17.
27/03/2019 12:59:42: O serviço está configurado para o horário de 19:17.
27/03/2019 13:00:42: O serviço está configurado para o horário de 19:17.
27/03/2019 13:01:42: O serviço está configurado para o horário de 19:17.
27/03/2019 13:02:42: O serviço está configurado para o horário de 19:17.
27/03/2019 13:03:42: O serviço está configurado para o horário de 19:17.
27/03/2019 13:04:42: O serviço está configurado para o horário de 19:17.
27/03/2019 13:05:43: O serviço está configurado para o horário de 19:17.
27/03/2019 13:06:43: O serviço está configurado para o horário de 19:17.
27/03/2019 13:07:43: O serviço está configurado para o horário de 19:17.
27/03/2019 13:08:43: O serviço está configurado para o horário de 19:17.
27/03/2019 13:09:43: O serviço está configurado para o horário de 19:17.
27/03/2019 13:10:43: O serviço está configurado para o horário de 19:17.
27/03/2019 13:11:43: O serviço está configurado para o horário de 19:17.
27/03/2019 13:12:43: O serviço está configurado para o horário de 19:17.
27/03/2019 13:13:43: O serviço está configurado para o horário de 19:17.
27/03/2019 13:14:43: O serviço está configurado para o horário de 19:17.
27/03/2019 13:15:43: O serviço está configurado para o horário de 19:17.
27/03/2019 13:16:43: O serviço está configurado para o horário de 19:17.
27/03/2019 13:17:43: O serviço está configurado para o horário de 19:17.
27/03/2019 13:18:43: O serviço está configurado para o horário de 19:17.
27/03/2019 13:19:43: O serviço está configurado para o horário de 19:17.
27/03/2019 13:20:43: O serviço está configurado para o horário de 19:17.
27/03/2019 13:21:43: O serviço está configurado para o horário de 19:17.
27/03/2019 13:22:43: O serviço está configurado para o horário de 19:17.
27/03/2019 13:23:43: O serviço está configurado para o horário de 19:17.
27/03/2019 13:24:43: O serviço está configurado para o horário de 19:17.
27/03/2019 13:25:43: O serviço está configurado para o horário de 19:17.
27/03/2019 13:26:43: O serviço está configurado para o horário de 19:17.
27/03/2019 13:27:43: O serviço está configurado para o horário de 19:17.
27/03/2019 13:28:43: O serviço está configurado para o horário de 19:17.
27/03/2019 13:29:43: O serviço está configurado para o horário de 19:17.
27/03/2019 13:30:43: O serviço está configurado para o horário de 19:17.
27/03/2019 13:31:43: O serviço está configurado para o horário de 19:17.
27/03/2019 13:32:43: O serviço está configurado para o horário de 19:17.
27/03/2019 13:33:43: O serviço está configurado para o horário de 19:17.
27/03/2019 13:34:43: O serviço está configurado para o horário de 19:17.
27/03/2019 13:35:43: O serviço está configurado para o horário de 19:17.
27/03/2019 13:36:43: O serviço está configurado para o horário de 19:17.
27/03/2019 13:37:43: O serviço está configurado para o horário de 19:17.
27/03/2019 13:38:43: O serviço está configurado para o horário de 19:17.
27/03/2019 13:39:43: O serviço está configurado para o horário de 19:17.
27/03/2019 13:40:43: O serviço está configurado para o horário de 19:17.
27/03/2019 13:41:43: O serviço está configurado para o horário de 19:17.
27/03/2019 13:42:43: O serviço está configurado para o horário de 19:17.
27/03/2019 13:43:43: O serviço está configurado para o horário de 19:17.
27/03/2019 13:44:43: O serviço está configurado para o horário de 19:17.
27/03/2019 13:45:43: O serviço está configurado para o horário de 19:17.
27/03/2019 13:46:43: O serviço está configurado para o horário de 19:17.
27/03/2019 13:47:43: O serviço está configurado para o horário de 19:17.
27/03/2019 13:48:43: O serviço está configurado para o horário de 19:17.
27/03/2019 13:49:43: O serviço está configurado para o horário de 19:17.
27/03/2019 13:50:43: O serviço está configurado para o horário de 19:17.
27/03/2019 13:51:43: O serviço está configurado para o horário de 19:17.
27/03/2019 13:52:43: O serviço está configurado para o horário de 19:17.
27/03/2019 13:53:43: O serviço está configurado para o horário de 19:17.
27/03/2019 13:54:43: O serviço está configurado para o horário de 19:17.
27/03/2019 13:55:43: O serviço está configurado para o horário de 19:17.
27/03/2019 13:56:43: O serviço está configurado para o horário de 19:17.
27/03/2019 13:57:43: O serviço está configurado para o horário de 19:17.
27/03/2019 13:58:43: O serviço está configurado para o horário de 19:17.
27/03/2019 13:59:43: O serviço está configurado para o horário de 19:17.
27/03/2019 14:00:43: O serviço está configurado para o horário de 19:17.
27/03/2019 14:01:43: O serviço está configurado para o horário de 19:17.
27/03/2019 14:02:43: O serviço está configurado para o horário de 19:17.
27/03/2019 14:03:43: O serviço está configurado para o horário de 19:17.
27/03/2019 14:04:43: O serviço está configurado para o horário de 19:17.
27/03/2019 14:05:43: O serviço está configurado para o horário de 19:17.
27/03/2019 14:06:43: O serviço está configurado para o horário de 19:17.
27/03/2019 14:07:43: O serviço está configurado para o horário de 19:17.
27/03/2019 14:08:43: O serviço está configurado para o horário de 19:17.
27/03/2019 14:09:43: O serviço está configurado para o horário de 19:17.
27/03/2019 14:10:43: O serviço está configurado para o horário de 19:17.
27/03/2019 14:11:43: O serviço está configurado para o horário de 19:17.
27/03/2019 14:12:43: O serviço está configurado para o horário de 19:17.
27/03/2019 14:13:43: O serviço está configurado para o horário de 19:17.
27/03/2019 14:14:43: O serviço está configurado para o horário de 19:17.
27/03/2019 14:15:43: O serviço está configurado para o horário de 19:17.
27/03/2019 14:16:43: O serviço está configurado para o horário de 19:17.
27/03/2019 14:17:43: O serviço está configurado para o horário de 19:17.
27/03/2019 14:18:44: O serviço está configurado para o horário de 19:17.
27/03/2019 14:19:44: O serviço está configurado para o horário de 19:17.
27/03/2019 14:20:44: O serviço está configurado para o horário de 19:17.
27/03/2019 14:21:44: O serviço está configurado para o horário de 19:17.
27/03/2019 14:22:44: O serviço está configurado para o horário de 19:17.
27/03/2019 14:23:44: O serviço está configurado para o horário de 19:17.
27/03/2019 14:24:44: O serviço está configurado para o horário de 19:17.
27/03/2019 14:25:44: O serviço está configurado para o horário de 19:17.
27/03/2019 14:26:44: O serviço está configurado para o horário de 19:17.
27/03/2019 14:27:44: O serviço está configurado para o horário de 19:17.
27/03/2019 14:28:44: O serviço está configurado para o horário de 19:17.
27/03/2019 14:29:44: O serviço está configurado para o horário de 19:17.
27/03/2019 14:30:44: O serviço está configurado para o horário de 19:17.
27/03/2019 14:31:44: O serviço está configurado para o horário de 19:17.
27/03/2019 14:32:44: O serviço está configurado para o horário de 19:17.
27/03/2019 14:33:44: O serviço está configurado para o horário de 19:17.
27/03/2019 14:34:44: O serviço está configurado para o horário de 19:17.
27/03/2019 14:35:44: O serviço está configurado para o horário de 19:17.
27/03/2019 14:36:44: O serviço está configurado para o horário de 19:17.
27/03/2019 14:37:44: O serviço está configurado para o horário de 19:17.
27/03/2019 14:38:44: O serviço está configurado para o horário de 19:17.
27/03/2019 14:39:44: O serviço está configurado para o horário de 19:17.
27/03/2019 14:40:44: O serviço está configurado para o horário de 19:17.
27/03/2019 14:41:44: O serviço está configurado para o horário de 19:17.
27/03/2019 14:42:44: O serviço está configurado para o horário de 19:17.
27/03/2019 14:43:44: O serviço está configurado para o horário de 19:17.
27/03/2019 14:44:44: O serviço está configurado para o horário de 19:17.
27/03/2019 14:45:44: O serviço está configurado para o horário de 19:17.
27/03/2019 14:46:44: O serviço está configurado para o horário de 19:17.
27/03/2019 14:47:44: O serviço está configurado para o horário de 19:17.
27/03/2019 14:48:44: O serviço está configurado para o horário de 19:17.
27/03/2019 14:49:44: O serviço está configurado para o horário de 19:17.
27/03/2019 14:50:44: O serviço está configurado para o horário de 19:17.
27/03/2019 14:51:44: O serviço está configurado para o horário de 19:17.
27/03/2019 14:52:44: O serviço está configurado para o horário de 19:17.
27/03/2019 14:53:44: O serviço está configurado para o horário de 19:17.
27/03/2019 14:54:44: O serviço está configurado para o horário de 19:17.
27/03/2019 14:55:44: O serviço está configurado para o horário de 19:17.
27/03/2019 14:56:44: O serviço está configurado para o horário de 19:17.
27/03/2019 14:57:44: O serviço está configurado para o horário de 19:17.
27/03/2019 14:58:44: O serviço está configurado para o horário de 19:17.
27/03/2019 14:59:44: O serviço está configurado para o horário de 19:17.
27/03/2019 15:00:44: O serviço está configurado para o horário de 19:17.
27/03/2019 15:01:44: O serviço está configurado para o horário de 19:17.
27/03/2019 15:02:44: O serviço está configurado para o horário de 19:17.
27/03/2019 15:03:44: O serviço está configurado para o horário de 19:17.
27/03/2019 15:04:44: O serviço está configurado para o horário de 19:17.
27/03/2019 15:05:44: O serviço está configurado para o horário de 19:17.
27/03/2019 15:06:44: O serviço está configurado para o horário de 19:17.
27/03/2019 15:07:44: O serviço está configurado para o horário de 19:17.
27/03/2019 15:08:44: O serviço está configurado para o horário de 19:17.
27/03/2019 15:09:44: O serviço está configurado para o horário de 19:17.
27/03/2019 15:10:44: O serviço está configurado para o horário de 19:17.
27/03/2019 15:11:44: O serviço está configurado para o horário de 19:17.
27/03/2019 15:12:44: O serviço está configurado para o horário de 19:17.
27/03/2019 15:13:44: O serviço está configurado para o horário de 19:17.
27/03/2019 15:14:44: O serviço está configurado para o horário de 19:17.
27/03/2019 15:15:44: O serviço está configurado para o horário de 19:17.
27/03/2019 15:16:44: O serviço está configurado para o horário de 19:17.
27/03/2019 15:17:44: O serviço está configurado para o horário de 19:17.
27/03/2019 15:18:44: O serviço está configurado para o horário de 19:17.
27/03/2019 15:19:44: O serviço está configurado para o horário de 19:17.
27/03/2019 15:20:44: O serviço está configurado para o horário de 19:17.
27/03/2019 15:21:44: O serviço está configurado para o horário de 19:17.
27/03/2019 15:22:44: O serviço está configurado para o horário de 19:17.
27/03/2019 15:23:44: O serviço está configurado para o horário de 19:17.
27/03/2019 15:24:44: O serviço está configurado para o horário de 19:17.
27/03/2019 15:25:44: O serviço está configurado para o horário de 19:17.
27/03/2019 15:26:44: O serviço está configurado para o horário de 19:17.
27/03/2019 15:27:44: O serviço está configurado para o horário de 19:17.
27/03/2019 15:28:45: O serviço está configurado para o horário de 19:17.
27/03/2019 15:29:45: O serviço está configurado para o horário de 19:17.
27/03/2019 15:30:45: O serviço está configurado para o horário de 19:17.
27/03/2019 15:31:45: O serviço está configurado para o horário de 19:17.
27/03/2019 15:32:45: O serviço está configurado para o horário de 19:17.
27/03/2019 15:33:45: O serviço está configurado para o horário de 19:17.
27/03/2019 15:34:45: O serviço está configurado para o horário de 19:17.
27/03/2019 15:35:45: O serviço está configurado para o horário de 19:17.
27/03/2019 15:36:45: O serviço está configurado para o horário de 19:17.
27/03/2019 15:37:45: O serviço está configurado para o horário de 19:17.
27/03/2019 15:38:45: O serviço está configurado para o horário de 19:17.
27/03/2019 15:39:45: O serviço está configurado para o horário de 19:17.
27/03/2019 15:40:45: O serviço está configurado para o horário de 19:17.
27/03/2019 15:41:45: O serviço está configurado para o horário de 19:17.
27/03/2019 15:42:45: O serviço está configurado para o horário de 19:17.
27/03/2019 15:43:45: O serviço está configurado para o horário de 19:17.
27/03/2019 15:44:45: O serviço está configurado para o horário de 19:17.
27/03/2019 15:45:45: O serviço está configurado para o horário de 19:17.
27/03/2019 15:46:45: O serviço está configurado para o horário de 19:17.
27/03/2019 15:47:45: O serviço está configurado para o horário de 19:17.
27/03/2019 15:48:45: O serviço está configurado para o horário de 19:17.
27/03/2019 15:49:45: O serviço está configurado para o horário de 19:17.
27/03/2019 15:50:45: O serviço está configurado para o horário de 19:17.
27/03/2019 15:51:45: O serviço está configurado para o horário de 19:17.
27/03/2019 15:52:45: O serviço está configurado para o horário de 19:17.
27/03/2019 15:53:45: O serviço está configurado para o horário de 19:17.
27/03/2019 15:54:45: O serviço está configurado para o horário de 19:17.
27/03/2019 15:55:45: O serviço está configurado para o horário de 19:17.
27/03/2019 15:56:45: O serviço está configurado para o horário de 19:17.
27/03/2019 15:57:45: O serviço está configurado para o horário de 19:17.
27/03/2019 15:58:45: O serviço está configurado para o horário de 19:17.
27/03/2019 15:59:45: O serviço está configurado para o horário de 19:17.
27/03/2019 16:00:45: O serviço está configurado para o horário de 19:17.
27/03/2019 16:01:45: O serviço está configurado para o horário de 19:17.
27/03/2019 16:02:45: O serviço está configurado para o horário de 19:17.
27/03/2019 16:03:45: O serviço está configurado para o horário de 19:17.
27/03/2019 16:04:45: O serviço está configurado para o horário de 19:17.
27/03/2019 16:05:45: O serviço está configurado para o horário de 19:17.
27/03/2019 16:06:45: O serviço está configurado para o horário de 19:17.
27/03/2019 16:07:45: O serviço está configurado para o horário de 19:17.
27/03/2019 16:08:45: O serviço está configurado para o horário de 19:17.
27/03/2019 16:09:45: O serviço está configurado para o horário de 19:17.
27/03/2019 16:10:45: O serviço está configurado para o horário de 19:17.
27/03/2019 16:11:45: O serviço está configurado para o horário de 19:17.
27/03/2019 16:12:45: O serviço está configurado para o horário de 19:17.
27/03/2019 16:13:45: O serviço está configurado para o horário de 19:17.
27/03/2019 16:14:45: O serviço está configurado para o horário de 19:17.
27/03/2019 16:15:45: O serviço está configurado para o horário de 19:17.
27/03/2019 16:16:45: O serviço está configurado para o horário de 19:17.
27/03/2019 16:17:45: O serviço está configurado para o horário de 19:17.
27/03/2019 16:18:45: O serviço está configurado para o horário de 19:17.
27/03/2019 16:19:45: O serviço está configurado para o horário de 19:17.
27/03/2019 16:20:45: O serviço está configurado para o horário de 19:17.
27/03/2019 16:21:45: O serviço está configurado para o horário de 19:17.
27/03/2019 16:22:45: O serviço está configurado para o horário de 19:17.
27/03/2019 16:23:45: O serviço está configurado para o horário de 19:17.
27/03/2019 16:24:45: O serviço está configurado para o horário de 19:17.
27/03/2019 16:25:45: O serviço está configurado para o horário de 19:17.
27/03/2019 16:26:45: O serviço está configurado para o horário de 19:17.
27/03/2019 16:27:45: O serviço está configurado para o horário de 19:17.
27/03/2019 16:28:45: O serviço está configurado para o horário de 19:17.
27/03/2019 16:29:45: O serviço está configurado para o horário de 19:17.
27/03/2019 16:30:45: O serviço está configurado para o horário de 19:17.
27/03/2019 16:31:45: O serviço está configurado para o horário de 19:17.
27/03/2019 16:32:45: O serviço está configurado para o horário de 19:17.
27/03/2019 16:33:45: O serviço está configurado para o horário de 19:17.
27/03/2019 16:34:45: O serviço está configurado para o horário de 19:17.
27/03/2019 16:35:45: O serviço está configurado para o horário de 19:17.
27/03/2019 16:36:45: O serviço está configurado para o horário de 19:17.
27/03/2019 16:37:45: O serviço está configurado para o horário de 19:17.
27/03/2019 16:38:46: O serviço está configurado para o horário de 19:17.
27/03/2019 16:39:46: O serviço está configurado para o horário de 19:17.
27/03/2019 16:40:46: O serviço está configurado para o horário de 19:17.
27/03/2019 16:41:46: O serviço está configurado para o horário de 19:17.
27/03/2019 16:42:46: O serviço está configurado para o horário de 19:17.
27/03/2019 16:43:46: O serviço está configurado para o horário de 19:17.
27/03/2019 16:44:46: O serviço está configurado para o horário de 19:17.
27/03/2019 16:45:46: O serviço está configurado para o horário de 19:17.
27/03/2019 16:46:46: O serviço está configurado para o horário de 19:17.
27/03/2019 16:47:46: O serviço está configurado para o horário de 19:17.
27/03/2019 16:48:46: O serviço está configurado para o horário de 19:17.
27/03/2019 16:49:46: O serviço está configurado para o horário de 19:17.
27/03/2019 16:50:46: O serviço está configurado para o horário de 19:17.
27/03/2019 16:51:46: O serviço está configurado para o horário de 19:17.
27/03/2019 16:52:46: O serviço está configurado para o horário de 19:17.
27/03/2019 16:53:46: O serviço está configurado para o horário de 19:17.
27/03/2019 16:54:46: O serviço está configurado para o horário de 19:17.
27/03/2019 16:55:46: O serviço está configurado para o horário de 19:17.
27/03/2019 16:56:46: O serviço está configurado para o horário de 19:17.
27/03/2019 16:57:46: O serviço está configurado para o horário de 19:17.
27/03/2019 16:58:46: O serviço está configurado para o horário de 19:17.
27/03/2019 16:59:46: O serviço está configurado para o horário de 19:17.
27/03/2019 17:00:46: O serviço está configurado para o horário de 19:17.
27/03/2019 17:01:46: O serviço está configurado para o horário de 19:17.
27/03/2019 17:02:46: O serviço está configurado para o horário de 19:17.
27/03/2019 17:03:46: O serviço está configurado para o horário de 19:17.
27/03/2019 17:04:46: O serviço está configurado para o horário de 19:17.
27/03/2019 17:05:46: O serviço está configurado para o horário de 19:17.
27/03/2019 17:06:46: O serviço está configurado para o horário de 19:17.
27/03/2019 17:07:46: O serviço está configurado para o horário de 19:17.
27/03/2019 17:08:46: O serviço está configurado para o horário de 19:17.
27/03/2019 17:09:46: O serviço está configurado para o horário de 19:17.
27/03/2019 17:10:46: O serviço está configurado para o horário de 19:17.
27/03/2019 17:11:46: O serviço está configurado para o horário de 19:17.
27/03/2019 17:12:46: O serviço está configurado para o horário de 19:17.
27/03/2019 17:13:46: O serviço está configurado para o horário de 19:17.
27/03/2019 17:14:46: O serviço está configurado para o horário de 19:17.
27/03/2019 17:15:46: O serviço está configurado para o horário de 19:17.
27/03/2019 17:16:46: O serviço está configurado para o horário de 19:17.
27/03/2019 17:17:46: O serviço está configurado para o horário de 19:17.
27/03/2019 17:18:46: O serviço está configurado para o horário de 19:17.
27/03/2019 17:19:46: O serviço está configurado para o horário de 19:17.
27/03/2019 17:20:46: O serviço está configurado para o horário de 19:17.
27/03/2019 17:21:46: O serviço está configurado para o horário de 19:17.
27/03/2019 17:22:46: O serviço está configurado para o horário de 19:17.
27/03/2019 17:23:46: O serviço está configurado para o horário de 19:17.
27/03/2019 17:24:46: O serviço está configurado para o horário de 19:17.
27/03/2019 17:25:46: O serviço está configurado para o horário de 19:17.
27/03/2019 17:26:46: O serviço está configurado para o horário de 19:17.
27/03/2019 17:27:46: O serviço está configurado para o horário de 19:17.
27/03/2019 17:28:46: O serviço está configurado para o horário de 19:17.
27/03/2019 17:29:46: O serviço está configurado para o horário de 19:17.
27/03/2019 17:30:46: O serviço está configurado para o horário de 19:17.
27/03/2019 17:31:46: O serviço está configurado para o horário de 19:17.
27/03/2019 17:32:46: O serviço está configurado para o horário de 19:17.
27/03/2019 17:33:46: O serviço está configurado para o horário de 19:17.
27/03/2019 17:34:46: O serviço está configurado para o horário de 19:17.
27/03/2019 17:35:46: O serviço está configurado para o horário de 19:17.
27/03/2019 17:36:46: O serviço está configurado para o horário de 19:17.
27/03/2019 17:37:46: O serviço está configurado para o horário de 19:17.
27/03/2019 17:38:46: O serviço está configurado para o horário de 19:17.
27/03/2019 17:39:46: O serviço está configurado para o horário de 19:17.
27/03/2019 17:40:46: O serviço está configurado para o horário de 19:17.
27/03/2019 17:41:46: O serviço está configurado para o horário de 19:17.
27/03/2019 17:42:46: O serviço está configurado para o horário de 19:17.
27/03/2019 17:43:46: O serviço está configurado para o horário de 19:17.
27/03/2019 17:44:46: O serviço está configurado para o horário de 19:17.
27/03/2019 17:45:46: O serviço está configurado para o horário de 19:17.
27/03/2019 17:46:47: O serviço está configurado para o horário de 19:17.
27/03/2019 17:47:47: O serviço está configurado para o horário de 19:17.
27/03/2019 17:48:47: O serviço está configurado para o horário de 19:17.
27/03/2019 17:49:47: O serviço está configurado para o horário de 19:17.
27/03/2019 17:50:47: O serviço está configurado para o horário de 19:17.
27/03/2019 17:51:47: O serviço está configurado para o horário de 19:17.
27/03/2019 17:52:47: O serviço está configurado para o horário de 19:17.
27/03/2019 17:53:47: O serviço está configurado para o horário de 19:17.
27/03/2019 17:54:47: O serviço está configurado para o horário de 19:17.
27/03/2019 17:55:47: O serviço está configurado para o horário de 19:17.
27/03/2019 17:56:47: O serviço está configurado para o horário de 19:17.
27/03/2019 17:57:47: O serviço está configurado para o horário de 19:17.
27/03/2019 17:58:47: O serviço está configurado para o horário de 19:17.
27/03/2019 17:59:47: O serviço está configurado para o horário de 19:17.
27/03/2019 18:00:47: O serviço está configurado para o horário de 19:17.
27/03/2019 18:01:47: O serviço está configurado para o horário de 19:17.
27/03/2019 18:02:47: O serviço está configurado para o horário de 19:17.
27/03/2019 18:03:47: O serviço está configurado para o horário de 19:17.
27/03/2019 18:04:47: O serviço está configurado para o horário de 19:17.
27/03/2019 18:05:47: O serviço está configurado para o horário de 19:17.
27/03/2019 18:06:47: O serviço está configurado para o horário de 19:17.
27/03/2019 18:07:47: O serviço está configurado para o horário de 19:17.
27/03/2019 18:08:47: O serviço está configurado para o horário de 19:17.
27/03/2019 18:09:47: O serviço está configurado para o horário de 19:17.
27/03/2019 18:10:47: O serviço está configurado para o horário de 19:17.
27/03/2019 18:11:47: O serviço está configurado para o horário de 19:17.
27/03/2019 18:12:47: O serviço está configurado para o horário de 19:17.
27/03/2019 18:13:47: O serviço está configurado para o horário de 19:17.
27/03/2019 18:14:47: O serviço está configurado para o horário de 19:17.
27/03/2019 18:15:47: O serviço está configurado para o horário de 19:17.
27/03/2019 18:16:47: O serviço está configurado para o horário de 19:17.
27/03/2019 18:17:47: O serviço está configurado para o horário de 19:17.
27/03/2019 18:18:47: O serviço está configurado para o horário de 19:17.
27/03/2019 18:19:47: O serviço está configurado para o horário de 19:17.
27/03/2019 18:20:47: O serviço está configurado para o horário de 19:17.
27/03/2019 18:21:47: O serviço está configurado para o horário de 19:17.
27/03/2019 18:22:47: O serviço está configurado para o horário de 19:17.
27/03/2019 18:23:47: O serviço está configurado para o horário de 19:17.
27/03/2019 18:24:47: O serviço está configurado para o horário de 19:17.
27/03/2019 18:25:47: O serviço está configurado para o horário de 19:17.
27/03/2019 18:26:47: O serviço está configurado para o horário de 19:17.
27/03/2019 18:27:47: O serviço está configurado para o horário de 19:17.
27/03/2019 18:28:47: O serviço está configurado para o horário de 19:17.
27/03/2019 18:29:47: O serviço está configurado para o horário de 19:17.
27/03/2019 18:30:47: O serviço está configurado para o horário de 19:17.
27/03/2019 18:31:47: O serviço está configurado para o horário de 19:17.
27/03/2019 18:32:47: O serviço está configurado para o horário de 19:17.
27/03/2019 18:33:47: O serviço está configurado para o horário de 19:17.
27/03/2019 18:34:47: O serviço está configurado para o horário de 19:17.
27/03/2019 18:35:47: O serviço está configurado para o horário de 19:17.
27/03/2019 18:36:47: O serviço está configurado para o horário de 19:17.
27/03/2019 18:37:47: O serviço está configurado para o horário de 19:17.
27/03/2019 18:38:47: O serviço está configurado para o horário de 19:17.
27/03/2019 18:39:47: O serviço está configurado para o horário de 19:17.
27/03/2019 18:40:47: O serviço está configurado para o horário de 19:17.
27/03/2019 18:41:47: O serviço está configurado para o horário de 19:17.
27/03/2019 18:42:47: O serviço está configurado para o horário de 19:17.
27/03/2019 18:43:47: O serviço está configurado para o horário de 19:17.
27/03/2019 18:44:47: O serviço está configurado para o horário de 19:17.
27/03/2019 18:45:47: O serviço está configurado para o horário de 19:17.
27/03/2019 18:46:47: O serviço está configurado para o horário de 19:17.
27/03/2019 18:47:47: O serviço está configurado para o horário de 19:17.
27/03/2019 18:48:47: O serviço está configurado para o horário de 19:17.
27/03/2019 18:49:47: O serviço está configurado para o horário de 19:17.
27/03/2019 18:50:47: O serviço está configurado para o horário de 19:17.
27/03/2019 18:51:47: O serviço está configurado para o horário de 19:17.
27/03/2019 18:52:47: O serviço está configurado para o horário de 19:17.
27/03/2019 18:53:47: O serviço está configurado para o horário de 19:17.
27/03/2019 18:54:47: O serviço está configurado para o horário de 19:17.
27/03/2019 18:55:47: O serviço está configurado para o horário de 19:17.
27/03/2019 18:56:47: O serviço está configurado para o horário de 19:17.
27/03/2019 18:57:47: O serviço está configurado para o horário de 19:17.
27/03/2019 18:58:47: O serviço está configurado para o horário de 19:17.
27/03/2019 18:59:48: O serviço está configurado para o horário de 19:17.
27/03/2019 19:00:48: O serviço está configurado para o horário de 19:17.
27/03/2019 19:01:48: O serviço está configurado para o horário de 19:17.
27/03/2019 19:02:48: O serviço está configurado para o horário de 19:17.
27/03/2019 19:03:48: O serviço está configurado para o horário de 19:17.
27/03/2019 19:04:48: O serviço está configurado para o horário de 19:17.
27/03/2019 19:05:48: O serviço está configurado para o horário de 19:17.
27/03/2019 19:06:48: O serviço está configurado para o horário de 19:17.
27/03/2019 19:07:48: O serviço está configurado para o horário de 19:17.
27/03/2019 19:08:48: O serviço está configurado para o horário de 19:17.
27/03/2019 19:09:48: O serviço está configurado para o horário de 19:17.
27/03/2019 19:10:48: O serviço está configurado para o horário de 19:17.
27/03/2019 19:11:48: O serviço está configurado para o horário de 19:17.
27/03/2019 19:12:48: O serviço está configurado para o horário de 19:17.
27/03/2019 19:13:48: O serviço está configurado para o horário de 19:17.
27/03/2019 19:14:48: O serviço está configurado para o horário de 19:17.
27/03/2019 19:15:48: O serviço está configurado para o horário de 19:17.
27/03/2019 19:16:48: O serviço está configurado para o horário de 19:17.
27/03/2019 19:17:48: O serviço está configurado para o horário de 19:17.
27/03/2019 19:17:48: Está na hora de buscar desenquadramentos no suitability.
27/03/2019 19:17:48: Procurando desenquadramentos...
27/03/2019 19:18:06: Error: Erro de rede ou específico à instância ao estabelecer conexão com o SQL Server. O servidor não foi encontrado ou não estava acessível. Verifique se o nome da instância está correto e se o SQL Server está configurado para permitir conexões remotas. (provider: TCP Provider, error: 0 - O tempo limite de espera foi atingido.) - System.Data.SqlClient.SqlException (0x80131904): Erro de rede ou específico à instância ao estabelecer conexão com o SQL Server. O servidor não foi encontrado ou não estava acessível. Verifique se o nome da instância está correto e se o SQL Server está configurado para permitir conexões remotas. (provider: TCP Provider, error: 0 - O tempo limite de espera foi atingido.) ---> System.ComponentModel.Win32Exception (0x80004005): O tempo limite de espera foi atingido
   em System.Data.SqlClient.SqlInternalConnectionTds..ctor(DbConnectionPoolIdentity identity, SqlConnectionString connectionOptions, SqlCredential credential, Object providerInfo, String newPassword, SecureString newSecurePassword, Boolean redirectedUserInstance, SqlConnectionString userConnectionOptions, SessionData reconnectSessionData, DbConnectionPool pool, String accessToken, Boolean applyTransientFaultHandling)
   em System.Data.SqlClient.SqlConnectionFactory.CreateConnection(DbConnectionOptions options, DbConnectionPoolKey poolKey, Object poolGroupProviderInfo, DbConnectionPool pool, DbConnection owningConnection, DbConnectionOptions userOptions)
   em System.Data.ProviderBase.DbConnectionFactory.CreatePooledConnection(DbConnectionPool pool, DbConnection owningObject, DbConnectionOptions options, DbConnectionPoolKey poolKey, DbConnectionOptions userOptions)
   em System.Data.ProviderBase.DbConnectionPool.CreateObject(DbConnection owningObject, DbConnectionOptions userOptions, DbConnectionInternal oldConnection)
   em System.Data.ProviderBase.DbConnectionPool.UserCreateRequest(DbConnection owningObject, DbConnectionOptions userOptions, DbConnectionInternal oldConnection)
   em System.Data.ProviderBase.DbConnectionPool.TryGetConnection(DbConnection owningObject, UInt32 waitForMultipleObjectsTimeout, Boolean allowCreate, Boolean onlyOneCheckConnection, DbConnectionOptions userOptions, DbConnectionInternal& connection)
   em System.Data.ProviderBase.DbConnectionPool.TryGetConnection(DbConnection owningObject, TaskCompletionSource`1 retry, DbConnectionOptions userOptions, DbConnectionInternal& connection)
   em System.Data.ProviderBase.DbConnectionFactory.TryGetConnection(DbConnection owningConnection, TaskCompletionSource`1 retry, DbConnectionOptions userOptions, DbConnectionInternal oldConnection, DbConnectionInternal& connection)
   em System.Data.ProviderBase.DbConnectionInternal.TryOpenConnectionInternal(DbConnection outerConnection, DbConnectionFactory connectionFactory, TaskCompletionSource`1 retry, DbConnectionOptions userOptions)
   em System.Data.ProviderBase.DbConnectionClosed.TryOpenConnection(DbConnection outerConnection, DbConnectionFactory connectionFactory, TaskCompletionSource`1 retry, DbConnectionOptions userOptions)
   em System.Data.SqlClient.SqlConnection.TryOpenInner(TaskCompletionSource`1 retry)
   em System.Data.SqlClient.SqlConnection.TryOpen(TaskCompletionSource`1 retry)
   em System.Data.SqlClient.SqlConnection.Open()
   em QX3.Portal.Services.Data.SuitabilityDAL.SelecionaClientesSuitability(Nullable`1 idClienteGlobal, Nullable`1 cpfcnpj, String cdCliente, String status, String investidor, String desenquadrado) na C:\GIT\brpartners\service\Data\Suitability\SuitabilityDAL.cs:linha 504
   em QX3.Portal.Services.Business.SuitabilityMethods.SelecionaClientesSuitability(Nullable`1 idClienteGlobal, Nullable`1 cpfcnpj, String cdCliente, String status, String investidor, String desenquadrado) na C:\GIT\brpartners\service\Business\Suitability\SuitabilityMethods.cs:linha 140
ClientConnectionId:00000000-0000-0000-0000-000000000000
Error Number:258,State:0,Class:20 -    em QX3.Portal.Services.Business.SuitabilityMethods.SelecionaClientesSuitability(Nullable`1 idClienteGlobal, Nullable`1 cpfcnpj, String cdCliente, String status, String investidor, String desenquadrado) na C:\GIT\brpartners\service\Business\Suitability\SuitabilityMethods.cs:linha 171
   em SuitabilityMismatch.SuitabilityMismatchService.GetClients() na C:\GIT\brpartners\solutions\BrPartners.Portal\SuitabilityMismatch\SuitabilityMismatchService.cs:linha 152
   em SuitabilityMismatch.SuitabilityMismatchService.Search() na C:\GIT\brpartners\solutions\BrPartners.Portal\SuitabilityMismatch\SuitabilityMismatchService.cs:linha 100
   em SuitabilityMismatch.SuitabilityMismatchService.Execute() na C:\GIT\brpartners\solutions\BrPartners.Portal\SuitabilityMismatch\SuitabilityMismatchService.cs:linha 65
27/03/2019 19:18:48: O serviço está configurado para o horário de 19:17.
27/03/2019 19:19:48: O serviço está configurado para o horário de 19:17.
27/03/2019 19:20:48: O serviço está configurado para o horário de 19:17.
27/03/2019 19:21:48: O serviço está configurado para o horário de 19:17.
27/03/2019 19:22:48: O serviço está configurado para o horário de 19:17.
27/03/2019 19:23:48: O serviço está configurado para o horário de 19:17.
27/03/2019 19:24:48: O serviço está configurado para o horário de 19:17.
27/03/2019 19:25:48: O serviço está configurado para o horário de 19:17.
27/03/2019 19:26:48: O serviço está configurado para o horário de 19:17.
27/03/2019 19:27:48: O serviço está configurado para o horário de 19:17.
27/03/2019 19:28:48: O serviço está configurado para o horário de 19:17.
27/03/2019 19:29:48: O serviço está configurado para o horário de 19:17.
27/03/2019 19:30:48: O serviço está configurado para o horário de 19:17.
27/03/2019 19:31:48: O serviço está configurado para o horário de 19:17.
27/03/2019 19:32:48: O serviço está configurado para o horário de 19:17.
27/03/2019 19:33:48: O serviço está configurado para o horário de 19:17.
27/03/2019 19:34:48: O serviço está configurado para o horário de 19:17.
27/03/2019 19:35:48: O serviço está configurado para o horário de 19:17.
27/03/2019 19:36:48: O serviço está configurado para o horário de 19:17.
27/03/2019 19:37:48: O serviço está configurado para o horário de 19:17.
27/03/2019 19:38:48: O serviço está configurado para o horário de 19:17.
27/03/2019 19:39:48: O serviço está configurado para o horário de 19:17.
27/03/2019 19:40:48: O serviço está configurado para o horário de 19:17.
27/03/2019 19:41:48: O serviço está configurado para o horário de 19:17.
27/03/2019 19:42:48: O serviço está configurado para o horário de 19:17.
27/03/2019 19:43:48: O serviço está configurado para o horário de 19:17.
27/03/2019 19:44:48: O serviço está configurado para o horário de 19:17.
27/03/2019 19:45:48: O serviço está configurado para o horário de 19:17.
27/03/2019 19:46:48: O serviço está configurado para o horário de 19:17.
27/03/2019 19:47:48: O serviço está configurado para o horário de 19:17.
27/03/2019 19:48:48: O serviço está configurado para o horário de 19:17.
27/03/2019 19:49:49: O serviço está configurado para o horário de 19:17.
27/03/2019 19:50:49: O serviço está configurado para o horário de 19:17.
27/03/2019 19:51:49: O serviço está configurado para o horário de 19:17.
27/03/2019 19:52:49: O serviço está configurado para o horário de 19:17.
27/03/2019 19:53:49: O serviço está configurado para o horário de 19:17.
27/03/2019 19:54:49: O serviço está configurado para o horário de 19:17.
27/03/2019 19:55:49: O serviço está configurado para o horário de 19:17.
27/03/2019 19:56:49: O serviço está configurado para o horário de 19:17.
27/03/2019 19:57:49: O serviço está configurado para o horário de 19:17.
27/03/2019 19:58:49: O serviço está configurado para o horário de 19:17.
27/03/2019 19:59:49: O serviço está configurado para o horário de 19:17.
27/03/2019 20:00:49: O serviço está configurado para o horário de 19:17.
27/03/2019 20:01:49: O serviço está configurado para o horário de 19:17.
27/03/2019 20:02:49: O serviço está configurado para o horário de 19:17.
27/03/2019 20:03:49: O serviço está configurado para o horário de 19:17.
27/03/2019 20:04:49: O serviço está configurado para o horário de 19:17.
27/03/2019 20:05:49: O serviço está configurado para o horário de 19:17.
27/03/2019 20:06:49: O serviço está configurado para o horário de 19:17.
27/03/2019 20:07:49: O serviço está configurado para o horário de 19:17.
27/03/2019 20:08:49: O serviço está configurado para o horário de 19:17.
27/03/2019 20:09:49: O serviço está configurado para o horário de 19:17.
27/03/2019 20:10:49: O serviço está configurado para o horário de 19:17.
27/03/2019 20:11:49: O serviço está configurado para o horário de 19:17.
27/03/2019 20:12:49: O serviço está configurado para o horário de 19:17.
27/03/2019 20:13:49: O serviço está configurado para o horário de 19:17.
27/03/2019 20:14:49: O serviço está configurado para o horário de 19:17.
27/03/2019 20:15:49: O serviço está configurado para o horário de 19:17.
27/03/2019 20:16:49: O serviço está configurado para o horário de 19:17.
27/03/2019 20:17:49: O serviço está configurado para o horário de 19:17.
27/03/2019 20:18:49: O serviço está configurado para o horário de 19:17.
27/03/2019 20:19:49: O serviço está configurado para o horário de 19:17.
27/03/2019 20:20:49: O serviço está configurado para o horário de 19:17.
27/03/2019 20:21:49: O serviço está configurado para o horário de 19:17.
27/03/2019 20:22:49: O serviço está configurado para o horário de 19:17.
27/03/2019 20:23:49: O serviço está configurado para o horário de 19:17.
27/03/2019 20:24:49: O serviço está configurado para o horário de 19:17.
27/03/2019 20:25:49: O serviço está configurado para o horário de 19:17.
27/03/2019 20:26:49: O serviço está configurado para o horário de 19:17.
27/03/2019 20:27:49: O serviço está configurado para o horário de 19:17.
27/03/2019 20:28:49: O serviço está configurado para o horário de 19:17.
27/03/2019 20:29:49: O serviço está configurado para o horário de 19:17.
27/03/2019 20:30:49: O serviço está configurado para o horário de 19:17.
27/03/2019 20:31:49: O serviço está configurado para o horário de 19:17.
27/03/2019 20:32:49: O serviço está configurado para o horário de 19:17.
27/03/2019 20:33:49: O serviço está configurado para o horário de 19:17.
27/03/2019 20:34:49: O serviço está configurado para o horário de 19:17.
27/03/2019 20:35:49: O serviço está configurado para o horário de 19:17.
27/03/2019 20:36:49: O serviço está configurado para o horário de 19:17.
27/03/2019 20:37:49: O serviço está configurado para o horário de 19:17.
27/03/2019 20:38:49: O serviço está configurado para o horário de 19:17.
27/03/2019 20:39:49: O serviço está configurado para o horário de 19:17.
27/03/2019 20:40:49: O serviço está configurado para o horário de 19:17.
27/03/2019 20:41:49: O serviço está configurado para o horário de 19:17.
27/03/2019 20:42:49: O serviço está configurado para o horário de 19:17.
27/03/2019 20:43:49: O serviço está configurado para o horário de 19:17.
27/03/2019 20:44:49: O serviço está configurado para o horário de 19:17.
27/03/2019 20:45:49: O serviço está configurado para o horário de 19:17.
27/03/2019 20:46:49: O serviço está configurado para o horário de 19:17.
27/03/2019 20:47:49: O serviço está configurado para o horário de 19:17.
27/03/2019 20:48:49: O serviço está configurado para o horário de 19:17.
27/03/2019 20:49:49: O serviço está configurado para o horário de 19:17.
27/03/2019 20:50:49: O serviço está configurado para o horário de 19:17.
27/03/2019 20:51:49: O serviço está configurado para o horário de 19:17.
27/03/2019 20:52:49: O serviço está configurado para o horário de 19:17.
27/03/2019 20:53:49: O serviço está configurado para o horário de 19:17.
27/03/2019 20:54:49: O serviço está configurado para o horário de 19:17.
27/03/2019 20:55:49: O serviço está configurado para o horário de 19:17.
27/03/2019 20:56:49: O serviço está configurado para o horário de 19:17.
27/03/2019 20:57:49: O serviço está configurado para o horário de 19:17.
27/03/2019 20:58:49: O serviço está configurado para o horário de 19:17.
27/03/2019 20:59:49: O serviço está configurado para o horário de 19:17.
27/03/2019 21:00:49: O serviço está configurado para o horário de 19:17.
27/03/2019 21:01:50: O serviço está configurado para o horário de 19:17.
27/03/2019 21:02:50: O serviço está configurado para o horário de 19:17.
27/03/2019 21:03:50: O serviço está configurado para o horário de 19:17.
27/03/2019 21:04:50: O serviço está configurado para o horário de 19:17.
27/03/2019 21:05:50: O serviço está configurado para o horário de 19:17.
27/03/2019 21:06:50: O serviço está configurado para o horário de 19:17.
27/03/2019 21:07:50: O serviço está configurado para o horário de 19:17.
27/03/2019 21:08:50: O serviço está configurado para o horário de 19:17.
27/03/2019 21:09:50: O serviço está configurado para o horário de 19:17.
27/03/2019 21:10:50: O serviço está configurado para o horário de 19:17.
27/03/2019 21:11:50: O serviço está configurado para o horário de 19:17.
27/03/2019 21:12:50: O serviço está configurado para o horário de 19:17.
27/03/2019 21:13:50: O serviço está configurado para o horário de 19:17.
27/03/2019 21:14:50: O serviço está configurado para o horário de 19:17.
27/03/2019 21:15:50: O serviço está configurado para o horário de 19:17.
27/03/2019 21:16:50: O serviço está configurado para o horário de 19:17.
27/03/2019 21:17:50: O serviço está configurado para o horário de 19:17.
