04/02/2019 12:20:05: O serviço está configurado para o horário de 19:17.
04/02/2019 12:21:05: O serviço está configurado para o horário de 19:17.
04/02/2019 12:22:05: O serviço está configurado para o horário de 19:17.
04/02/2019 12:23:05: O serviço está configurado para o horário de 19:17.
04/02/2019 12:23:58: O serviço está configurado para o horário de 19:17.
04/02/2019 12:24:58: O serviço está configurado para o horário de 19:17.
04/02/2019 12:25:58: O serviço está configurado para o horário de 19:17.
04/02/2019 12:26:58: O serviço está configurado para o horário de 19:17.
04/02/2019 12:27:58: O serviço está configurado para o horário de 19:17.
04/02/2019 12:28:58: O serviço está configurado para o horário de 19:17.
04/02/2019 12:29:58: O serviço está configurado para o horário de 19:17.
04/02/2019 12:30:58: O serviço está configurado para o horário de 19:17.
04/02/2019 12:31:58: O serviço está configurado para o horário de 19:17.
04/02/2019 12:32:58: O serviço está configurado para o horário de 19:17.
04/02/2019 12:33:58: O serviço está configurado para o horário de 19:17.
04/02/2019 12:34:58: O serviço está configurado para o horário de 19:17.
04/02/2019 12:35:58: O serviço está configurado para o horário de 19:17.
04/02/2019 12:36:58: O serviço está configurado para o horário de 19:17.
04/02/2019 12:37:58: O serviço está configurado para o horário de 19:17.
04/02/2019 12:38:58: O serviço está configurado para o horário de 19:17.
04/02/2019 12:39:58: O serviço está configurado para o horário de 19:17.
04/02/2019 12:40:58: O serviço está configurado para o horário de 19:17.
04/02/2019 12:41:58: O serviço está configurado para o horário de 19:17.
04/02/2019 12:42:58: O serviço está configurado para o horário de 19:17.
04/02/2019 12:43:58: O serviço está configurado para o horário de 19:17.
04/02/2019 12:44:58: O serviço está configurado para o horário de 19:17.
04/02/2019 12:45:58: O serviço está configurado para o horário de 19:17.
04/02/2019 12:46:58: O serviço está configurado para o horário de 19:17.
04/02/2019 12:47:58: O serviço está configurado para o horário de 19:17.
04/02/2019 12:48:58: O serviço está configurado para o horário de 19:17.
04/02/2019 12:49:58: O serviço está configurado para o horário de 19:17.
04/02/2019 12:50:58: O serviço está configurado para o horário de 19:17.
04/02/2019 12:51:58: O serviço está configurado para o horário de 19:17.
04/02/2019 12:52:58: O serviço está configurado para o horário de 19:17.
04/02/2019 12:53:58: O serviço está configurado para o horário de 19:17.
04/02/2019 12:54:58: O serviço está configurado para o horário de 19:17.
04/02/2019 12:55:58: O serviço está configurado para o horário de 19:17.
04/02/2019 12:56:58: O serviço está configurado para o horário de 19:17.
04/02/2019 12:57:58: O serviço está configurado para o horário de 19:17.
04/02/2019 12:58:58: O serviço está configurado para o horário de 19:17.
04/02/2019 12:59:58: O serviço está configurado para o horário de 19:17.
04/02/2019 13:00:58: O serviço está configurado para o horário de 19:17.
04/02/2019 13:01:58: O serviço está configurado para o horário de 19:17.
04/02/2019 13:02:58: O serviço está configurado para o horário de 19:17.
04/02/2019 13:03:58: O serviço está configurado para o horário de 19:17.
04/02/2019 13:04:58: O serviço está configurado para o horário de 19:17.
04/02/2019 13:05:58: O serviço está configurado para o horário de 19:17.
04/02/2019 13:06:58: O serviço está configurado para o horário de 19:17.
04/02/2019 13:07:58: O serviço está configurado para o horário de 19:17.
04/02/2019 13:08:58: O serviço está configurado para o horário de 19:17.
04/02/2019 13:09:58: O serviço está configurado para o horário de 19:17.
04/02/2019 13:10:58: O serviço está configurado para o horário de 19:17.
04/02/2019 13:11:58: O serviço está configurado para o horário de 19:17.
04/02/2019 13:12:58: O serviço está configurado para o horário de 19:17.
04/02/2019 13:13:58: O serviço está configurado para o horário de 19:17.
04/02/2019 13:14:58: O serviço está configurado para o horário de 19:17.
04/02/2019 13:15:58: O serviço está configurado para o horário de 19:17.
04/02/2019 13:16:58: O serviço está configurado para o horário de 19:17.
04/02/2019 13:17:58: O serviço está configurado para o horário de 19:17.
04/02/2019 13:18:58: O serviço está configurado para o horário de 19:17.
04/02/2019 13:19:58: O serviço está configurado para o horário de 19:17.
04/02/2019 13:20:58: O serviço está configurado para o horário de 19:17.
04/02/2019 13:21:59: O serviço está configurado para o horário de 19:17.
04/02/2019 13:22:59: O serviço está configurado para o horário de 19:17.
04/02/2019 13:23:59: O serviço está configurado para o horário de 19:17.
04/02/2019 13:24:59: O serviço está configurado para o horário de 19:17.
04/02/2019 13:25:59: O serviço está configurado para o horário de 19:17.
04/02/2019 13:26:59: O serviço está configurado para o horário de 19:17.
04/02/2019 13:27:59: O serviço está configurado para o horário de 19:17.
04/02/2019 13:28:59: O serviço está configurado para o horário de 19:17.
04/02/2019 13:29:59: O serviço está configurado para o horário de 19:17.
04/02/2019 13:30:59: O serviço está configurado para o horário de 19:17.
04/02/2019 13:31:59: O serviço está configurado para o horário de 19:17.
04/02/2019 13:32:59: O serviço está configurado para o horário de 19:17.
04/02/2019 13:33:59: O serviço está configurado para o horário de 19:17.
04/02/2019 13:34:59: O serviço está configurado para o horário de 19:17.
04/02/2019 13:35:59: O serviço está configurado para o horário de 19:17.
04/02/2019 13:36:59: O serviço está configurado para o horário de 19:17.
04/02/2019 13:37:59: O serviço está configurado para o horário de 19:17.
04/02/2019 13:38:59: O serviço está configurado para o horário de 19:17.
04/02/2019 13:39:59: O serviço está configurado para o horário de 19:17.
04/02/2019 13:40:59: O serviço está configurado para o horário de 19:17.
04/02/2019 13:41:59: O serviço está configurado para o horário de 19:17.
04/02/2019 13:42:59: O serviço está configurado para o horário de 19:17.
04/02/2019 13:43:59: O serviço está configurado para o horário de 19:17.
04/02/2019 13:44:59: O serviço está configurado para o horário de 19:17.
04/02/2019 13:45:59: O serviço está configurado para o horário de 19:17.
04/02/2019 13:46:59: O serviço está configurado para o horário de 19:17.
04/02/2019 13:47:59: O serviço está configurado para o horário de 19:17.
04/02/2019 13:48:59: O serviço está configurado para o horário de 19:17.
04/02/2019 13:49:59: O serviço está configurado para o horário de 19:17.
04/02/2019 13:50:59: O serviço está configurado para o horário de 19:17.
04/02/2019 13:51:59: O serviço está configurado para o horário de 19:17.
04/02/2019 13:52:59: O serviço está configurado para o horário de 19:17.
04/02/2019 13:53:59: O serviço está configurado para o horário de 19:17.
04/02/2019 13:54:59: O serviço está configurado para o horário de 19:17.
04/02/2019 13:55:59: O serviço está configurado para o horário de 19:17.
04/02/2019 13:56:59: O serviço está configurado para o horário de 19:17.
04/02/2019 13:57:59: O serviço está configurado para o horário de 19:17.
04/02/2019 13:58:59: O serviço está configurado para o horário de 19:17.
04/02/2019 13:59:59: O serviço está configurado para o horário de 19:17.
04/02/2019 14:00:59: O serviço está configurado para o horário de 19:17.
04/02/2019 14:01:59: O serviço está configurado para o horário de 19:17.
04/02/2019 14:02:59: O serviço está configurado para o horário de 19:17.
04/02/2019 14:03:59: O serviço está configurado para o horário de 19:17.
04/02/2019 14:04:59: O serviço está configurado para o horário de 19:17.
04/02/2019 14:05:59: O serviço está configurado para o horário de 19:17.
04/02/2019 14:06:59: O serviço está configurado para o horário de 19:17.
04/02/2019 14:07:59: O serviço está configurado para o horário de 19:17.
04/02/2019 14:08:59: O serviço está configurado para o horário de 19:17.
04/02/2019 14:09:59: O serviço está configurado para o horário de 19:17.
04/02/2019 14:10:59: O serviço está configurado para o horário de 19:17.
04/02/2019 14:11:59: O serviço está configurado para o horário de 19:17.
04/02/2019 14:12:59: O serviço está configurado para o horário de 19:17.
04/02/2019 14:13:59: O serviço está configurado para o horário de 19:17.
04/02/2019 14:14:59: O serviço está configurado para o horário de 19:17.
04/02/2019 14:15:59: O serviço está configurado para o horário de 19:17.
04/02/2019 14:16:59: O serviço está configurado para o horário de 19:17.
04/02/2019 14:17:59: O serviço está configurado para o horário de 19:17.
04/02/2019 14:18:59: O serviço está configurado para o horário de 19:17.
04/02/2019 14:19:59: O serviço está configurado para o horário de 19:17.
04/02/2019 14:20:59: O serviço está configurado para o horário de 19:17.
04/02/2019 14:21:59: O serviço está configurado para o horário de 19:17.
04/02/2019 14:22:59: O serviço está configurado para o horário de 19:17.
04/02/2019 14:23:59: O serviço está configurado para o horário de 19:17.
04/02/2019 14:24:59: O serviço está configurado para o horário de 19:17.
04/02/2019 14:25:59: O serviço está configurado para o horário de 19:17.
04/02/2019 14:26:59: O serviço está configurado para o horário de 19:17.
04/02/2019 14:27:59: O serviço está configurado para o horário de 19:17.
04/02/2019 14:28:59: O serviço está configurado para o horário de 19:17.
04/02/2019 14:29:59: O serviço está configurado para o horário de 19:17.
04/02/2019 14:30:59: O serviço está configurado para o horário de 19:17.
04/02/2019 14:31:59: O serviço está configurado para o horário de 19:17.
04/02/2019 14:32:59: O serviço está configurado para o horário de 19:17.
04/02/2019 14:33:59: O serviço está configurado para o horário de 19:17.
04/02/2019 14:34:59: O serviço está configurado para o horário de 19:17.
04/02/2019 14:36:00: O serviço está configurado para o horário de 19:17.
04/02/2019 14:37:00: O serviço está configurado para o horário de 19:17.
04/02/2019 14:38:00: O serviço está configurado para o horário de 19:17.
04/02/2019 14:39:00: O serviço está configurado para o horário de 19:17.
04/02/2019 14:40:00: O serviço está configurado para o horário de 19:17.
04/02/2019 14:41:00: O serviço está configurado para o horário de 19:17.
04/02/2019 14:42:00: O serviço está configurado para o horário de 19:17.
04/02/2019 14:43:00: O serviço está configurado para o horário de 19:17.
04/02/2019 14:44:00: O serviço está configurado para o horário de 19:17.
04/02/2019 14:45:00: O serviço está configurado para o horário de 19:17.
04/02/2019 14:46:00: O serviço está configurado para o horário de 19:17.
04/02/2019 14:47:00: O serviço está configurado para o horário de 19:17.
04/02/2019 14:48:00: O serviço está configurado para o horário de 19:17.
04/02/2019 14:49:00: O serviço está configurado para o horário de 19:17.
04/02/2019 14:50:00: O serviço está configurado para o horário de 19:17.
04/02/2019 14:51:00: O serviço está configurado para o horário de 19:17.
04/02/2019 14:52:00: O serviço está configurado para o horário de 19:17.
04/02/2019 14:53:00: O serviço está configurado para o horário de 19:17.
04/02/2019 14:54:00: O serviço está configurado para o horário de 19:17.
04/02/2019 14:55:00: O serviço está configurado para o horário de 19:17.
04/02/2019 14:56:00: O serviço está configurado para o horário de 19:17.
04/02/2019 14:57:00: O serviço está configurado para o horário de 19:17.
04/02/2019 14:58:00: O serviço está configurado para o horário de 19:17.
04/02/2019 14:59:00: O serviço está configurado para o horário de 19:17.
04/02/2019 15:00:00: O serviço está configurado para o horário de 19:17.
04/02/2019 15:01:00: O serviço está configurado para o horário de 19:17.
04/02/2019 15:02:00: O serviço está configurado para o horário de 19:17.
04/02/2019 15:03:00: O serviço está configurado para o horário de 19:17.
04/02/2019 15:04:00: O serviço está configurado para o horário de 19:17.
04/02/2019 15:05:00: O serviço está configurado para o horário de 19:17.
04/02/2019 15:06:00: O serviço está configurado para o horário de 19:17.
04/02/2019 15:07:00: O serviço está configurado para o horário de 19:17.
04/02/2019 15:08:00: O serviço está configurado para o horário de 19:17.
04/02/2019 15:09:00: O serviço está configurado para o horário de 19:17.
04/02/2019 15:10:00: O serviço está configurado para o horário de 19:17.
04/02/2019 15:11:00: O serviço está configurado para o horário de 19:17.
04/02/2019 15:12:00: O serviço está configurado para o horário de 19:17.
04/02/2019 15:13:00: O serviço está configurado para o horário de 19:17.
04/02/2019 15:14:00: O serviço está configurado para o horário de 19:17.
04/02/2019 15:15:00: O serviço está configurado para o horário de 19:17.
04/02/2019 15:16:00: O serviço está configurado para o horário de 19:17.
04/02/2019 15:17:00: O serviço está configurado para o horário de 19:17.
04/02/2019 15:18:00: O serviço está configurado para o horário de 19:17.
04/02/2019 15:19:00: O serviço está configurado para o horário de 19:17.
04/02/2019 15:20:00: O serviço está configurado para o horário de 19:17.
04/02/2019 15:21:00: O serviço está configurado para o horário de 19:17.
04/02/2019 15:22:00: O serviço está configurado para o horário de 19:17.
04/02/2019 15:23:00: O serviço está configurado para o horário de 19:17.
04/02/2019 15:24:00: O serviço está configurado para o horário de 19:17.
04/02/2019 15:25:00: O serviço está configurado para o horário de 19:17.
04/02/2019 15:26:00: O serviço está configurado para o horário de 19:17.
04/02/2019 15:27:00: O serviço está configurado para o horário de 19:17.
04/02/2019 15:28:00: O serviço está configurado para o horário de 19:17.
04/02/2019 15:29:00: O serviço está configurado para o horário de 19:17.
04/02/2019 15:30:00: O serviço está configurado para o horário de 19:17.
04/02/2019 15:31:00: O serviço está configurado para o horário de 19:17.
04/02/2019 15:32:00: O serviço está configurado para o horário de 19:17.
04/02/2019 15:33:00: O serviço está configurado para o horário de 19:17.
04/02/2019 15:34:00: O serviço está configurado para o horário de 19:17.
04/02/2019 15:35:00: O serviço está configurado para o horário de 19:17.
04/02/2019 15:36:00: O serviço está configurado para o horário de 19:17.
04/02/2019 15:37:00: O serviço está configurado para o horário de 19:17.
04/02/2019 15:38:00: O serviço está configurado para o horário de 19:17.
04/02/2019 15:39:00: O serviço está configurado para o horário de 19:17.
04/02/2019 15:40:00: O serviço está configurado para o horário de 19:17.
04/02/2019 15:41:00: O serviço está configurado para o horário de 19:17.
04/02/2019 15:42:00: O serviço está configurado para o horário de 19:17.
04/02/2019 15:43:00: O serviço está configurado para o horário de 19:17.
04/02/2019 15:44:00: O serviço está configurado para o horário de 19:17.
04/02/2019 15:45:00: O serviço está configurado para o horário de 19:17.
04/02/2019 15:46:00: O serviço está configurado para o horário de 19:17.
04/02/2019 15:47:00: O serviço está configurado para o horário de 19:17.
04/02/2019 15:48:00: O serviço está configurado para o horário de 19:17.
04/02/2019 15:49:00: O serviço está configurado para o horário de 19:17.
04/02/2019 15:50:01: O serviço está configurado para o horário de 19:17.
04/02/2019 15:51:01: O serviço está configurado para o horário de 19:17.
04/02/2019 15:52:01: O serviço está configurado para o horário de 19:17.
04/02/2019 15:53:01: O serviço está configurado para o horário de 19:17.
04/02/2019 15:54:01: O serviço está configurado para o horário de 19:17.
04/02/2019 15:55:01: O serviço está configurado para o horário de 19:17.
04/02/2019 15:56:01: O serviço está configurado para o horário de 19:17.
04/02/2019 15:57:01: O serviço está configurado para o horário de 19:17.
04/02/2019 15:58:01: O serviço está configurado para o horário de 19:17.
04/02/2019 15:59:01: O serviço está configurado para o horário de 19:17.
04/02/2019 16:00:01: O serviço está configurado para o horário de 19:17.
04/02/2019 16:01:01: O serviço está configurado para o horário de 19:17.
04/02/2019 16:02:01: O serviço está configurado para o horário de 19:17.
04/02/2019 16:03:01: O serviço está configurado para o horário de 19:17.
04/02/2019 16:04:01: O serviço está configurado para o horário de 19:17.
04/02/2019 16:05:01: O serviço está configurado para o horário de 19:17.
04/02/2019 16:06:01: O serviço está configurado para o horário de 19:17.
04/02/2019 16:07:01: O serviço está configurado para o horário de 19:17.
04/02/2019 16:08:01: O serviço está configurado para o horário de 19:17.
04/02/2019 16:09:01: O serviço está configurado para o horário de 19:17.
04/02/2019 16:10:01: O serviço está configurado para o horário de 19:17.
04/02/2019 16:11:01: O serviço está configurado para o horário de 19:17.
04/02/2019 16:12:01: O serviço está configurado para o horário de 19:17.
04/02/2019 16:13:01: O serviço está configurado para o horário de 19:17.
04/02/2019 16:14:01: O serviço está configurado para o horário de 19:17.
04/02/2019 16:15:01: O serviço está configurado para o horário de 19:17.
04/02/2019 16:16:01: O serviço está configurado para o horário de 19:17.
04/02/2019 16:17:01: O serviço está configurado para o horário de 19:17.
04/02/2019 16:18:01: O serviço está configurado para o horário de 19:17.
04/02/2019 16:19:01: O serviço está configurado para o horário de 19:17.
04/02/2019 16:20:01: O serviço está configurado para o horário de 19:17.
04/02/2019 16:21:01: O serviço está configurado para o horário de 19:17.
04/02/2019 16:22:01: O serviço está configurado para o horário de 19:17.
04/02/2019 16:23:01: O serviço está configurado para o horário de 19:17.
04/02/2019 16:24:01: O serviço está configurado para o horário de 19:17.
04/02/2019 16:25:01: O serviço está configurado para o horário de 19:17.
04/02/2019 16:26:01: O serviço está configurado para o horário de 19:17.
04/02/2019 16:27:01: O serviço está configurado para o horário de 19:17.
04/02/2019 16:28:01: O serviço está configurado para o horário de 19:17.
04/02/2019 16:29:01: O serviço está configurado para o horário de 19:17.
04/02/2019 16:30:01: O serviço está configurado para o horário de 19:17.
04/02/2019 16:31:01: O serviço está configurado para o horário de 19:17.
04/02/2019 16:32:01: O serviço está configurado para o horário de 19:17.
04/02/2019 16:33:01: O serviço está configurado para o horário de 19:17.
04/02/2019 16:34:01: O serviço está configurado para o horário de 19:17.
04/02/2019 16:35:01: O serviço está configurado para o horário de 19:17.
04/02/2019 16:36:01: O serviço está configurado para o horário de 19:17.
04/02/2019 16:37:01: O serviço está configurado para o horário de 19:17.
04/02/2019 16:38:01: O serviço está configurado para o horário de 19:17.
04/02/2019 16:39:01: O serviço está configurado para o horário de 19:17.
04/02/2019 16:40:01: O serviço está configurado para o horário de 19:17.
04/02/2019 16:41:01: O serviço está configurado para o horário de 19:17.
04/02/2019 16:42:01: O serviço está configurado para o horário de 19:17.
04/02/2019 16:43:01: O serviço está configurado para o horário de 19:17.
04/02/2019 16:44:01: O serviço está configurado para o horário de 19:17.
04/02/2019 16:45:01: O serviço está configurado para o horário de 19:17.
04/02/2019 16:46:02: O serviço está configurado para o horário de 19:17.
04/02/2019 16:47:02: O serviço está configurado para o horário de 19:17.
04/02/2019 16:48:02: O serviço está configurado para o horário de 19:17.
04/02/2019 16:49:02: O serviço está configurado para o horário de 19:17.
04/02/2019 16:50:02: O serviço está configurado para o horário de 19:17.
04/02/2019 16:51:02: O serviço está configurado para o horário de 19:17.
04/02/2019 16:52:02: O serviço está configurado para o horário de 19:17.
04/02/2019 16:53:02: O serviço está configurado para o horário de 19:17.
04/02/2019 16:54:02: O serviço está configurado para o horário de 19:17.
04/02/2019 16:55:02: O serviço está configurado para o horário de 19:17.
04/02/2019 16:56:02: O serviço está configurado para o horário de 19:17.
04/02/2019 16:57:02: O serviço está configurado para o horário de 19:17.
04/02/2019 16:58:02: O serviço está configurado para o horário de 19:17.
04/02/2019 16:59:02: O serviço está configurado para o horário de 19:17.
04/02/2019 17:00:02: O serviço está configurado para o horário de 19:17.
04/02/2019 17:01:02: O serviço está configurado para o horário de 19:17.
04/02/2019 17:02:02: O serviço está configurado para o horário de 19:17.
04/02/2019 17:03:02: O serviço está configurado para o horário de 19:17.
04/02/2019 17:04:02: O serviço está configurado para o horário de 19:17.
04/02/2019 17:05:02: O serviço está configurado para o horário de 19:17.
04/02/2019 17:06:02: O serviço está configurado para o horário de 19:17.
04/02/2019 17:07:02: O serviço está configurado para o horário de 19:17.
04/02/2019 17:08:02: O serviço está configurado para o horário de 19:17.
04/02/2019 17:09:02: O serviço está configurado para o horário de 19:17.
04/02/2019 17:10:02: O serviço está configurado para o horário de 19:17.
04/02/2019 17:11:02: O serviço está configurado para o horário de 19:17.
04/02/2019 17:12:02: O serviço está configurado para o horário de 19:17.
04/02/2019 17:13:02: O serviço está configurado para o horário de 19:17.
04/02/2019 17:14:02: O serviço está configurado para o horário de 19:17.
04/02/2019 17:15:02: O serviço está configurado para o horário de 19:17.
04/02/2019 17:16:02: O serviço está configurado para o horário de 19:17.
04/02/2019 17:17:02: O serviço está configurado para o horário de 19:17.
04/02/2019 17:18:02: O serviço está configurado para o horário de 19:17.
04/02/2019 17:19:02: O serviço está configurado para o horário de 19:17.
04/02/2019 17:20:02: O serviço está configurado para o horário de 19:17.
04/02/2019 17:21:02: O serviço está configurado para o horário de 19:17.
04/02/2019 17:22:02: O serviço está configurado para o horário de 19:17.
04/02/2019 17:23:02: O serviço está configurado para o horário de 19:17.
04/02/2019 17:24:02: O serviço está configurado para o horário de 19:17.
04/02/2019 17:25:02: O serviço está configurado para o horário de 19:17.
04/02/2019 17:26:02: O serviço está configurado para o horário de 19:17.
04/02/2019 17:27:02: O serviço está configurado para o horário de 19:17.
04/02/2019 17:28:02: O serviço está configurado para o horário de 19:17.
04/02/2019 17:29:02: O serviço está configurado para o horário de 19:17.
04/02/2019 17:30:02: O serviço está configurado para o horário de 19:17.
04/02/2019 17:31:02: O serviço está configurado para o horário de 19:17.
04/02/2019 17:32:02: O serviço está configurado para o horário de 19:17.
04/02/2019 17:33:02: O serviço está configurado para o horário de 19:17.
04/02/2019 17:34:02: O serviço está configurado para o horário de 19:17.
04/02/2019 17:35:02: O serviço está configurado para o horário de 19:17.
04/02/2019 17:36:02: O serviço está configurado para o horário de 19:17.
04/02/2019 17:37:02: O serviço está configurado para o horário de 19:17.
04/02/2019 17:38:02: O serviço está configurado para o horário de 19:17.
04/02/2019 17:39:02: O serviço está configurado para o horário de 19:17.
04/02/2019 17:40:02: O serviço está configurado para o horário de 19:17.
04/02/2019 17:41:02: O serviço está configurado para o horário de 19:17.
04/02/2019 17:42:02: O serviço está configurado para o horário de 19:17.
04/02/2019 17:43:02: O serviço está configurado para o horário de 19:17.
04/02/2019 17:44:02: O serviço está configurado para o horário de 19:17.
04/02/2019 17:45:02: O serviço está configurado para o horário de 19:17.
04/02/2019 17:46:02: O serviço está configurado para o horário de 19:17.
04/02/2019 17:47:02: O serviço está configurado para o horário de 19:17.
04/02/2019 17:48:02: O serviço está configurado para o horário de 19:17.
04/02/2019 17:49:02: O serviço está configurado para o horário de 19:17.
04/02/2019 17:50:02: O serviço está configurado para o horário de 19:17.
04/02/2019 17:51:02: O serviço está configurado para o horário de 19:17.
04/02/2019 17:52:02: O serviço está configurado para o horário de 19:17.
04/02/2019 17:53:02: O serviço está configurado para o horário de 19:17.
04/02/2019 17:54:02: O serviço está configurado para o horário de 19:17.
04/02/2019 17:55:02: O serviço está configurado para o horário de 19:17.
04/02/2019 17:56:02: O serviço está configurado para o horário de 19:17.
04/02/2019 17:57:02: O serviço está configurado para o horário de 19:17.
04/02/2019 17:58:02: O serviço está configurado para o horário de 19:17.
04/02/2019 17:59:02: O serviço está configurado para o horário de 19:17.
04/02/2019 18:00:03: O serviço está configurado para o horário de 19:17.
04/02/2019 18:01:03: O serviço está configurado para o horário de 19:17.
04/02/2019 18:02:03: O serviço está configurado para o horário de 19:17.
04/02/2019 18:03:03: O serviço está configurado para o horário de 19:17.
04/02/2019 18:04:03: O serviço está configurado para o horário de 19:17.
04/02/2019 18:05:03: O serviço está configurado para o horário de 19:17.
04/02/2019 18:06:03: O serviço está configurado para o horário de 19:17.
04/02/2019 18:07:03: O serviço está configurado para o horário de 19:17.
04/02/2019 18:08:03: O serviço está configurado para o horário de 19:17.
04/02/2019 18:09:03: O serviço está configurado para o horário de 19:17.
04/02/2019 18:10:03: O serviço está configurado para o horário de 19:17.
04/02/2019 18:11:03: O serviço está configurado para o horário de 19:17.
04/02/2019 18:12:03: O serviço está configurado para o horário de 19:17.
04/02/2019 18:13:03: O serviço está configurado para o horário de 19:17.
04/02/2019 18:14:03: O serviço está configurado para o horário de 19:17.
04/02/2019 18:15:03: O serviço está configurado para o horário de 19:17.
04/02/2019 18:16:03: O serviço está configurado para o horário de 19:17.
04/02/2019 18:17:03: O serviço está configurado para o horário de 19:17.
04/02/2019 18:18:03: O serviço está configurado para o horário de 19:17.
04/02/2019 18:19:03: O serviço está configurado para o horário de 19:17.
04/02/2019 18:20:03: O serviço está configurado para o horário de 19:17.
04/02/2019 18:21:03: O serviço está configurado para o horário de 19:17.
04/02/2019 18:22:03: O serviço está configurado para o horário de 19:17.
04/02/2019 18:23:03: O serviço está configurado para o horário de 19:17.
04/02/2019 18:24:03: O serviço está configurado para o horário de 19:17.
04/02/2019 18:25:03: O serviço está configurado para o horário de 19:17.
04/02/2019 18:26:03: O serviço está configurado para o horário de 19:17.
04/02/2019 18:27:03: O serviço está configurado para o horário de 19:17.
04/02/2019 18:28:03: O serviço está configurado para o horário de 19:17.
04/02/2019 18:29:03: O serviço está configurado para o horário de 19:17.
04/02/2019 18:30:03: O serviço está configurado para o horário de 19:17.
04/02/2019 18:31:03: O serviço está configurado para o horário de 19:17.
04/02/2019 18:32:03: O serviço está configurado para o horário de 19:17.
04/02/2019 18:33:03: O serviço está configurado para o horário de 19:17.
04/02/2019 18:34:03: O serviço está configurado para o horário de 19:17.
04/02/2019 18:35:03: O serviço está configurado para o horário de 19:17.
04/02/2019 18:36:03: O serviço está configurado para o horário de 19:17.
04/02/2019 18:37:03: O serviço está configurado para o horário de 19:17.
04/02/2019 18:38:03: O serviço está configurado para o horário de 19:17.
04/02/2019 18:39:03: O serviço está configurado para o horário de 19:17.
04/02/2019 18:40:03: O serviço está configurado para o horário de 19:17.
04/02/2019 18:41:03: O serviço está configurado para o horário de 19:17.
04/02/2019 18:42:03: O serviço está configurado para o horário de 19:17.
04/02/2019 18:43:03: O serviço está configurado para o horário de 19:17.
04/02/2019 18:44:03: O serviço está configurado para o horário de 19:17.
04/02/2019 18:45:03: O serviço está configurado para o horário de 19:17.
04/02/2019 18:46:03: O serviço está configurado para o horário de 19:17.
04/02/2019 18:47:03: O serviço está configurado para o horário de 19:17.
04/02/2019 18:48:03: O serviço está configurado para o horário de 19:17.
04/02/2019 18:49:03: O serviço está configurado para o horário de 19:17.
04/02/2019 18:50:03: O serviço está configurado para o horário de 19:17.
04/02/2019 18:51:03: O serviço está configurado para o horário de 19:17.
04/02/2019 18:52:03: O serviço está configurado para o horário de 19:17.
04/02/2019 18:53:03: O serviço está configurado para o horário de 19:17.
04/02/2019 18:54:03: O serviço está configurado para o horário de 19:17.
04/02/2019 18:55:03: O serviço está configurado para o horário de 19:17.
04/02/2019 18:56:03: O serviço está configurado para o horário de 19:17.
04/02/2019 18:57:03: O serviço está configurado para o horário de 19:17.
04/02/2019 18:58:03: O serviço está configurado para o horário de 19:17.
04/02/2019 18:59:03: O serviço está configurado para o horário de 19:17.
04/02/2019 19:00:03: O serviço está configurado para o horário de 19:17.
04/02/2019 19:01:03: O serviço está configurado para o horário de 19:17.
04/02/2019 19:02:03: O serviço está configurado para o horário de 19:17.
04/02/2019 19:03:03: O serviço está configurado para o horário de 19:17.
04/02/2019 19:04:03: O serviço está configurado para o horário de 19:17.
04/02/2019 19:05:03: O serviço está configurado para o horário de 19:17.
04/02/2019 19:06:03: O serviço está configurado para o horário de 19:17.
04/02/2019 19:07:03: O serviço está configurado para o horário de 19:17.
04/02/2019 19:08:03: O serviço está configurado para o horário de 19:17.
04/02/2019 19:09:03: O serviço está configurado para o horário de 19:17.
04/02/2019 19:10:03: O serviço está configurado para o horário de 19:17.
04/02/2019 19:11:03: O serviço está configurado para o horário de 19:17.
04/02/2019 19:12:03: O serviço está configurado para o horário de 19:17.
04/02/2019 19:13:03: O serviço está configurado para o horário de 19:17.
04/02/2019 19:14:04: O serviço está configurado para o horário de 19:17.
04/02/2019 19:15:04: O serviço está configurado para o horário de 19:17.
04/02/2019 19:16:04: O serviço está configurado para o horário de 19:17.
04/02/2019 19:17:04: O serviço está configurado para o horário de 19:17.
04/02/2019 19:17:04: Está na hora de buscar desenquadramentos no suitability.
04/02/2019 19:17:04: Procurando desenquadramentos...
04/02/2019 19:17:19: Error: Erro de rede ou específico à instância ao estabelecer conexão com o SQL Server. O servidor não foi encontrado ou não estava acessível. Verifique se o nome da instância está correto e se o SQL Server está configurado para permitir conexões remotas. (provider: TCP Provider, error: 0 - O tempo limite de espera foi atingido.) - System.Data.SqlClient.SqlException (0x80131904): Erro de rede ou específico à instância ao estabelecer conexão com o SQL Server. O servidor não foi encontrado ou não estava acessível. Verifique se o nome da instância está correto e se o SQL Server está configurado para permitir conexões remotas. (provider: TCP Provider, error: 0 - O tempo limite de espera foi atingido.) ---> System.ComponentModel.Win32Exception (0x80004005): O tempo limite de espera foi atingido
   em System.Data.SqlClient.SqlInternalConnectionTds..ctor(DbConnectionPoolIdentity identity, SqlConnectionString connectionOptions, SqlCredential credential, Object providerInfo, String newPassword, SecureString newSecurePassword, Boolean redirectedUserInstance, SqlConnectionString userConnectionOptions, SessionData reconnectSessionData, DbConnectionPool pool, String accessToken, Boolean applyTransientFaultHandling)
   em System.Data.SqlClient.SqlConnectionFactory.CreateConnection(DbConnectionOptions options, DbConnectionPoolKey poolKey, Object poolGroupProviderInfo, DbConnectionPool pool, DbConnection owningConnection, DbConnectionOptions userOptions)
   em System.Data.ProviderBase.DbConnectionFactory.CreatePooledConnection(DbConnectionPool pool, DbConnection owningObject, DbConnectionOptions options, DbConnectionPoolKey poolKey, DbConnectionOptions userOptions)
   em System.Data.ProviderBase.DbConnectionPool.CreateObject(DbConnection owningObject, DbConnectionOptions userOptions, DbConnectionInternal oldConnection)
   em System.Data.ProviderBase.DbConnectionPool.UserCreateRequest(DbConnection owningObject, DbConnectionOptions userOptions, DbConnectionInternal oldConnection)
   em System.Data.ProviderBase.DbConnectionPool.TryGetConnection(DbConnection owningObject, UInt32 waitForMultipleObjectsTimeout, Boolean allowCreate, Boolean onlyOneCheckConnection, DbConnectionOptions userOptions, DbConnectionInternal& connection)
   em System.Data.ProviderBase.DbConnectionPool.TryGetConnection(DbConnection owningObject, TaskCompletionSource`1 retry, DbConnectionOptions userOptions, DbConnectionInternal& connection)
   em System.Data.ProviderBase.DbConnectionFactory.TryGetConnection(DbConnection owningConnection, TaskCompletionSource`1 retry, DbConnectionOptions userOptions, DbConnectionInternal oldConnection, DbConnectionInternal& connection)
   em System.Data.ProviderBase.DbConnectionInternal.TryOpenConnectionInternal(DbConnection outerConnection, DbConnectionFactory connectionFactory, TaskCompletionSource`1 retry, DbConnectionOptions userOptions)
   em System.Data.ProviderBase.DbConnectionClosed.TryOpenConnection(DbConnection outerConnection, DbConnectionFactory connectionFactory, TaskCompletionSource`1 retry, DbConnectionOptions userOptions)
   em System.Data.SqlClient.SqlConnection.TryOpenInner(TaskCompletionSource`1 retry)
   em System.Data.SqlClient.SqlConnection.TryOpen(TaskCompletionSource`1 retry)
   em System.Data.SqlClient.SqlConnection.Open()
   em QX3.Portal.Services.Data.SuitabilityDAL.SelecionaClientesSuitability(Nullable`1 idClienteGlobal, Nullable`1 cpfcnpj, String cdCliente, String status, String investidor, String desenquadrado) na C:\GIT\brpartners\service\Data\Suitability\SuitabilityDAL.cs:linha 504
   em QX3.Portal.Services.Business.SuitabilityMethods.SelecionaClientesSuitability(Nullable`1 idClienteGlobal, Nullable`1 cpfcnpj, String cdCliente, String status, String investidor, String desenquadrado) na C:\GIT\brpartners\service\Business\Suitability\SuitabilityMethods.cs:linha 140
ClientConnectionId:00000000-0000-0000-0000-000000000000
Error Number:258,State:0,Class:20 -    em QX3.Portal.Services.Business.SuitabilityMethods.SelecionaClientesSuitability(Nullable`1 idClienteGlobal, Nullable`1 cpfcnpj, String cdCliente, String status, String investidor, String desenquadrado) na C:\GIT\brpartners\service\Business\Suitability\SuitabilityMethods.cs:linha 171
   em SuitabilityMismatch.SuitabilityMismatchService.GetClients() na C:\GIT\brpartners\solutions\BrPartners.Portal\SuitabilityMismatch\SuitabilityMismatchService.cs:linha 152
   em SuitabilityMismatch.SuitabilityMismatchService.Search() na C:\GIT\brpartners\solutions\BrPartners.Portal\SuitabilityMismatch\SuitabilityMismatchService.cs:linha 100
   em SuitabilityMismatch.SuitabilityMismatchService.Execute() na C:\GIT\brpartners\solutions\BrPartners.Portal\SuitabilityMismatch\SuitabilityMismatchService.cs:linha 65
04/02/2019 19:18:04: O serviço está configurado para o horário de 19:17.
04/02/2019 19:19:04: O serviço está configurado para o horário de 19:17.
04/02/2019 19:20:04: O serviço está configurado para o horário de 19:17.
