28/02/2019 00:00:55: O serviço está configurado para o horário de 19:17.
28/02/2019 00:01:55: O serviço está configurado para o horário de 19:17.
28/02/2019 00:02:55: O serviço está configurado para o horário de 19:17.
28/02/2019 00:03:55: O serviço está configurado para o horário de 19:17.
28/02/2019 00:04:55: O serviço está configurado para o horário de 19:17.
28/02/2019 00:05:55: O serviço está configurado para o horário de 19:17.
28/02/2019 00:06:55: O serviço está configurado para o horário de 19:17.
28/02/2019 00:07:55: O serviço está configurado para o horário de 19:17.
28/02/2019 00:08:55: O serviço está configurado para o horário de 19:17.
28/02/2019 00:09:55: O serviço está configurado para o horário de 19:17.
28/02/2019 00:10:55: O serviço está configurado para o horário de 19:17.
28/02/2019 00:11:55: O serviço está configurado para o horário de 19:17.
28/02/2019 00:12:55: O serviço está configurado para o horário de 19:17.
28/02/2019 00:13:55: O serviço está configurado para o horário de 19:17.
28/02/2019 00:14:55: O serviço está configurado para o horário de 19:17.
28/02/2019 00:15:55: O serviço está configurado para o horário de 19:17.
28/02/2019 00:16:55: O serviço está configurado para o horário de 19:17.
28/02/2019 00:17:55: O serviço está configurado para o horário de 19:17.
28/02/2019 00:18:55: O serviço está configurado para o horário de 19:17.
28/02/2019 00:19:55: O serviço está configurado para o horário de 19:17.
28/02/2019 00:20:55: O serviço está configurado para o horário de 19:17.
28/02/2019 00:21:55: O serviço está configurado para o horário de 19:17.
28/02/2019 00:22:55: O serviço está configurado para o horário de 19:17.
28/02/2019 00:23:56: O serviço está configurado para o horário de 19:17.
28/02/2019 00:24:56: O serviço está configurado para o horário de 19:17.
28/02/2019 00:25:56: O serviço está configurado para o horário de 19:17.
28/02/2019 00:26:56: O serviço está configurado para o horário de 19:17.
28/02/2019 00:27:56: O serviço está configurado para o horário de 19:17.
28/02/2019 00:28:56: O serviço está configurado para o horário de 19:17.
28/02/2019 00:29:56: O serviço está configurado para o horário de 19:17.
28/02/2019 00:30:56: O serviço está configurado para o horário de 19:17.
28/02/2019 00:31:56: O serviço está configurado para o horário de 19:17.
28/02/2019 00:32:56: O serviço está configurado para o horário de 19:17.
28/02/2019 00:33:56: O serviço está configurado para o horário de 19:17.
28/02/2019 00:34:56: O serviço está configurado para o horário de 19:17.
28/02/2019 00:35:56: O serviço está configurado para o horário de 19:17.
28/02/2019 00:36:56: O serviço está configurado para o horário de 19:17.
28/02/2019 00:37:56: O serviço está configurado para o horário de 19:17.
28/02/2019 00:38:56: O serviço está configurado para o horário de 19:17.
28/02/2019 00:39:56: O serviço está configurado para o horário de 19:17.
28/02/2019 00:40:56: O serviço está configurado para o horário de 19:17.
28/02/2019 00:41:56: O serviço está configurado para o horário de 19:17.
28/02/2019 00:42:56: O serviço está configurado para o horário de 19:17.
28/02/2019 00:43:56: O serviço está configurado para o horário de 19:17.
28/02/2019 00:44:56: O serviço está configurado para o horário de 19:17.
28/02/2019 00:45:56: O serviço está configurado para o horário de 19:17.
28/02/2019 00:46:56: O serviço está configurado para o horário de 19:17.
28/02/2019 00:47:56: O serviço está configurado para o horário de 19:17.
28/02/2019 00:48:56: O serviço está configurado para o horário de 19:17.
28/02/2019 00:49:56: O serviço está configurado para o horário de 19:17.
28/02/2019 00:50:56: O serviço está configurado para o horário de 19:17.
28/02/2019 00:51:56: O serviço está configurado para o horário de 19:17.
28/02/2019 00:52:56: O serviço está configurado para o horário de 19:17.
28/02/2019 00:53:56: O serviço está configurado para o horário de 19:17.
28/02/2019 00:54:56: O serviço está configurado para o horário de 19:17.
28/02/2019 00:55:56: O serviço está configurado para o horário de 19:17.
28/02/2019 00:56:56: O serviço está configurado para o horário de 19:17.
28/02/2019 00:57:56: O serviço está configurado para o horário de 19:17.
28/02/2019 00:58:56: O serviço está configurado para o horário de 19:17.
28/02/2019 00:59:56: O serviço está configurado para o horário de 19:17.
28/02/2019 01:00:56: O serviço está configurado para o horário de 19:17.
28/02/2019 01:01:56: O serviço está configurado para o horário de 19:17.
28/02/2019 01:02:56: O serviço está configurado para o horário de 19:17.
28/02/2019 01:03:56: O serviço está configurado para o horário de 19:17.
28/02/2019 01:04:56: O serviço está configurado para o horário de 19:17.
28/02/2019 01:05:56: O serviço está configurado para o horário de 19:17.
28/02/2019 01:06:56: O serviço está configurado para o horário de 19:17.
28/02/2019 01:07:56: O serviço está configurado para o horário de 19:17.
28/02/2019 01:08:56: O serviço está configurado para o horário de 19:17.
28/02/2019 01:09:56: O serviço está configurado para o horário de 19:17.
28/02/2019 01:10:56: O serviço está configurado para o horário de 19:17.
28/02/2019 01:11:56: O serviço está configurado para o horário de 19:17.
28/02/2019 01:12:56: O serviço está configurado para o horário de 19:17.
28/02/2019 01:13:56: O serviço está configurado para o horário de 19:17.
28/02/2019 01:14:56: O serviço está configurado para o horário de 19:17.
28/02/2019 01:15:56: O serviço está configurado para o horário de 19:17.
28/02/2019 01:16:56: O serviço está configurado para o horário de 19:17.
28/02/2019 01:17:56: O serviço está configurado para o horário de 19:17.
28/02/2019 01:18:56: O serviço está configurado para o horário de 19:17.
28/02/2019 01:19:56: O serviço está configurado para o horário de 19:17.
28/02/2019 01:20:56: O serviço está configurado para o horário de 19:17.
28/02/2019 01:21:56: O serviço está configurado para o horário de 19:17.
28/02/2019 01:22:56: O serviço está configurado para o horário de 19:17.
28/02/2019 01:23:56: O serviço está configurado para o horário de 19:17.
28/02/2019 01:24:56: O serviço está configurado para o horário de 19:17.
28/02/2019 01:25:56: O serviço está configurado para o horário de 19:17.
28/02/2019 01:26:56: O serviço está configurado para o horário de 19:17.
28/02/2019 01:27:56: O serviço está configurado para o horário de 19:17.
28/02/2019 01:28:56: O serviço está configurado para o horário de 19:17.
28/02/2019 01:29:56: O serviço está configurado para o horário de 19:17.
28/02/2019 01:30:56: O serviço está configurado para o horário de 19:17.
28/02/2019 01:31:56: O serviço está configurado para o horário de 19:17.
28/02/2019 01:32:56: O serviço está configurado para o horário de 19:17.
28/02/2019 01:33:56: O serviço está configurado para o horário de 19:17.
28/02/2019 01:34:56: O serviço está configurado para o horário de 19:17.
28/02/2019 01:35:56: O serviço está configurado para o horário de 19:17.
28/02/2019 01:36:57: O serviço está configurado para o horário de 19:17.
28/02/2019 01:37:57: O serviço está configurado para o horário de 19:17.
28/02/2019 01:38:57: O serviço está configurado para o horário de 19:17.
28/02/2019 01:39:57: O serviço está configurado para o horário de 19:17.
28/02/2019 01:40:57: O serviço está configurado para o horário de 19:17.
28/02/2019 01:41:57: O serviço está configurado para o horário de 19:17.
28/02/2019 01:42:57: O serviço está configurado para o horário de 19:17.
28/02/2019 01:43:57: O serviço está configurado para o horário de 19:17.
28/02/2019 01:44:57: O serviço está configurado para o horário de 19:17.
28/02/2019 01:45:57: O serviço está configurado para o horário de 19:17.
28/02/2019 01:46:57: O serviço está configurado para o horário de 19:17.
28/02/2019 01:47:57: O serviço está configurado para o horário de 19:17.
28/02/2019 01:48:57: O serviço está configurado para o horário de 19:17.
28/02/2019 01:49:57: O serviço está configurado para o horário de 19:17.
28/02/2019 01:50:57: O serviço está configurado para o horário de 19:17.
28/02/2019 01:51:57: O serviço está configurado para o horário de 19:17.
28/02/2019 01:52:57: O serviço está configurado para o horário de 19:17.
28/02/2019 01:53:57: O serviço está configurado para o horário de 19:17.
28/02/2019 01:54:57: O serviço está configurado para o horário de 19:17.
28/02/2019 01:55:57: O serviço está configurado para o horário de 19:17.
28/02/2019 01:56:57: O serviço está configurado para o horário de 19:17.
28/02/2019 01:57:57: O serviço está configurado para o horário de 19:17.
28/02/2019 01:58:57: O serviço está configurado para o horário de 19:17.
28/02/2019 01:59:57: O serviço está configurado para o horário de 19:17.
28/02/2019 02:00:57: O serviço está configurado para o horário de 19:17.
28/02/2019 02:01:57: O serviço está configurado para o horário de 19:17.
28/02/2019 02:02:57: O serviço está configurado para o horário de 19:17.
28/02/2019 02:03:57: O serviço está configurado para o horário de 19:17.
28/02/2019 02:04:57: O serviço está configurado para o horário de 19:17.
28/02/2019 02:05:57: O serviço está configurado para o horário de 19:17.
28/02/2019 02:06:57: O serviço está configurado para o horário de 19:17.
28/02/2019 02:07:57: O serviço está configurado para o horário de 19:17.
28/02/2019 02:08:57: O serviço está configurado para o horário de 19:17.
28/02/2019 02:09:57: O serviço está configurado para o horário de 19:17.
28/02/2019 02:10:57: O serviço está configurado para o horário de 19:17.
28/02/2019 02:11:57: O serviço está configurado para o horário de 19:17.
28/02/2019 02:12:57: O serviço está configurado para o horário de 19:17.
28/02/2019 02:13:57: O serviço está configurado para o horário de 19:17.
28/02/2019 02:14:57: O serviço está configurado para o horário de 19:17.
28/02/2019 02:15:57: O serviço está configurado para o horário de 19:17.
28/02/2019 02:16:57: O serviço está configurado para o horário de 19:17.
28/02/2019 02:17:57: O serviço está configurado para o horário de 19:17.
28/02/2019 02:18:57: O serviço está configurado para o horário de 19:17.
28/02/2019 02:19:57: O serviço está configurado para o horário de 19:17.
28/02/2019 02:20:57: O serviço está configurado para o horário de 19:17.
28/02/2019 02:21:57: O serviço está configurado para o horário de 19:17.
28/02/2019 02:22:57: O serviço está configurado para o horário de 19:17.
28/02/2019 02:23:57: O serviço está configurado para o horário de 19:17.
28/02/2019 02:24:57: O serviço está configurado para o horário de 19:17.
28/02/2019 02:25:57: O serviço está configurado para o horário de 19:17.
28/02/2019 02:26:57: O serviço está configurado para o horário de 19:17.
28/02/2019 02:27:57: O serviço está configurado para o horário de 19:17.
28/02/2019 02:28:57: O serviço está configurado para o horário de 19:17.
28/02/2019 02:29:57: O serviço está configurado para o horário de 19:17.
28/02/2019 02:30:57: O serviço está configurado para o horário de 19:17.
28/02/2019 02:31:57: O serviço está configurado para o horário de 19:17.
28/02/2019 02:32:57: O serviço está configurado para o horário de 19:17.
28/02/2019 02:33:57: O serviço está configurado para o horário de 19:17.
28/02/2019 02:34:57: O serviço está configurado para o horário de 19:17.
28/02/2019 02:35:57: O serviço está configurado para o horário de 19:17.
28/02/2019 02:36:57: O serviço está configurado para o horário de 19:17.
28/02/2019 02:37:57: O serviço está configurado para o horário de 19:17.
28/02/2019 02:38:57: O serviço está configurado para o horário de 19:17.
28/02/2019 02:39:57: O serviço está configurado para o horário de 19:17.
28/02/2019 02:40:57: O serviço está configurado para o horário de 19:17.
28/02/2019 02:41:57: O serviço está configurado para o horário de 19:17.
28/02/2019 02:42:57: O serviço está configurado para o horário de 19:17.
28/02/2019 02:43:57: O serviço está configurado para o horário de 19:17.
28/02/2019 02:44:57: O serviço está configurado para o horário de 19:17.
28/02/2019 02:45:57: O serviço está configurado para o horário de 19:17.
28/02/2019 02:46:57: O serviço está configurado para o horário de 19:17.
28/02/2019 02:47:57: O serviço está configurado para o horário de 19:17.
28/02/2019 02:48:57: O serviço está configurado para o horário de 19:17.
28/02/2019 02:49:57: O serviço está configurado para o horário de 19:17.
28/02/2019 02:50:58: O serviço está configurado para o horário de 19:17.
28/02/2019 02:51:58: O serviço está configurado para o horário de 19:17.
28/02/2019 02:52:58: O serviço está configurado para o horário de 19:17.
28/02/2019 02:53:58: O serviço está configurado para o horário de 19:17.
28/02/2019 02:54:58: O serviço está configurado para o horário de 19:17.
28/02/2019 02:55:58: O serviço está configurado para o horário de 19:17.
28/02/2019 02:56:58: O serviço está configurado para o horário de 19:17.
28/02/2019 02:57:58: O serviço está configurado para o horário de 19:17.
28/02/2019 02:58:58: O serviço está configurado para o horário de 19:17.
28/02/2019 02:59:58: O serviço está configurado para o horário de 19:17.
28/02/2019 03:00:58: O serviço está configurado para o horário de 19:17.
28/02/2019 03:01:58: O serviço está configurado para o horário de 19:17.
28/02/2019 03:02:58: O serviço está configurado para o horário de 19:17.
28/02/2019 03:03:58: O serviço está configurado para o horário de 19:17.
28/02/2019 03:04:58: O serviço está configurado para o horário de 19:17.
28/02/2019 03:05:58: O serviço está configurado para o horário de 19:17.
28/02/2019 03:06:58: O serviço está configurado para o horário de 19:17.
28/02/2019 03:07:58: O serviço está configurado para o horário de 19:17.
28/02/2019 03:08:58: O serviço está configurado para o horário de 19:17.
28/02/2019 03:09:58: O serviço está configurado para o horário de 19:17.
28/02/2019 03:10:58: O serviço está configurado para o horário de 19:17.
28/02/2019 03:11:58: O serviço está configurado para o horário de 19:17.
28/02/2019 03:12:58: O serviço está configurado para o horário de 19:17.
28/02/2019 03:13:58: O serviço está configurado para o horário de 19:17.
28/02/2019 03:14:58: O serviço está configurado para o horário de 19:17.
28/02/2019 03:15:58: O serviço está configurado para o horário de 19:17.
28/02/2019 03:16:58: O serviço está configurado para o horário de 19:17.
28/02/2019 03:17:58: O serviço está configurado para o horário de 19:17.
28/02/2019 03:18:58: O serviço está configurado para o horário de 19:17.
28/02/2019 03:19:58: O serviço está configurado para o horário de 19:17.
28/02/2019 03:20:58: O serviço está configurado para o horário de 19:17.
28/02/2019 03:21:58: O serviço está configurado para o horário de 19:17.
28/02/2019 03:22:58: O serviço está configurado para o horário de 19:17.
28/02/2019 03:23:58: O serviço está configurado para o horário de 19:17.
28/02/2019 03:24:58: O serviço está configurado para o horário de 19:17.
28/02/2019 03:25:58: O serviço está configurado para o horário de 19:17.
28/02/2019 03:26:58: O serviço está configurado para o horário de 19:17.
28/02/2019 03:27:58: O serviço está configurado para o horário de 19:17.
28/02/2019 03:28:58: O serviço está configurado para o horário de 19:17.
28/02/2019 03:29:58: O serviço está configurado para o horário de 19:17.
28/02/2019 03:30:58: O serviço está configurado para o horário de 19:17.
28/02/2019 03:31:58: O serviço está configurado para o horário de 19:17.
28/02/2019 03:32:58: O serviço está configurado para o horário de 19:17.
28/02/2019 03:33:58: O serviço está configurado para o horário de 19:17.
28/02/2019 03:34:58: O serviço está configurado para o horário de 19:17.
28/02/2019 03:35:58: O serviço está configurado para o horário de 19:17.
28/02/2019 03:36:58: O serviço está configurado para o horário de 19:17.
28/02/2019 03:37:58: O serviço está configurado para o horário de 19:17.
28/02/2019 03:38:58: O serviço está configurado para o horário de 19:17.
28/02/2019 03:39:58: O serviço está configurado para o horário de 19:17.
28/02/2019 03:40:58: O serviço está configurado para o horário de 19:17.
28/02/2019 03:41:58: O serviço está configurado para o horário de 19:17.
28/02/2019 03:42:58: O serviço está configurado para o horário de 19:17.
28/02/2019 03:43:58: O serviço está configurado para o horário de 19:17.
28/02/2019 03:44:58: O serviço está configurado para o horário de 19:17.
28/02/2019 03:45:58: O serviço está configurado para o horário de 19:17.
28/02/2019 03:46:58: O serviço está configurado para o horário de 19:17.
28/02/2019 03:47:58: O serviço está configurado para o horário de 19:17.
28/02/2019 03:48:58: O serviço está configurado para o horário de 19:17.
28/02/2019 03:49:58: O serviço está configurado para o horário de 19:17.
28/02/2019 03:50:58: O serviço está configurado para o horário de 19:17.
28/02/2019 03:51:58: O serviço está configurado para o horário de 19:17.
28/02/2019 03:52:58: O serviço está configurado para o horário de 19:17.
28/02/2019 03:53:58: O serviço está configurado para o horário de 19:17.
28/02/2019 03:54:58: O serviço está configurado para o horário de 19:17.
28/02/2019 03:55:58: O serviço está configurado para o horário de 19:17.
28/02/2019 03:56:58: O serviço está configurado para o horário de 19:17.
28/02/2019 03:57:58: O serviço está configurado para o horário de 19:17.
28/02/2019 03:58:58: O serviço está configurado para o horário de 19:17.
28/02/2019 03:59:58: O serviço está configurado para o horário de 19:17.
28/02/2019 04:00:58: O serviço está configurado para o horário de 19:17.
28/02/2019 04:01:58: O serviço está configurado para o horário de 19:17.
28/02/2019 04:02:58: O serviço está configurado para o horário de 19:17.
28/02/2019 04:03:58: O serviço está configurado para o horário de 19:17.
28/02/2019 04:04:59: O serviço está configurado para o horário de 19:17.
28/02/2019 04:05:59: O serviço está configurado para o horário de 19:17.
28/02/2019 04:06:59: O serviço está configurado para o horário de 19:17.
28/02/2019 04:07:59: O serviço está configurado para o horário de 19:17.
28/02/2019 04:08:59: O serviço está configurado para o horário de 19:17.
28/02/2019 04:09:59: O serviço está configurado para o horário de 19:17.
28/02/2019 04:10:59: O serviço está configurado para o horário de 19:17.
28/02/2019 04:11:59: O serviço está configurado para o horário de 19:17.
28/02/2019 04:12:59: O serviço está configurado para o horário de 19:17.
28/02/2019 04:13:59: O serviço está configurado para o horário de 19:17.
28/02/2019 04:14:59: O serviço está configurado para o horário de 19:17.
28/02/2019 04:15:59: O serviço está configurado para o horário de 19:17.
28/02/2019 04:16:59: O serviço está configurado para o horário de 19:17.
28/02/2019 04:17:59: O serviço está configurado para o horário de 19:17.
28/02/2019 04:18:59: O serviço está configurado para o horário de 19:17.
28/02/2019 04:19:59: O serviço está configurado para o horário de 19:17.
28/02/2019 04:20:59: O serviço está configurado para o horário de 19:17.
28/02/2019 04:21:59: O serviço está configurado para o horário de 19:17.
28/02/2019 04:22:59: O serviço está configurado para o horário de 19:17.
28/02/2019 04:23:59: O serviço está configurado para o horário de 19:17.
28/02/2019 04:24:59: O serviço está configurado para o horário de 19:17.
28/02/2019 04:25:59: O serviço está configurado para o horário de 19:17.
28/02/2019 04:26:59: O serviço está configurado para o horário de 19:17.
28/02/2019 04:27:59: O serviço está configurado para o horário de 19:17.
28/02/2019 04:28:59: O serviço está configurado para o horário de 19:17.
28/02/2019 04:29:59: O serviço está configurado para o horário de 19:17.
28/02/2019 04:30:59: O serviço está configurado para o horário de 19:17.
28/02/2019 04:31:59: O serviço está configurado para o horário de 19:17.
28/02/2019 04:32:59: O serviço está configurado para o horário de 19:17.
28/02/2019 04:33:59: O serviço está configurado para o horário de 19:17.
28/02/2019 04:34:59: O serviço está configurado para o horário de 19:17.
28/02/2019 04:35:59: O serviço está configurado para o horário de 19:17.
28/02/2019 04:36:59: O serviço está configurado para o horário de 19:17.
28/02/2019 04:37:59: O serviço está configurado para o horário de 19:17.
28/02/2019 04:38:59: O serviço está configurado para o horário de 19:17.
28/02/2019 04:39:59: O serviço está configurado para o horário de 19:17.
28/02/2019 04:40:59: O serviço está configurado para o horário de 19:17.
28/02/2019 04:41:59: O serviço está configurado para o horário de 19:17.
28/02/2019 04:42:59: O serviço está configurado para o horário de 19:17.
28/02/2019 04:43:59: O serviço está configurado para o horário de 19:17.
28/02/2019 04:44:59: O serviço está configurado para o horário de 19:17.
28/02/2019 04:45:59: O serviço está configurado para o horário de 19:17.
28/02/2019 04:46:59: O serviço está configurado para o horário de 19:17.
28/02/2019 04:47:59: O serviço está configurado para o horário de 19:17.
28/02/2019 04:48:59: O serviço está configurado para o horário de 19:17.
28/02/2019 04:49:59: O serviço está configurado para o horário de 19:17.
28/02/2019 04:50:59: O serviço está configurado para o horário de 19:17.
28/02/2019 04:51:59: O serviço está configurado para o horário de 19:17.
28/02/2019 04:52:59: O serviço está configurado para o horário de 19:17.
28/02/2019 04:53:59: O serviço está configurado para o horário de 19:17.
28/02/2019 04:54:59: O serviço está configurado para o horário de 19:17.
28/02/2019 04:55:59: O serviço está configurado para o horário de 19:17.
28/02/2019 04:56:59: O serviço está configurado para o horário de 19:17.
28/02/2019 04:57:59: O serviço está configurado para o horário de 19:17.
28/02/2019 04:58:59: O serviço está configurado para o horário de 19:17.
28/02/2019 04:59:59: O serviço está configurado para o horário de 19:17.
28/02/2019 05:00:59: O serviço está configurado para o horário de 19:17.
28/02/2019 05:01:59: O serviço está configurado para o horário de 19:17.
28/02/2019 05:02:59: O serviço está configurado para o horário de 19:17.
28/02/2019 05:03:59: O serviço está configurado para o horário de 19:17.
28/02/2019 05:04:59: O serviço está configurado para o horário de 19:17.
28/02/2019 05:05:59: O serviço está configurado para o horário de 19:17.
28/02/2019 05:06:59: O serviço está configurado para o horário de 19:17.
28/02/2019 05:07:59: O serviço está configurado para o horário de 19:17.
28/02/2019 05:08:59: O serviço está configurado para o horário de 19:17.
28/02/2019 05:09:59: O serviço está configurado para o horário de 19:17.
28/02/2019 05:10:59: O serviço está configurado para o horário de 19:17.
28/02/2019 05:11:59: O serviço está configurado para o horário de 19:17.
28/02/2019 05:12:59: O serviço está configurado para o horário de 19:17.
28/02/2019 05:13:59: O serviço está configurado para o horário de 19:17.
28/02/2019 05:14:59: O serviço está configurado para o horário de 19:17.
28/02/2019 05:15:59: O serviço está configurado para o horário de 19:17.
28/02/2019 05:16:59: O serviço está configurado para o horário de 19:17.
28/02/2019 05:18:00: O serviço está configurado para o horário de 19:17.
28/02/2019 05:19:00: O serviço está configurado para o horário de 19:17.
28/02/2019 05:20:00: O serviço está configurado para o horário de 19:17.
28/02/2019 05:21:00: O serviço está configurado para o horário de 19:17.
28/02/2019 05:22:00: O serviço está configurado para o horário de 19:17.
28/02/2019 05:23:00: O serviço está configurado para o horário de 19:17.
28/02/2019 05:24:00: O serviço está configurado para o horário de 19:17.
28/02/2019 05:25:00: O serviço está configurado para o horário de 19:17.
28/02/2019 05:26:00: O serviço está configurado para o horário de 19:17.
28/02/2019 05:27:00: O serviço está configurado para o horário de 19:17.
28/02/2019 05:28:00: O serviço está configurado para o horário de 19:17.
28/02/2019 05:29:00: O serviço está configurado para o horário de 19:17.
28/02/2019 05:30:00: O serviço está configurado para o horário de 19:17.
28/02/2019 05:31:00: O serviço está configurado para o horário de 19:17.
28/02/2019 05:32:00: O serviço está configurado para o horário de 19:17.
28/02/2019 05:33:00: O serviço está configurado para o horário de 19:17.
28/02/2019 05:34:00: O serviço está configurado para o horário de 19:17.
28/02/2019 05:35:00: O serviço está configurado para o horário de 19:17.
28/02/2019 05:36:00: O serviço está configurado para o horário de 19:17.
28/02/2019 05:37:00: O serviço está configurado para o horário de 19:17.
28/02/2019 05:38:00: O serviço está configurado para o horário de 19:17.
28/02/2019 05:39:00: O serviço está configurado para o horário de 19:17.
28/02/2019 05:40:00: O serviço está configurado para o horário de 19:17.
28/02/2019 05:41:00: O serviço está configurado para o horário de 19:17.
28/02/2019 05:42:00: O serviço está configurado para o horário de 19:17.
28/02/2019 05:43:00: O serviço está configurado para o horário de 19:17.
28/02/2019 05:44:00: O serviço está configurado para o horário de 19:17.
28/02/2019 05:45:00: O serviço está configurado para o horário de 19:17.
28/02/2019 05:46:00: O serviço está configurado para o horário de 19:17.
28/02/2019 05:47:00: O serviço está configurado para o horário de 19:17.
28/02/2019 05:48:00: O serviço está configurado para o horário de 19:17.
28/02/2019 05:49:00: O serviço está configurado para o horário de 19:17.
28/02/2019 05:50:00: O serviço está configurado para o horário de 19:17.
28/02/2019 05:51:00: O serviço está configurado para o horário de 19:17.
28/02/2019 05:52:00: O serviço está configurado para o horário de 19:17.
28/02/2019 05:53:00: O serviço está configurado para o horário de 19:17.
28/02/2019 05:54:00: O serviço está configurado para o horário de 19:17.
28/02/2019 05:55:00: O serviço está configurado para o horário de 19:17.
28/02/2019 05:56:00: O serviço está configurado para o horário de 19:17.
28/02/2019 05:57:00: O serviço está configurado para o horário de 19:17.
28/02/2019 05:58:00: O serviço está configurado para o horário de 19:17.
28/02/2019 05:59:00: O serviço está configurado para o horário de 19:17.
28/02/2019 06:00:00: O serviço está configurado para o horário de 19:17.
28/02/2019 06:01:00: O serviço está configurado para o horário de 19:17.
28/02/2019 06:02:00: O serviço está configurado para o horário de 19:17.
28/02/2019 06:03:00: O serviço está configurado para o horário de 19:17.
28/02/2019 06:04:00: O serviço está configurado para o horário de 19:17.
28/02/2019 06:05:00: O serviço está configurado para o horário de 19:17.
28/02/2019 06:06:00: O serviço está configurado para o horário de 19:17.
28/02/2019 06:07:00: O serviço está configurado para o horário de 19:17.
28/02/2019 06:08:00: O serviço está configurado para o horário de 19:17.
28/02/2019 06:09:00: O serviço está configurado para o horário de 19:17.
28/02/2019 06:10:00: O serviço está configurado para o horário de 19:17.
28/02/2019 06:11:00: O serviço está configurado para o horário de 19:17.
28/02/2019 06:12:00: O serviço está configurado para o horário de 19:17.
28/02/2019 06:13:00: O serviço está configurado para o horário de 19:17.
28/02/2019 06:14:00: O serviço está configurado para o horário de 19:17.
28/02/2019 06:15:00: O serviço está configurado para o horário de 19:17.
28/02/2019 06:16:00: O serviço está configurado para o horário de 19:17.
28/02/2019 06:17:00: O serviço está configurado para o horário de 19:17.
28/02/2019 06:18:00: O serviço está configurado para o horário de 19:17.
28/02/2019 06:19:00: O serviço está configurado para o horário de 19:17.
28/02/2019 06:20:00: O serviço está configurado para o horário de 19:17.
28/02/2019 06:21:00: O serviço está configurado para o horário de 19:17.
28/02/2019 06:22:00: O serviço está configurado para o horário de 19:17.
28/02/2019 06:23:00: O serviço está configurado para o horário de 19:17.
28/02/2019 06:24:00: O serviço está configurado para o horário de 19:17.
28/02/2019 06:25:00: O serviço está configurado para o horário de 19:17.
28/02/2019 06:26:00: O serviço está configurado para o horário de 19:17.
28/02/2019 06:27:00: O serviço está configurado para o horário de 19:17.
28/02/2019 06:28:00: O serviço está configurado para o horário de 19:17.
28/02/2019 06:29:00: O serviço está configurado para o horário de 19:17.
28/02/2019 06:30:00: O serviço está configurado para o horário de 19:17.
28/02/2019 06:31:00: O serviço está configurado para o horário de 19:17.
28/02/2019 06:32:01: O serviço está configurado para o horário de 19:17.
28/02/2019 06:33:01: O serviço está configurado para o horário de 19:17.
28/02/2019 06:34:01: O serviço está configurado para o horário de 19:17.
28/02/2019 06:35:01: O serviço está configurado para o horário de 19:17.
28/02/2019 06:36:01: O serviço está configurado para o horário de 19:17.
28/02/2019 06:37:01: O serviço está configurado para o horário de 19:17.
28/02/2019 06:38:01: O serviço está configurado para o horário de 19:17.
28/02/2019 06:39:01: O serviço está configurado para o horário de 19:17.
28/02/2019 06:40:01: O serviço está configurado para o horário de 19:17.
28/02/2019 06:41:01: O serviço está configurado para o horário de 19:17.
28/02/2019 06:42:01: O serviço está configurado para o horário de 19:17.
28/02/2019 06:43:01: O serviço está configurado para o horário de 19:17.
28/02/2019 06:44:01: O serviço está configurado para o horário de 19:17.
28/02/2019 06:45:01: O serviço está configurado para o horário de 19:17.
28/02/2019 06:46:01: O serviço está configurado para o horário de 19:17.
28/02/2019 06:47:01: O serviço está configurado para o horário de 19:17.
28/02/2019 06:48:01: O serviço está configurado para o horário de 19:17.
28/02/2019 06:49:01: O serviço está configurado para o horário de 19:17.
28/02/2019 06:50:01: O serviço está configurado para o horário de 19:17.
28/02/2019 06:51:01: O serviço está configurado para o horário de 19:17.
28/02/2019 06:52:01: O serviço está configurado para o horário de 19:17.
28/02/2019 06:53:01: O serviço está configurado para o horário de 19:17.
28/02/2019 06:54:01: O serviço está configurado para o horário de 19:17.
28/02/2019 06:55:01: O serviço está configurado para o horário de 19:17.
28/02/2019 06:56:01: O serviço está configurado para o horário de 19:17.
28/02/2019 06:57:01: O serviço está configurado para o horário de 19:17.
28/02/2019 06:58:01: O serviço está configurado para o horário de 19:17.
28/02/2019 06:59:01: O serviço está configurado para o horário de 19:17.
28/02/2019 07:00:01: O serviço está configurado para o horário de 19:17.
28/02/2019 07:01:01: O serviço está configurado para o horário de 19:17.
28/02/2019 07:02:01: O serviço está configurado para o horário de 19:17.
28/02/2019 07:03:01: O serviço está configurado para o horário de 19:17.
28/02/2019 07:04:01: O serviço está configurado para o horário de 19:17.
28/02/2019 07:05:01: O serviço está configurado para o horário de 19:17.
28/02/2019 07:06:01: O serviço está configurado para o horário de 19:17.
28/02/2019 07:07:01: O serviço está configurado para o horário de 19:17.
28/02/2019 07:08:01: O serviço está configurado para o horário de 19:17.
28/02/2019 07:09:01: O serviço está configurado para o horário de 19:17.
28/02/2019 07:10:01: O serviço está configurado para o horário de 19:17.
28/02/2019 07:11:01: O serviço está configurado para o horário de 19:17.
28/02/2019 07:12:01: O serviço está configurado para o horário de 19:17.
28/02/2019 07:13:01: O serviço está configurado para o horário de 19:17.
28/02/2019 07:14:01: O serviço está configurado para o horário de 19:17.
28/02/2019 07:15:01: O serviço está configurado para o horário de 19:17.
28/02/2019 07:16:01: O serviço está configurado para o horário de 19:17.
28/02/2019 07:17:01: O serviço está configurado para o horário de 19:17.
28/02/2019 07:18:01: O serviço está configurado para o horário de 19:17.
28/02/2019 07:19:01: O serviço está configurado para o horário de 19:17.
28/02/2019 07:20:01: O serviço está configurado para o horário de 19:17.
28/02/2019 07:21:01: O serviço está configurado para o horário de 19:17.
28/02/2019 07:22:01: O serviço está configurado para o horário de 19:17.
28/02/2019 07:23:01: O serviço está configurado para o horário de 19:17.
28/02/2019 07:24:01: O serviço está configurado para o horário de 19:17.
28/02/2019 07:25:01: O serviço está configurado para o horário de 19:17.
28/02/2019 07:26:01: O serviço está configurado para o horário de 19:17.
28/02/2019 07:27:01: O serviço está configurado para o horário de 19:17.
28/02/2019 07:28:01: O serviço está configurado para o horário de 19:17.
28/02/2019 07:29:01: O serviço está configurado para o horário de 19:17.
28/02/2019 07:30:01: O serviço está configurado para o horário de 19:17.
28/02/2019 07:31:01: O serviço está configurado para o horário de 19:17.
28/02/2019 07:32:01: O serviço está configurado para o horário de 19:17.
28/02/2019 07:33:01: O serviço está configurado para o horário de 19:17.
28/02/2019 07:34:01: O serviço está configurado para o horário de 19:17.
28/02/2019 07:35:01: O serviço está configurado para o horário de 19:17.
28/02/2019 07:36:01: O serviço está configurado para o horário de 19:17.
28/02/2019 07:37:01: O serviço está configurado para o horário de 19:17.
28/02/2019 07:38:01: O serviço está configurado para o horário de 19:17.
28/02/2019 07:39:01: O serviço está configurado para o horário de 19:17.
28/02/2019 07:40:01: O serviço está configurado para o horário de 19:17.
28/02/2019 07:41:01: O serviço está configurado para o horário de 19:17.
28/02/2019 07:42:01: O serviço está configurado para o horário de 19:17.
28/02/2019 07:43:01: O serviço está configurado para o horário de 19:17.
28/02/2019 07:44:01: O serviço está configurado para o horário de 19:17.
28/02/2019 07:45:02: O serviço está configurado para o horário de 19:17.
28/02/2019 07:46:02: O serviço está configurado para o horário de 19:17.
28/02/2019 07:47:02: O serviço está configurado para o horário de 19:17.
28/02/2019 07:48:02: O serviço está configurado para o horário de 19:17.
28/02/2019 07:49:02: O serviço está configurado para o horário de 19:17.
28/02/2019 07:50:02: O serviço está configurado para o horário de 19:17.
28/02/2019 07:51:02: O serviço está configurado para o horário de 19:17.
28/02/2019 07:52:02: O serviço está configurado para o horário de 19:17.
28/02/2019 07:53:02: O serviço está configurado para o horário de 19:17.
28/02/2019 07:54:02: O serviço está configurado para o horário de 19:17.
28/02/2019 07:55:02: O serviço está configurado para o horário de 19:17.
28/02/2019 07:56:02: O serviço está configurado para o horário de 19:17.
28/02/2019 07:57:02: O serviço está configurado para o horário de 19:17.
28/02/2019 07:58:02: O serviço está configurado para o horário de 19:17.
28/02/2019 07:59:02: O serviço está configurado para o horário de 19:17.
28/02/2019 08:00:02: O serviço está configurado para o horário de 19:17.
28/02/2019 08:01:02: O serviço está configurado para o horário de 19:17.
28/02/2019 08:02:02: O serviço está configurado para o horário de 19:17.
28/02/2019 08:03:02: O serviço está configurado para o horário de 19:17.
28/02/2019 08:04:02: O serviço está configurado para o horário de 19:17.
28/02/2019 08:05:02: O serviço está configurado para o horário de 19:17.
28/02/2019 08:06:02: O serviço está configurado para o horário de 19:17.
28/02/2019 08:07:02: O serviço está configurado para o horário de 19:17.
28/02/2019 08:08:02: O serviço está configurado para o horário de 19:17.
28/02/2019 08:09:02: O serviço está configurado para o horário de 19:17.
28/02/2019 08:10:02: O serviço está configurado para o horário de 19:17.
28/02/2019 08:11:02: O serviço está configurado para o horário de 19:17.
28/02/2019 08:12:02: O serviço está configurado para o horário de 19:17.
28/02/2019 08:13:02: O serviço está configurado para o horário de 19:17.
28/02/2019 08:14:02: O serviço está configurado para o horário de 19:17.
28/02/2019 08:15:02: O serviço está configurado para o horário de 19:17.
28/02/2019 08:16:02: O serviço está configurado para o horário de 19:17.
28/02/2019 08:17:02: O serviço está configurado para o horário de 19:17.
28/02/2019 08:18:02: O serviço está configurado para o horário de 19:17.
28/02/2019 08:19:02: O serviço está configurado para o horário de 19:17.
28/02/2019 08:20:02: O serviço está configurado para o horário de 19:17.
28/02/2019 08:21:02: O serviço está configurado para o horário de 19:17.
28/02/2019 08:22:02: O serviço está configurado para o horário de 19:17.
28/02/2019 08:23:02: O serviço está configurado para o horário de 19:17.
28/02/2019 08:24:02: O serviço está configurado para o horário de 19:17.
28/02/2019 08:25:02: O serviço está configurado para o horário de 19:17.
28/02/2019 08:26:02: O serviço está configurado para o horário de 19:17.
28/02/2019 08:27:02: O serviço está configurado para o horário de 19:17.
28/02/2019 08:28:02: O serviço está configurado para o horário de 19:17.
28/02/2019 08:29:02: O serviço está configurado para o horário de 19:17.
28/02/2019 08:30:02: O serviço está configurado para o horário de 19:17.
28/02/2019 08:31:02: O serviço está configurado para o horário de 19:17.
28/02/2019 08:32:02: O serviço está configurado para o horário de 19:17.
28/02/2019 08:33:02: O serviço está configurado para o horário de 19:17.
28/02/2019 08:34:02: O serviço está configurado para o horário de 19:17.
28/02/2019 08:35:02: O serviço está configurado para o horário de 19:17.
28/02/2019 08:36:02: O serviço está configurado para o horário de 19:17.
28/02/2019 08:37:02: O serviço está configurado para o horário de 19:17.
28/02/2019 08:38:02: O serviço está configurado para o horário de 19:17.
28/02/2019 08:39:02: O serviço está configurado para o horário de 19:17.
28/02/2019 08:40:02: O serviço está configurado para o horário de 19:17.
28/02/2019 08:41:02: O serviço está configurado para o horário de 19:17.
28/02/2019 08:42:02: O serviço está configurado para o horário de 19:17.
28/02/2019 08:43:02: O serviço está configurado para o horário de 19:17.
28/02/2019 08:44:02: O serviço está configurado para o horário de 19:17.
28/02/2019 08:45:02: O serviço está configurado para o horário de 19:17.
28/02/2019 08:46:02: O serviço está configurado para o horário de 19:17.
28/02/2019 08:47:02: O serviço está configurado para o horário de 19:17.
28/02/2019 08:48:02: O serviço está configurado para o horário de 19:17.
28/02/2019 08:49:02: O serviço está configurado para o horário de 19:17.
28/02/2019 08:50:02: O serviço está configurado para o horário de 19:17.
28/02/2019 08:51:03: O serviço está configurado para o horário de 19:17.
28/02/2019 08:52:03: O serviço está configurado para o horário de 19:17.
28/02/2019 08:53:03: O serviço está configurado para o horário de 19:17.
28/02/2019 08:54:03: O serviço está configurado para o horário de 19:17.
28/02/2019 08:55:03: O serviço está configurado para o horário de 19:17.
28/02/2019 08:56:03: O serviço está configurado para o horário de 19:17.
28/02/2019 08:57:03: O serviço está configurado para o horário de 19:17.
28/02/2019 08:58:03: O serviço está configurado para o horário de 19:17.
28/02/2019 08:59:03: O serviço está configurado para o horário de 19:17.
28/02/2019 09:00:03: O serviço está configurado para o horário de 19:17.
28/02/2019 09:01:03: O serviço está configurado para o horário de 19:17.
28/02/2019 09:02:03: O serviço está configurado para o horário de 19:17.
28/02/2019 09:03:03: O serviço está configurado para o horário de 19:17.
28/02/2019 09:04:03: O serviço está configurado para o horário de 19:17.
28/02/2019 09:05:03: O serviço está configurado para o horário de 19:17.
28/02/2019 09:06:03: O serviço está configurado para o horário de 19:17.
28/02/2019 09:07:03: O serviço está configurado para o horário de 19:17.
28/02/2019 09:08:03: O serviço está configurado para o horário de 19:17.
28/02/2019 09:09:03: O serviço está configurado para o horário de 19:17.
28/02/2019 09:10:03: O serviço está configurado para o horário de 19:17.
28/02/2019 09:11:03: O serviço está configurado para o horário de 19:17.
28/02/2019 09:12:03: O serviço está configurado para o horário de 19:17.
28/02/2019 09:13:03: O serviço está configurado para o horário de 19:17.
28/02/2019 09:14:03: O serviço está configurado para o horário de 19:17.
28/02/2019 09:15:03: O serviço está configurado para o horário de 19:17.
28/02/2019 09:16:03: O serviço está configurado para o horário de 19:17.
28/02/2019 09:17:03: O serviço está configurado para o horário de 19:17.
28/02/2019 09:18:03: O serviço está configurado para o horário de 19:17.
28/02/2019 09:19:03: O serviço está configurado para o horário de 19:17.
28/02/2019 09:20:03: O serviço está configurado para o horário de 19:17.
28/02/2019 09:21:03: O serviço está configurado para o horário de 19:17.
28/02/2019 09:22:03: O serviço está configurado para o horário de 19:17.
28/02/2019 09:23:03: O serviço está configurado para o horário de 19:17.
28/02/2019 09:24:03: O serviço está configurado para o horário de 19:17.
28/02/2019 09:25:03: O serviço está configurado para o horário de 19:17.
28/02/2019 09:26:03: O serviço está configurado para o horário de 19:17.
28/02/2019 09:27:03: O serviço está configurado para o horário de 19:17.
28/02/2019 09:28:03: O serviço está configurado para o horário de 19:17.
28/02/2019 09:29:03: O serviço está configurado para o horário de 19:17.
28/02/2019 09:30:03: O serviço está configurado para o horário de 19:17.
28/02/2019 09:31:03: O serviço está configurado para o horário de 19:17.
28/02/2019 09:32:03: O serviço está configurado para o horário de 19:17.
28/02/2019 09:33:03: O serviço está configurado para o horário de 19:17.
28/02/2019 09:34:03: O serviço está configurado para o horário de 19:17.
28/02/2019 09:35:03: O serviço está configurado para o horário de 19:17.
28/02/2019 09:36:03: O serviço está configurado para o horário de 19:17.
28/02/2019 09:37:03: O serviço está configurado para o horário de 19:17.
28/02/2019 09:38:03: O serviço está configurado para o horário de 19:17.
28/02/2019 09:39:03: O serviço está configurado para o horário de 19:17.
28/02/2019 09:40:03: O serviço está configurado para o horário de 19:17.
28/02/2019 09:41:03: O serviço está configurado para o horário de 19:17.
28/02/2019 09:42:03: O serviço está configurado para o horário de 19:17.
28/02/2019 09:43:03: O serviço está configurado para o horário de 19:17.
28/02/2019 09:44:03: O serviço está configurado para o horário de 19:17.
28/02/2019 09:45:03: O serviço está configurado para o horário de 19:17.
28/02/2019 09:46:03: O serviço está configurado para o horário de 19:17.
28/02/2019 09:47:03: O serviço está configurado para o horário de 19:17.
28/02/2019 09:48:03: O serviço está configurado para o horário de 19:17.
28/02/2019 09:49:03: O serviço está configurado para o horário de 19:17.
28/02/2019 09:50:03: O serviço está configurado para o horário de 19:17.
28/02/2019 09:51:03: O serviço está configurado para o horário de 19:17.
28/02/2019 09:52:03: O serviço está configurado para o horário de 19:17.
28/02/2019 09:53:03: O serviço está configurado para o horário de 19:17.
28/02/2019 09:54:03: O serviço está configurado para o horário de 19:17.
28/02/2019 09:55:03: O serviço está configurado para o horário de 19:17.
28/02/2019 09:56:03: O serviço está configurado para o horário de 19:17.
28/02/2019 09:57:03: O serviço está configurado para o horário de 19:17.
28/02/2019 09:58:03: O serviço está configurado para o horário de 19:17.
28/02/2019 09:59:03: O serviço está configurado para o horário de 19:17.
28/02/2019 10:00:03: O serviço está configurado para o horário de 19:17.
28/02/2019 10:01:03: O serviço está configurado para o horário de 19:17.
28/02/2019 10:02:03: O serviço está configurado para o horário de 19:17.
28/02/2019 10:03:03: O serviço está configurado para o horário de 19:17.
28/02/2019 10:04:03: O serviço está configurado para o horário de 19:17.
28/02/2019 10:05:04: O serviço está configurado para o horário de 19:17.
28/02/2019 10:06:04: O serviço está configurado para o horário de 19:17.
28/02/2019 10:07:04: O serviço está configurado para o horário de 19:17.
28/02/2019 10:08:04: O serviço está configurado para o horário de 19:17.
28/02/2019 10:09:04: O serviço está configurado para o horário de 19:17.
28/02/2019 10:10:04: O serviço está configurado para o horário de 19:17.
28/02/2019 10:11:04: O serviço está configurado para o horário de 19:17.
28/02/2019 10:12:04: O serviço está configurado para o horário de 19:17.
28/02/2019 10:13:04: O serviço está configurado para o horário de 19:17.
28/02/2019 10:14:04: O serviço está configurado para o horário de 19:17.
28/02/2019 10:15:04: O serviço está configurado para o horário de 19:17.
28/02/2019 10:16:04: O serviço está configurado para o horário de 19:17.
28/02/2019 10:17:04: O serviço está configurado para o horário de 19:17.
28/02/2019 10:18:04: O serviço está configurado para o horário de 19:17.
28/02/2019 10:19:04: O serviço está configurado para o horário de 19:17.
28/02/2019 10:20:04: O serviço está configurado para o horário de 19:17.
28/02/2019 10:21:04: O serviço está configurado para o horário de 19:17.
28/02/2019 10:22:04: O serviço está configurado para o horário de 19:17.
28/02/2019 10:23:04: O serviço está configurado para o horário de 19:17.
28/02/2019 10:24:04: O serviço está configurado para o horário de 19:17.
28/02/2019 10:25:04: O serviço está configurado para o horário de 19:17.
28/02/2019 10:26:04: O serviço está configurado para o horário de 19:17.
28/02/2019 10:27:04: O serviço está configurado para o horário de 19:17.
28/02/2019 10:28:04: O serviço está configurado para o horário de 19:17.
28/02/2019 10:29:04: O serviço está configurado para o horário de 19:17.
28/02/2019 10:30:04: O serviço está configurado para o horário de 19:17.
28/02/2019 12:15:29: O serviço está configurado para o horário de 19:17.
28/02/2019 12:16:29: O serviço está configurado para o horário de 19:17.
28/02/2019 12:17:29: O serviço está configurado para o horário de 19:17.
28/02/2019 12:18:29: O serviço está configurado para o horário de 19:17.
28/02/2019 12:19:29: O serviço está configurado para o horário de 19:17.
28/02/2019 12:20:29: O serviço está configurado para o horário de 19:17.
28/02/2019 12:21:29: O serviço está configurado para o horário de 19:17.
28/02/2019 12:22:29: O serviço está configurado para o horário de 19:17.
28/02/2019 12:23:29: O serviço está configurado para o horário de 19:17.
28/02/2019 12:24:29: O serviço está configurado para o horário de 19:17.
28/02/2019 12:25:29: O serviço está configurado para o horário de 19:17.
28/02/2019 12:26:29: O serviço está configurado para o horário de 19:17.
28/02/2019 12:27:29: O serviço está configurado para o horário de 19:17.
28/02/2019 12:28:29: O serviço está configurado para o horário de 19:17.
28/02/2019 12:29:29: O serviço está configurado para o horário de 19:17.
28/02/2019 12:30:29: O serviço está configurado para o horário de 19:17.
28/02/2019 12:31:29: O serviço está configurado para o horário de 19:17.
28/02/2019 12:32:29: O serviço está configurado para o horário de 19:17.
28/02/2019 12:33:29: O serviço está configurado para o horário de 19:17.
28/02/2019 12:34:29: O serviço está configurado para o horário de 19:17.
28/02/2019 12:35:29: O serviço está configurado para o horário de 19:17.
28/02/2019 12:36:29: O serviço está configurado para o horário de 19:17.
28/02/2019 12:37:29: O serviço está configurado para o horário de 19:17.
28/02/2019 12:38:29: O serviço está configurado para o horário de 19:17.
28/02/2019 12:39:29: O serviço está configurado para o horário de 19:17.
28/02/2019 12:40:29: O serviço está configurado para o horário de 19:17.
28/02/2019 12:41:29: O serviço está configurado para o horário de 19:17.
28/02/2019 12:42:29: O serviço está configurado para o horário de 19:17.
28/02/2019 12:43:29: O serviço está configurado para o horário de 19:17.
28/02/2019 12:44:29: O serviço está configurado para o horário de 19:17.
28/02/2019 12:45:29: O serviço está configurado para o horário de 19:17.
28/02/2019 12:46:30: O serviço está configurado para o horário de 19:17.
28/02/2019 12:47:30: O serviço está configurado para o horário de 19:17.
28/02/2019 12:48:30: O serviço está configurado para o horário de 19:17.
28/02/2019 12:49:30: O serviço está configurado para o horário de 19:17.
28/02/2019 12:50:30: O serviço está configurado para o horário de 19:17.
28/02/2019 12:51:30: O serviço está configurado para o horário de 19:17.
28/02/2019 12:52:30: O serviço está configurado para o horário de 19:17.
28/02/2019 12:53:30: O serviço está configurado para o horário de 19:17.
28/02/2019 12:54:30: O serviço está configurado para o horário de 19:17.
28/02/2019 12:55:30: O serviço está configurado para o horário de 19:17.
28/02/2019 12:56:30: O serviço está configurado para o horário de 19:17.
28/02/2019 12:57:30: O serviço está configurado para o horário de 19:17.
28/02/2019 12:58:30: O serviço está configurado para o horário de 19:17.
28/02/2019 12:59:30: O serviço está configurado para o horário de 19:17.
28/02/2019 13:00:30: O serviço está configurado para o horário de 19:17.
28/02/2019 13:01:30: O serviço está configurado para o horário de 19:17.
28/02/2019 13:02:30: O serviço está configurado para o horário de 19:17.
28/02/2019 13:03:30: O serviço está configurado para o horário de 19:17.
28/02/2019 13:04:30: O serviço está configurado para o horário de 19:17.
28/02/2019 13:05:30: O serviço está configurado para o horário de 19:17.
28/02/2019 13:06:30: O serviço está configurado para o horário de 19:17.
28/02/2019 13:07:30: O serviço está configurado para o horário de 19:17.
28/02/2019 13:08:30: O serviço está configurado para o horário de 19:17.
28/02/2019 13:09:30: O serviço está configurado para o horário de 19:17.
28/02/2019 13:10:30: O serviço está configurado para o horário de 19:17.
28/02/2019 13:11:30: O serviço está configurado para o horário de 19:17.
28/02/2019 13:12:30: O serviço está configurado para o horário de 19:17.
28/02/2019 13:13:30: O serviço está configurado para o horário de 19:17.
28/02/2019 13:14:30: O serviço está configurado para o horário de 19:17.
28/02/2019 13:15:30: O serviço está configurado para o horário de 19:17.
28/02/2019 13:16:30: O serviço está configurado para o horário de 19:17.
28/02/2019 13:17:30: O serviço está configurado para o horário de 19:17.
28/02/2019 13:18:30: O serviço está configurado para o horário de 19:17.
28/02/2019 13:19:30: O serviço está configurado para o horário de 19:17.
28/02/2019 13:20:30: O serviço está configurado para o horário de 19:17.
28/02/2019 13:21:30: O serviço está configurado para o horário de 19:17.
28/02/2019 13:22:30: O serviço está configurado para o horário de 19:17.
28/02/2019 13:23:30: O serviço está configurado para o horário de 19:17.
28/02/2019 13:24:30: O serviço está configurado para o horário de 19:17.
28/02/2019 13:25:30: O serviço está configurado para o horário de 19:17.
28/02/2019 13:26:30: O serviço está configurado para o horário de 19:17.
28/02/2019 13:27:30: O serviço está configurado para o horário de 19:17.
28/02/2019 13:28:30: O serviço está configurado para o horário de 19:17.
28/02/2019 13:29:30: O serviço está configurado para o horário de 19:17.
28/02/2019 13:30:30: O serviço está configurado para o horário de 19:17.
28/02/2019 13:31:30: O serviço está configurado para o horário de 19:17.
28/02/2019 13:32:30: O serviço está configurado para o horário de 19:17.
28/02/2019 13:33:30: O serviço está configurado para o horário de 19:17.
28/02/2019 13:34:30: O serviço está configurado para o horário de 19:17.
28/02/2019 13:35:30: O serviço está configurado para o horário de 19:17.
28/02/2019 13:36:30: O serviço está configurado para o horário de 19:17.
28/02/2019 13:37:30: O serviço está configurado para o horário de 19:17.
28/02/2019 13:38:30: O serviço está configurado para o horário de 19:17.
28/02/2019 13:39:30: O serviço está configurado para o horário de 19:17.
28/02/2019 13:40:30: O serviço está configurado para o horário de 19:17.
28/02/2019 13:41:30: O serviço está configurado para o horário de 19:17.
28/02/2019 13:42:30: O serviço está configurado para o horário de 19:17.
28/02/2019 13:43:30: O serviço está configurado para o horário de 19:17.
28/02/2019 13:44:30: O serviço está configurado para o horário de 19:17.
28/02/2019 13:45:30: O serviço está configurado para o horário de 19:17.
28/02/2019 13:46:30: O serviço está configurado para o horário de 19:17.
28/02/2019 13:47:30: O serviço está configurado para o horário de 19:17.
28/02/2019 13:48:30: O serviço está configurado para o horário de 19:17.
28/02/2019 13:49:30: O serviço está configurado para o horário de 19:17.
28/02/2019 13:50:30: O serviço está configurado para o horário de 19:17.
28/02/2019 13:51:30: O serviço está configurado para o horário de 19:17.
28/02/2019 13:52:30: O serviço está configurado para o horário de 19:17.
28/02/2019 13:53:30: O serviço está configurado para o horário de 19:17.
28/02/2019 13:54:30: O serviço está configurado para o horário de 19:17.
28/02/2019 13:55:30: O serviço está configurado para o horário de 19:17.
28/02/2019 13:56:30: O serviço está configurado para o horário de 19:17.
28/02/2019 13:57:30: O serviço está configurado para o horário de 19:17.
28/02/2019 13:58:30: O serviço está configurado para o horário de 19:17.
28/02/2019 13:59:30: O serviço está configurado para o horário de 19:17.
28/02/2019 14:00:31: O serviço está configurado para o horário de 19:17.
28/02/2019 14:01:31: O serviço está configurado para o horário de 19:17.
28/02/2019 14:02:31: O serviço está configurado para o horário de 19:17.
28/02/2019 14:03:31: O serviço está configurado para o horário de 19:17.
28/02/2019 14:04:31: O serviço está configurado para o horário de 19:17.
28/02/2019 14:05:31: O serviço está configurado para o horário de 19:17.
28/02/2019 14:06:31: O serviço está configurado para o horário de 19:17.
28/02/2019 14:07:31: O serviço está configurado para o horário de 19:17.
28/02/2019 14:08:31: O serviço está configurado para o horário de 19:17.
28/02/2019 14:09:31: O serviço está configurado para o horário de 19:17.
28/02/2019 14:10:31: O serviço está configurado para o horário de 19:17.
28/02/2019 14:11:31: O serviço está configurado para o horário de 19:17.
28/02/2019 14:12:31: O serviço está configurado para o horário de 19:17.
28/02/2019 14:13:31: O serviço está configurado para o horário de 19:17.
28/02/2019 14:14:31: O serviço está configurado para o horário de 19:17.
28/02/2019 14:15:31: O serviço está configurado para o horário de 19:17.
28/02/2019 14:16:31: O serviço está configurado para o horário de 19:17.
28/02/2019 14:17:31: O serviço está configurado para o horário de 19:17.
28/02/2019 14:18:31: O serviço está configurado para o horário de 19:17.
28/02/2019 14:19:31: O serviço está configurado para o horário de 19:17.
28/02/2019 14:20:31: O serviço está configurado para o horário de 19:17.
28/02/2019 14:21:31: O serviço está configurado para o horário de 19:17.
28/02/2019 14:22:31: O serviço está configurado para o horário de 19:17.
28/02/2019 14:23:31: O serviço está configurado para o horário de 19:17.
28/02/2019 14:24:31: O serviço está configurado para o horário de 19:17.
28/02/2019 14:25:31: O serviço está configurado para o horário de 19:17.
28/02/2019 14:26:31: O serviço está configurado para o horário de 19:17.
28/02/2019 14:27:31: O serviço está configurado para o horário de 19:17.
28/02/2019 14:28:31: O serviço está configurado para o horário de 19:17.
28/02/2019 14:29:31: O serviço está configurado para o horário de 19:17.
28/02/2019 14:30:31: O serviço está configurado para o horário de 19:17.
28/02/2019 14:31:31: O serviço está configurado para o horário de 19:17.
28/02/2019 14:32:31: O serviço está configurado para o horário de 19:17.
28/02/2019 14:33:31: O serviço está configurado para o horário de 19:17.
28/02/2019 14:34:31: O serviço está configurado para o horário de 19:17.
28/02/2019 14:35:31: O serviço está configurado para o horário de 19:17.
28/02/2019 14:36:31: O serviço está configurado para o horário de 19:17.
28/02/2019 14:37:31: O serviço está configurado para o horário de 19:17.
28/02/2019 14:38:31: O serviço está configurado para o horário de 19:17.
28/02/2019 14:39:31: O serviço está configurado para o horário de 19:17.
28/02/2019 14:40:31: O serviço está configurado para o horário de 19:17.
28/02/2019 14:41:31: O serviço está configurado para o horário de 19:17.
28/02/2019 14:42:31: O serviço está configurado para o horário de 19:17.
28/02/2019 14:43:31: O serviço está configurado para o horário de 19:17.
28/02/2019 14:44:31: O serviço está configurado para o horário de 19:17.
28/02/2019 14:45:31: O serviço está configurado para o horário de 19:17.
28/02/2019 14:46:31: O serviço está configurado para o horário de 19:17.
28/02/2019 14:47:31: O serviço está configurado para o horário de 19:17.
28/02/2019 14:48:31: O serviço está configurado para o horário de 19:17.
28/02/2019 14:49:31: O serviço está configurado para o horário de 19:17.
28/02/2019 14:50:31: O serviço está configurado para o horário de 19:17.
28/02/2019 14:51:31: O serviço está configurado para o horário de 19:17.
28/02/2019 14:52:31: O serviço está configurado para o horário de 19:17.
28/02/2019 14:53:31: O serviço está configurado para o horário de 19:17.
28/02/2019 14:54:31: O serviço está configurado para o horário de 19:17.
28/02/2019 14:55:31: O serviço está configurado para o horário de 19:17.
28/02/2019 14:56:31: O serviço está configurado para o horário de 19:17.
28/02/2019 14:57:31: O serviço está configurado para o horário de 19:17.
28/02/2019 14:58:31: O serviço está configurado para o horário de 19:17.
28/02/2019 14:59:31: O serviço está configurado para o horário de 19:17.
28/02/2019 15:00:31: O serviço está configurado para o horário de 19:17.
28/02/2019 15:01:31: O serviço está configurado para o horário de 19:17.
28/02/2019 15:02:31: O serviço está configurado para o horário de 19:17.
28/02/2019 15:03:31: O serviço está configurado para o horário de 19:17.
28/02/2019 15:04:31: O serviço está configurado para o horário de 19:17.
28/02/2019 15:05:31: O serviço está configurado para o horário de 19:17.
28/02/2019 15:06:31: O serviço está configurado para o horário de 19:17.
28/02/2019 15:07:31: O serviço está configurado para o horário de 19:17.
28/02/2019 15:08:31: O serviço está configurado para o horário de 19:17.
28/02/2019 15:09:31: O serviço está configurado para o horário de 19:17.
28/02/2019 15:10:31: O serviço está configurado para o horário de 19:17.
28/02/2019 15:11:31: O serviço está configurado para o horário de 19:17.
28/02/2019 15:12:31: O serviço está configurado para o horário de 19:17.
28/02/2019 15:13:32: O serviço está configurado para o horário de 19:17.
28/02/2019 15:14:32: O serviço está configurado para o horário de 19:17.
28/02/2019 15:15:32: O serviço está configurado para o horário de 19:17.
28/02/2019 15:16:32: O serviço está configurado para o horário de 19:17.
28/02/2019 15:17:32: O serviço está configurado para o horário de 19:17.
28/02/2019 15:18:32: O serviço está configurado para o horário de 19:17.
28/02/2019 15:19:32: O serviço está configurado para o horário de 19:17.
28/02/2019 15:20:32: O serviço está configurado para o horário de 19:17.
28/02/2019 15:21:32: O serviço está configurado para o horário de 19:17.
28/02/2019 15:22:32: O serviço está configurado para o horário de 19:17.
28/02/2019 15:23:32: O serviço está configurado para o horário de 19:17.
28/02/2019 15:24:32: O serviço está configurado para o horário de 19:17.
28/02/2019 15:25:32: O serviço está configurado para o horário de 19:17.
28/02/2019 15:26:32: O serviço está configurado para o horário de 19:17.
28/02/2019 15:27:32: O serviço está configurado para o horário de 19:17.
28/02/2019 15:28:32: O serviço está configurado para o horário de 19:17.
28/02/2019 15:29:32: O serviço está configurado para o horário de 19:17.
28/02/2019 15:30:32: O serviço está configurado para o horário de 19:17.
28/02/2019 15:31:32: O serviço está configurado para o horário de 19:17.
28/02/2019 15:32:32: O serviço está configurado para o horário de 19:17.
28/02/2019 15:33:32: O serviço está configurado para o horário de 19:17.
28/02/2019 15:34:32: O serviço está configurado para o horário de 19:17.
28/02/2019 15:35:32: O serviço está configurado para o horário de 19:17.
28/02/2019 15:36:32: O serviço está configurado para o horário de 19:17.
28/02/2019 15:37:32: O serviço está configurado para o horário de 19:17.
28/02/2019 15:38:32: O serviço está configurado para o horário de 19:17.
28/02/2019 15:39:32: O serviço está configurado para o horário de 19:17.
28/02/2019 15:40:32: O serviço está configurado para o horário de 19:17.
28/02/2019 15:41:32: O serviço está configurado para o horário de 19:17.
28/02/2019 15:42:32: O serviço está configurado para o horário de 19:17.
28/02/2019 15:43:32: O serviço está configurado para o horário de 19:17.
28/02/2019 15:44:32: O serviço está configurado para o horário de 19:17.
28/02/2019 15:45:32: O serviço está configurado para o horário de 19:17.
28/02/2019 15:46:32: O serviço está configurado para o horário de 19:17.
28/02/2019 15:47:32: O serviço está configurado para o horário de 19:17.
28/02/2019 15:48:32: O serviço está configurado para o horário de 19:17.
28/02/2019 15:49:32: O serviço está configurado para o horário de 19:17.
28/02/2019 15:50:32: O serviço está configurado para o horário de 19:17.
28/02/2019 15:51:32: O serviço está configurado para o horário de 19:17.
28/02/2019 15:52:32: O serviço está configurado para o horário de 19:17.
28/02/2019 15:53:32: O serviço está configurado para o horário de 19:17.
28/02/2019 15:54:32: O serviço está configurado para o horário de 19:17.
28/02/2019 15:55:32: O serviço está configurado para o horário de 19:17.
28/02/2019 15:56:32: O serviço está configurado para o horário de 19:17.
28/02/2019 15:57:32: O serviço está configurado para o horário de 19:17.
28/02/2019 15:58:32: O serviço está configurado para o horário de 19:17.
28/02/2019 15:59:32: O serviço está configurado para o horário de 19:17.
28/02/2019 16:00:32: O serviço está configurado para o horário de 19:17.
28/02/2019 16:01:32: O serviço está configurado para o horário de 19:17.
28/02/2019 16:02:32: O serviço está configurado para o horário de 19:17.
28/02/2019 16:03:32: O serviço está configurado para o horário de 19:17.
28/02/2019 16:04:32: O serviço está configurado para o horário de 19:17.
28/02/2019 16:05:32: O serviço está configurado para o horário de 19:17.
28/02/2019 16:06:32: O serviço está configurado para o horário de 19:17.
28/02/2019 16:07:32: O serviço está configurado para o horário de 19:17.
28/02/2019 16:08:32: O serviço está configurado para o horário de 19:17.
28/02/2019 16:09:32: O serviço está configurado para o horário de 19:17.
28/02/2019 16:10:32: O serviço está configurado para o horário de 19:17.
28/02/2019 16:11:32: O serviço está configurado para o horário de 19:17.
28/02/2019 16:12:32: O serviço está configurado para o horário de 19:17.
28/02/2019 16:13:32: O serviço está configurado para o horário de 19:17.
28/02/2019 16:14:32: O serviço está configurado para o horário de 19:17.
28/02/2019 16:15:32: O serviço está configurado para o horário de 19:17.
28/02/2019 16:16:32: O serviço está configurado para o horário de 19:17.
28/02/2019 16:17:32: O serviço está configurado para o horário de 19:17.
28/02/2019 16:18:33: O serviço está configurado para o horário de 19:17.
28/02/2019 16:19:33: O serviço está configurado para o horário de 19:17.
28/02/2019 16:20:33: O serviço está configurado para o horário de 19:17.
28/02/2019 16:21:33: O serviço está configurado para o horário de 19:17.
28/02/2019 16:22:33: O serviço está configurado para o horário de 19:17.
28/02/2019 16:23:33: O serviço está configurado para o horário de 19:17.
28/02/2019 16:24:33: O serviço está configurado para o horário de 19:17.
28/02/2019 16:25:33: O serviço está configurado para o horário de 19:17.
28/02/2019 16:26:33: O serviço está configurado para o horário de 19:17.
28/02/2019 16:27:33: O serviço está configurado para o horário de 19:17.
28/02/2019 16:28:33: O serviço está configurado para o horário de 19:17.
28/02/2019 16:29:33: O serviço está configurado para o horário de 19:17.
28/02/2019 16:30:33: O serviço está configurado para o horário de 19:17.
28/02/2019 16:31:33: O serviço está configurado para o horário de 19:17.
28/02/2019 16:32:33: O serviço está configurado para o horário de 19:17.
28/02/2019 16:33:33: O serviço está configurado para o horário de 19:17.
28/02/2019 16:34:33: O serviço está configurado para o horário de 19:17.
28/02/2019 16:35:33: O serviço está configurado para o horário de 19:17.
28/02/2019 16:36:33: O serviço está configurado para o horário de 19:17.
28/02/2019 16:37:33: O serviço está configurado para o horário de 19:17.
28/02/2019 16:38:33: O serviço está configurado para o horário de 19:17.
28/02/2019 16:39:33: O serviço está configurado para o horário de 19:17.
28/02/2019 16:40:33: O serviço está configurado para o horário de 19:17.
28/02/2019 16:41:33: O serviço está configurado para o horário de 19:17.
28/02/2019 16:42:33: O serviço está configurado para o horário de 19:17.
28/02/2019 16:43:33: O serviço está configurado para o horário de 19:17.
28/02/2019 16:44:33: O serviço está configurado para o horário de 19:17.
28/02/2019 16:45:33: O serviço está configurado para o horário de 19:17.
28/02/2019 16:46:33: O serviço está configurado para o horário de 19:17.
28/02/2019 16:47:33: O serviço está configurado para o horário de 19:17.
28/02/2019 16:48:33: O serviço está configurado para o horário de 19:17.
28/02/2019 16:49:33: O serviço está configurado para o horário de 19:17.
28/02/2019 16:50:33: O serviço está configurado para o horário de 19:17.
28/02/2019 16:51:33: O serviço está configurado para o horário de 19:17.
28/02/2019 16:52:33: O serviço está configurado para o horário de 19:17.
28/02/2019 16:53:33: O serviço está configurado para o horário de 19:17.
28/02/2019 16:54:33: O serviço está configurado para o horário de 19:17.
28/02/2019 16:55:33: O serviço está configurado para o horário de 19:17.
28/02/2019 16:56:33: O serviço está configurado para o horário de 19:17.
28/02/2019 16:57:33: O serviço está configurado para o horário de 19:17.
28/02/2019 16:58:33: O serviço está configurado para o horário de 19:17.
28/02/2019 16:59:33: O serviço está configurado para o horário de 19:17.
28/02/2019 17:00:33: O serviço está configurado para o horário de 19:17.
28/02/2019 17:01:33: O serviço está configurado para o horário de 19:17.
28/02/2019 17:02:33: O serviço está configurado para o horário de 19:17.
28/02/2019 17:03:33: O serviço está configurado para o horário de 19:17.
28/02/2019 17:04:33: O serviço está configurado para o horário de 19:17.
28/02/2019 17:05:33: O serviço está configurado para o horário de 19:17.
28/02/2019 17:06:33: O serviço está configurado para o horário de 19:17.
28/02/2019 17:07:33: O serviço está configurado para o horário de 19:17.
28/02/2019 17:08:33: O serviço está configurado para o horário de 19:17.
28/02/2019 17:09:33: O serviço está configurado para o horário de 19:17.
28/02/2019 17:10:33: O serviço está configurado para o horário de 19:17.
28/02/2019 17:11:33: O serviço está configurado para o horário de 19:17.
28/02/2019 17:12:33: O serviço está configurado para o horário de 19:17.
28/02/2019 17:13:33: O serviço está configurado para o horário de 19:17.
28/02/2019 17:14:33: O serviço está configurado para o horário de 19:17.
28/02/2019 17:15:33: O serviço está configurado para o horário de 19:17.
28/02/2019 17:16:33: O serviço está configurado para o horário de 19:17.
28/02/2019 17:17:33: O serviço está configurado para o horário de 19:17.
28/02/2019 17:18:33: O serviço está configurado para o horário de 19:17.
28/02/2019 17:19:33: O serviço está configurado para o horário de 19:17.
28/02/2019 17:20:33: O serviço está configurado para o horário de 19:17.
28/02/2019 17:21:33: O serviço está configurado para o horário de 19:17.
28/02/2019 17:22:33: O serviço está configurado para o horário de 19:17.
28/02/2019 17:23:33: O serviço está configurado para o horário de 19:17.
28/02/2019 17:24:33: O serviço está configurado para o horário de 19:17.
28/02/2019 17:25:33: O serviço está configurado para o horário de 19:17.
28/02/2019 17:26:33: O serviço está configurado para o horário de 19:17.
28/02/2019 17:27:33: O serviço está configurado para o horário de 19:17.
28/02/2019 17:28:33: O serviço está configurado para o horário de 19:17.
28/02/2019 17:29:33: O serviço está configurado para o horário de 19:17.
28/02/2019 17:30:34: O serviço está configurado para o horário de 19:17.
28/02/2019 17:31:34: O serviço está configurado para o horário de 19:17.
28/02/2019 17:32:34: O serviço está configurado para o horário de 19:17.
28/02/2019 17:33:34: O serviço está configurado para o horário de 19:17.
28/02/2019 17:34:34: O serviço está configurado para o horário de 19:17.
28/02/2019 17:35:34: O serviço está configurado para o horário de 19:17.
28/02/2019 17:36:34: O serviço está configurado para o horário de 19:17.
28/02/2019 17:37:34: O serviço está configurado para o horário de 19:17.
28/02/2019 17:38:34: O serviço está configurado para o horário de 19:17.
28/02/2019 17:39:34: O serviço está configurado para o horário de 19:17.
28/02/2019 17:40:34: O serviço está configurado para o horário de 19:17.
28/02/2019 17:41:34: O serviço está configurado para o horário de 19:17.
28/02/2019 17:42:34: O serviço está configurado para o horário de 19:17.
28/02/2019 17:43:34: O serviço está configurado para o horário de 19:17.
28/02/2019 17:44:34: O serviço está configurado para o horário de 19:17.
28/02/2019 17:45:34: O serviço está configurado para o horário de 19:17.
28/02/2019 17:46:34: O serviço está configurado para o horário de 19:17.
28/02/2019 17:47:34: O serviço está configurado para o horário de 19:17.
28/02/2019 17:48:34: O serviço está configurado para o horário de 19:17.
28/02/2019 17:49:34: O serviço está configurado para o horário de 19:17.
28/02/2019 17:50:34: O serviço está configurado para o horário de 19:17.
28/02/2019 17:51:34: O serviço está configurado para o horário de 19:17.
28/02/2019 17:52:34: O serviço está configurado para o horário de 19:17.
28/02/2019 17:53:34: O serviço está configurado para o horário de 19:17.
28/02/2019 17:54:34: O serviço está configurado para o horário de 19:17.
28/02/2019 17:55:34: O serviço está configurado para o horário de 19:17.
28/02/2019 17:56:34: O serviço está configurado para o horário de 19:17.
28/02/2019 17:57:34: O serviço está configurado para o horário de 19:17.
28/02/2019 17:58:34: O serviço está configurado para o horário de 19:17.
28/02/2019 17:59:34: O serviço está configurado para o horário de 19:17.
28/02/2019 18:00:34: O serviço está configurado para o horário de 19:17.
28/02/2019 18:01:34: O serviço está configurado para o horário de 19:17.
28/02/2019 18:02:34: O serviço está configurado para o horário de 19:17.
28/02/2019 18:03:34: O serviço está configurado para o horário de 19:17.
28/02/2019 18:04:34: O serviço está configurado para o horário de 19:17.
28/02/2019 18:05:34: O serviço está configurado para o horário de 19:17.
28/02/2019 18:06:34: O serviço está configurado para o horário de 19:17.
28/02/2019 18:07:34: O serviço está configurado para o horário de 19:17.
28/02/2019 18:08:34: O serviço está configurado para o horário de 19:17.
28/02/2019 18:09:34: O serviço está configurado para o horário de 19:17.
28/02/2019 18:10:34: O serviço está configurado para o horário de 19:17.
28/02/2019 18:11:34: O serviço está configurado para o horário de 19:17.
28/02/2019 18:12:34: O serviço está configurado para o horário de 19:17.
28/02/2019 18:13:34: O serviço está configurado para o horário de 19:17.
28/02/2019 18:14:34: O serviço está configurado para o horário de 19:17.
28/02/2019 18:15:34: O serviço está configurado para o horário de 19:17.
28/02/2019 18:16:34: O serviço está configurado para o horário de 19:17.
28/02/2019 18:17:34: O serviço está configurado para o horário de 19:17.
28/02/2019 18:18:34: O serviço está configurado para o horário de 19:17.
28/02/2019 18:19:34: O serviço está configurado para o horário de 19:17.
28/02/2019 18:20:34: O serviço está configurado para o horário de 19:17.
28/02/2019 18:21:34: O serviço está configurado para o horário de 19:17.
28/02/2019 18:22:34: O serviço está configurado para o horário de 19:17.
28/02/2019 18:23:34: O serviço está configurado para o horário de 19:17.
28/02/2019 18:24:34: O serviço está configurado para o horário de 19:17.
28/02/2019 18:25:34: O serviço está configurado para o horário de 19:17.
28/02/2019 18:26:34: O serviço está configurado para o horário de 19:17.
28/02/2019 18:27:34: O serviço está configurado para o horário de 19:17.
28/02/2019 18:28:34: O serviço está configurado para o horário de 19:17.
28/02/2019 18:29:34: O serviço está configurado para o horário de 19:17.
28/02/2019 18:30:34: O serviço está configurado para o horário de 19:17.
28/02/2019 18:31:34: O serviço está configurado para o horário de 19:17.
28/02/2019 18:32:34: O serviço está configurado para o horário de 19:17.
28/02/2019 18:33:34: O serviço está configurado para o horário de 19:17.
