02/03/2019 18:00:41: O serviço está configurado para o horário de 19:17.
02/03/2019 18:01:41: O serviço está configurado para o horário de 19:17.
02/03/2019 18:02:41: O serviço está configurado para o horário de 19:17.
02/03/2019 18:03:41: O serviço está configurado para o horário de 19:17.
02/03/2019 18:04:41: O serviço está configurado para o horário de 19:17.
02/03/2019 18:05:41: O serviço está configurado para o horário de 19:17.
02/03/2019 18:06:41: O serviço está configurado para o horário de 19:17.
02/03/2019 18:07:41: O serviço está configurado para o horário de 19:17.
02/03/2019 18:08:41: O serviço está configurado para o horário de 19:17.
02/03/2019 18:09:41: O serviço está configurado para o horário de 19:17.
02/03/2019 18:10:41: O serviço está configurado para o horário de 19:17.
02/03/2019 18:11:41: O serviço está configurado para o horário de 19:17.
02/03/2019 18:12:41: O serviço está configurado para o horário de 19:17.
02/03/2019 18:13:41: O serviço está configurado para o horário de 19:17.
02/03/2019 18:14:41: O serviço está configurado para o horário de 19:17.
02/03/2019 18:15:42: O serviço está configurado para o horário de 19:17.
02/03/2019 18:16:42: O serviço está configurado para o horário de 19:17.
02/03/2019 18:17:42: O serviço está configurado para o horário de 19:17.
02/03/2019 18:18:42: O serviço está configurado para o horário de 19:17.
02/03/2019 18:19:42: O serviço está configurado para o horário de 19:17.
02/03/2019 18:20:42: O serviço está configurado para o horário de 19:17.
02/03/2019 18:21:42: O serviço está configurado para o horário de 19:17.
02/03/2019 18:22:42: O serviço está configurado para o horário de 19:17.
02/03/2019 18:23:42: O serviço está configurado para o horário de 19:17.
02/03/2019 18:24:42: O serviço está configurado para o horário de 19:17.
02/03/2019 18:25:42: O serviço está configurado para o horário de 19:17.
02/03/2019 18:26:42: O serviço está configurado para o horário de 19:17.
02/03/2019 18:27:42: O serviço está configurado para o horário de 19:17.
02/03/2019 18:28:42: O serviço está configurado para o horário de 19:17.
02/03/2019 18:29:42: O serviço está configurado para o horário de 19:17.
02/03/2019 18:30:42: O serviço está configurado para o horário de 19:17.
02/03/2019 18:31:42: O serviço está configurado para o horário de 19:17.
02/03/2019 18:32:42: O serviço está configurado para o horário de 19:17.
02/03/2019 18:33:42: O serviço está configurado para o horário de 19:17.
02/03/2019 18:34:42: O serviço está configurado para o horário de 19:17.
02/03/2019 18:35:42: O serviço está configurado para o horário de 19:17.
02/03/2019 18:36:42: O serviço está configurado para o horário de 19:17.
02/03/2019 18:37:42: O serviço está configurado para o horário de 19:17.
02/03/2019 18:38:42: O serviço está configurado para o horário de 19:17.
02/03/2019 18:39:42: O serviço está configurado para o horário de 19:17.
02/03/2019 18:40:42: O serviço está configurado para o horário de 19:17.
02/03/2019 18:41:42: O serviço está configurado para o horário de 19:17.
02/03/2019 18:42:42: O serviço está configurado para o horário de 19:17.
02/03/2019 18:43:42: O serviço está configurado para o horário de 19:17.
02/03/2019 18:44:42: O serviço está configurado para o horário de 19:17.
02/03/2019 18:45:42: O serviço está configurado para o horário de 19:17.
02/03/2019 18:46:42: O serviço está configurado para o horário de 19:17.
02/03/2019 18:47:42: O serviço está configurado para o horário de 19:17.
02/03/2019 18:48:42: O serviço está configurado para o horário de 19:17.
02/03/2019 18:49:42: O serviço está configurado para o horário de 19:17.
02/03/2019 18:50:42: O serviço está configurado para o horário de 19:17.
02/03/2019 18:51:42: O serviço está configurado para o horário de 19:17.
02/03/2019 18:52:42: O serviço está configurado para o horário de 19:17.
02/03/2019 18:53:42: O serviço está configurado para o horário de 19:17.
02/03/2019 18:54:42: O serviço está configurado para o horário de 19:17.
02/03/2019 18:55:42: O serviço está configurado para o horário de 19:17.
02/03/2019 18:56:42: O serviço está configurado para o horário de 19:17.
02/03/2019 18:57:42: O serviço está configurado para o horário de 19:17.
02/03/2019 18:58:42: O serviço está configurado para o horário de 19:17.
02/03/2019 18:59:42: O serviço está configurado para o horário de 19:17.
02/03/2019 19:00:42: O serviço está configurado para o horário de 19:17.
02/03/2019 19:01:42: O serviço está configurado para o horário de 19:17.
02/03/2019 19:02:42: O serviço está configurado para o horário de 19:17.
02/03/2019 19:03:42: O serviço está configurado para o horário de 19:17.
02/03/2019 19:04:42: O serviço está configurado para o horário de 19:17.
02/03/2019 19:05:42: O serviço está configurado para o horário de 19:17.
02/03/2019 19:06:42: O serviço está configurado para o horário de 19:17.
02/03/2019 19:07:42: O serviço está configurado para o horário de 19:17.
02/03/2019 19:08:42: O serviço está configurado para o horário de 19:17.
02/03/2019 19:09:43: O serviço está configurado para o horário de 19:17.
02/03/2019 19:10:43: O serviço está configurado para o horário de 19:17.
02/03/2019 19:11:43: O serviço está configurado para o horário de 19:17.
02/03/2019 19:12:43: O serviço está configurado para o horário de 19:17.
02/03/2019 19:13:43: O serviço está configurado para o horário de 19:17.
02/03/2019 19:14:43: O serviço está configurado para o horário de 19:17.
02/03/2019 19:15:43: O serviço está configurado para o horário de 19:17.
02/03/2019 19:16:43: O serviço está configurado para o horário de 19:17.
02/03/2019 19:17:43: O serviço está configurado para o horário de 19:17.
02/03/2019 19:18:43: O serviço está configurado para o horário de 19:17.
02/03/2019 19:19:43: O serviço está configurado para o horário de 19:17.
02/03/2019 19:20:43: O serviço está configurado para o horário de 19:17.
02/03/2019 19:21:43: O serviço está configurado para o horário de 19:17.
02/03/2019 19:22:43: O serviço está configurado para o horário de 19:17.
02/03/2019 19:23:43: O serviço está configurado para o horário de 19:17.
02/03/2019 19:24:43: O serviço está configurado para o horário de 19:17.
02/03/2019 19:25:43: O serviço está configurado para o horário de 19:17.
02/03/2019 19:26:43: O serviço está configurado para o horário de 19:17.
02/03/2019 19:27:43: O serviço está configurado para o horário de 19:17.
02/03/2019 19:28:43: O serviço está configurado para o horário de 19:17.
02/03/2019 19:29:43: O serviço está configurado para o horário de 19:17.
02/03/2019 19:30:43: O serviço está configurado para o horário de 19:17.
02/03/2019 19:31:43: O serviço está configurado para o horário de 19:17.
02/03/2019 19:32:43: O serviço está configurado para o horário de 19:17.
02/03/2019 19:33:43: O serviço está configurado para o horário de 19:17.
02/03/2019 19:34:43: O serviço está configurado para o horário de 19:17.
02/03/2019 19:35:43: O serviço está configurado para o horário de 19:17.
02/03/2019 19:36:43: O serviço está configurado para o horário de 19:17.
02/03/2019 19:37:43: O serviço está configurado para o horário de 19:17.
02/03/2019 19:38:43: O serviço está configurado para o horário de 19:17.
02/03/2019 19:39:43: O serviço está configurado para o horário de 19:17.
02/03/2019 19:40:43: O serviço está configurado para o horário de 19:17.
02/03/2019 19:41:43: O serviço está configurado para o horário de 19:17.
02/03/2019 19:42:43: O serviço está configurado para o horário de 19:17.
02/03/2019 19:43:43: O serviço está configurado para o horário de 19:17.
02/03/2019 19:44:43: O serviço está configurado para o horário de 19:17.
02/03/2019 19:45:43: O serviço está configurado para o horário de 19:17.
02/03/2019 19:46:43: O serviço está configurado para o horário de 19:17.
02/03/2019 19:47:43: O serviço está configurado para o horário de 19:17.
02/03/2019 19:48:43: O serviço está configurado para o horário de 19:17.
02/03/2019 19:49:43: O serviço está configurado para o horário de 19:17.
02/03/2019 19:50:43: O serviço está configurado para o horário de 19:17.
02/03/2019 19:51:43: O serviço está configurado para o horário de 19:17.
02/03/2019 19:52:43: O serviço está configurado para o horário de 19:17.
02/03/2019 19:53:43: O serviço está configurado para o horário de 19:17.
02/03/2019 19:54:43: O serviço está configurado para o horário de 19:17.
02/03/2019 19:55:43: O serviço está configurado para o horário de 19:17.
02/03/2019 19:56:43: O serviço está configurado para o horário de 19:17.
02/03/2019 19:57:43: O serviço está configurado para o horário de 19:17.
02/03/2019 19:58:43: O serviço está configurado para o horário de 19:17.
02/03/2019 19:59:43: O serviço está configurado para o horário de 19:17.
02/03/2019 20:00:43: O serviço está configurado para o horário de 19:17.
02/03/2019 20:01:43: O serviço está configurado para o horário de 19:17.
02/03/2019 20:02:43: O serviço está configurado para o horário de 19:17.
02/03/2019 20:03:43: O serviço está configurado para o horário de 19:17.
02/03/2019 20:04:43: O serviço está configurado para o horário de 19:17.
02/03/2019 20:05:43: O serviço está configurado para o horário de 19:17.
02/03/2019 20:06:43: O serviço está configurado para o horário de 19:17.
02/03/2019 20:07:43: O serviço está configurado para o horário de 19:17.
02/03/2019 20:08:43: O serviço está configurado para o horário de 19:17.
02/03/2019 20:09:43: O serviço está configurado para o horário de 19:17.
02/03/2019 20:10:43: O serviço está configurado para o horário de 19:17.
02/03/2019 20:11:43: O serviço está configurado para o horário de 19:17.
02/03/2019 20:12:43: O serviço está configurado para o horário de 19:17.
02/03/2019 20:13:43: O serviço está configurado para o horário de 19:17.
02/03/2019 20:14:43: O serviço está configurado para o horário de 19:17.
02/03/2019 20:15:43: O serviço está configurado para o horário de 19:17.
02/03/2019 20:16:43: O serviço está configurado para o horário de 19:17.
02/03/2019 20:17:43: O serviço está configurado para o horário de 19:17.
02/03/2019 20:18:43: O serviço está configurado para o horário de 19:17.
02/03/2019 20:19:44: O serviço está configurado para o horário de 19:17.
02/03/2019 20:20:44: O serviço está configurado para o horário de 19:17.
02/03/2019 20:21:44: O serviço está configurado para o horário de 19:17.
02/03/2019 20:22:44: O serviço está configurado para o horário de 19:17.
02/03/2019 20:23:44: O serviço está configurado para o horário de 19:17.
02/03/2019 20:24:44: O serviço está configurado para o horário de 19:17.
02/03/2019 20:25:44: O serviço está configurado para o horário de 19:17.
02/03/2019 20:26:44: O serviço está configurado para o horário de 19:17.
02/03/2019 20:27:44: O serviço está configurado para o horário de 19:17.
02/03/2019 20:28:44: O serviço está configurado para o horário de 19:17.
02/03/2019 20:29:44: O serviço está configurado para o horário de 19:17.
02/03/2019 20:30:44: O serviço está configurado para o horário de 19:17.
02/03/2019 20:31:44: O serviço está configurado para o horário de 19:17.
02/03/2019 20:32:44: O serviço está configurado para o horário de 19:17.
02/03/2019 20:33:44: O serviço está configurado para o horário de 19:17.
02/03/2019 20:34:44: O serviço está configurado para o horário de 19:17.
02/03/2019 20:35:44: O serviço está configurado para o horário de 19:17.
02/03/2019 20:36:44: O serviço está configurado para o horário de 19:17.
02/03/2019 20:37:44: O serviço está configurado para o horário de 19:17.
02/03/2019 20:38:44: O serviço está configurado para o horário de 19:17.
02/03/2019 20:39:44: O serviço está configurado para o horário de 19:17.
02/03/2019 20:40:44: O serviço está configurado para o horário de 19:17.
02/03/2019 20:41:44: O serviço está configurado para o horário de 19:17.
02/03/2019 20:42:44: O serviço está configurado para o horário de 19:17.
02/03/2019 20:43:44: O serviço está configurado para o horário de 19:17.
02/03/2019 20:44:44: O serviço está configurado para o horário de 19:17.
02/03/2019 20:45:44: O serviço está configurado para o horário de 19:17.
02/03/2019 20:46:44: O serviço está configurado para o horário de 19:17.
02/03/2019 20:47:44: O serviço está configurado para o horário de 19:17.
02/03/2019 20:48:44: O serviço está configurado para o horário de 19:17.
02/03/2019 20:49:44: O serviço está configurado para o horário de 19:17.
02/03/2019 20:50:44: O serviço está configurado para o horário de 19:17.
02/03/2019 20:51:44: O serviço está configurado para o horário de 19:17.
02/03/2019 20:52:44: O serviço está configurado para o horário de 19:17.
02/03/2019 20:53:44: O serviço está configurado para o horário de 19:17.
02/03/2019 20:54:44: O serviço está configurado para o horário de 19:17.
02/03/2019 20:55:44: O serviço está configurado para o horário de 19:17.
02/03/2019 20:56:44: O serviço está configurado para o horário de 19:17.
02/03/2019 20:57:44: O serviço está configurado para o horário de 19:17.
02/03/2019 20:58:44: O serviço está configurado para o horário de 19:17.
02/03/2019 20:59:44: O serviço está configurado para o horário de 19:17.
02/03/2019 21:00:44: O serviço está configurado para o horário de 19:17.
02/03/2019 21:01:44: O serviço está configurado para o horário de 19:17.
02/03/2019 21:02:44: O serviço está configurado para o horário de 19:17.
02/03/2019 21:03:44: O serviço está configurado para o horário de 19:17.
02/03/2019 21:04:44: O serviço está configurado para o horário de 19:17.
02/03/2019 21:05:44: O serviço está configurado para o horário de 19:17.
02/03/2019 21:06:44: O serviço está configurado para o horário de 19:17.
02/03/2019 21:07:44: O serviço está configurado para o horário de 19:17.
02/03/2019 21:08:44: O serviço está configurado para o horário de 19:17.
02/03/2019 21:09:44: O serviço está configurado para o horário de 19:17.
02/03/2019 21:10:44: O serviço está configurado para o horário de 19:17.
02/03/2019 21:11:44: O serviço está configurado para o horário de 19:17.
02/03/2019 21:12:44: O serviço está configurado para o horário de 19:17.
02/03/2019 21:13:44: O serviço está configurado para o horário de 19:17.
02/03/2019 21:14:44: O serviço está configurado para o horário de 19:17.
02/03/2019 21:15:44: O serviço está configurado para o horário de 19:17.
02/03/2019 21:16:44: O serviço está configurado para o horário de 19:17.
02/03/2019 21:17:44: O serviço está configurado para o horário de 19:17.
02/03/2019 21:18:44: O serviço está configurado para o horário de 19:17.
02/03/2019 21:19:44: O serviço está configurado para o horário de 19:17.
02/03/2019 21:20:44: O serviço está configurado para o horário de 19:17.
02/03/2019 21:21:44: O serviço está configurado para o horário de 19:17.
02/03/2019 21:22:44: O serviço está configurado para o horário de 19:17.
02/03/2019 21:23:44: O serviço está configurado para o horário de 19:17.
02/03/2019 21:24:44: O serviço está configurado para o horário de 19:17.
02/03/2019 21:25:44: O serviço está configurado para o horário de 19:17.
02/03/2019 21:26:44: O serviço está configurado para o horário de 19:17.
02/03/2019 21:27:44: O serviço está configurado para o horário de 19:17.
02/03/2019 21:28:44: O serviço está configurado para o horário de 19:17.
02/03/2019 21:29:44: O serviço está configurado para o horário de 19:17.
02/03/2019 21:30:44: O serviço está configurado para o horário de 19:17.
02/03/2019 21:31:44: O serviço está configurado para o horário de 19:17.
02/03/2019 21:32:45: O serviço está configurado para o horário de 19:17.
02/03/2019 21:33:45: O serviço está configurado para o horário de 19:17.
02/03/2019 21:34:45: O serviço está configurado para o horário de 19:17.
02/03/2019 21:35:45: O serviço está configurado para o horário de 19:17.
02/03/2019 21:36:45: O serviço está configurado para o horário de 19:17.
02/03/2019 21:37:45: O serviço está configurado para o horário de 19:17.
02/03/2019 21:38:45: O serviço está configurado para o horário de 19:17.
02/03/2019 21:39:45: O serviço está configurado para o horário de 19:17.
02/03/2019 21:40:45: O serviço está configurado para o horário de 19:17.
02/03/2019 21:41:45: O serviço está configurado para o horário de 19:17.
02/03/2019 21:42:45: O serviço está configurado para o horário de 19:17.
02/03/2019 21:43:45: O serviço está configurado para o horário de 19:17.
02/03/2019 21:44:45: O serviço está configurado para o horário de 19:17.
02/03/2019 21:45:45: O serviço está configurado para o horário de 19:17.
02/03/2019 21:46:45: O serviço está configurado para o horário de 19:17.
02/03/2019 21:47:45: O serviço está configurado para o horário de 19:17.
02/03/2019 21:48:45: O serviço está configurado para o horário de 19:17.
02/03/2019 21:49:45: O serviço está configurado para o horário de 19:17.
02/03/2019 21:50:45: O serviço está configurado para o horário de 19:17.
02/03/2019 21:51:45: O serviço está configurado para o horário de 19:17.
02/03/2019 21:52:45: O serviço está configurado para o horário de 19:17.
02/03/2019 21:53:45: O serviço está configurado para o horário de 19:17.
02/03/2019 21:54:45: O serviço está configurado para o horário de 19:17.
02/03/2019 21:55:45: O serviço está configurado para o horário de 19:17.
02/03/2019 21:56:45: O serviço está configurado para o horário de 19:17.
02/03/2019 21:57:45: O serviço está configurado para o horário de 19:17.
02/03/2019 21:58:45: O serviço está configurado para o horário de 19:17.
02/03/2019 21:59:45: O serviço está configurado para o horário de 19:17.
02/03/2019 22:00:45: O serviço está configurado para o horário de 19:17.
02/03/2019 22:01:45: O serviço está configurado para o horário de 19:17.
02/03/2019 22:02:45: O serviço está configurado para o horário de 19:17.
02/03/2019 22:03:45: O serviço está configurado para o horário de 19:17.
02/03/2019 22:04:45: O serviço está configurado para o horário de 19:17.
02/03/2019 22:05:45: O serviço está configurado para o horário de 19:17.
02/03/2019 22:06:45: O serviço está configurado para o horário de 19:17.
02/03/2019 22:07:45: O serviço está configurado para o horário de 19:17.
02/03/2019 22:08:45: O serviço está configurado para o horário de 19:17.
02/03/2019 22:09:45: O serviço está configurado para o horário de 19:17.
02/03/2019 22:10:45: O serviço está configurado para o horário de 19:17.
02/03/2019 22:11:45: O serviço está configurado para o horário de 19:17.
02/03/2019 22:12:45: O serviço está configurado para o horário de 19:17.
02/03/2019 22:13:45: O serviço está configurado para o horário de 19:17.
02/03/2019 22:14:45: O serviço está configurado para o horário de 19:17.
02/03/2019 22:15:45: O serviço está configurado para o horário de 19:17.
02/03/2019 22:16:45: O serviço está configurado para o horário de 19:17.
02/03/2019 22:17:45: O serviço está configurado para o horário de 19:17.
02/03/2019 22:18:45: O serviço está configurado para o horário de 19:17.
02/03/2019 22:19:45: O serviço está configurado para o horário de 19:17.
02/03/2019 22:20:45: O serviço está configurado para o horário de 19:17.
02/03/2019 22:21:45: O serviço está configurado para o horário de 19:17.
02/03/2019 22:22:45: O serviço está configurado para o horário de 19:17.
02/03/2019 22:23:45: O serviço está configurado para o horário de 19:17.
02/03/2019 22:24:45: O serviço está configurado para o horário de 19:17.
02/03/2019 22:44:45: O serviço está configurado para o horário de 19:17.
02/03/2019 22:45:45: O serviço está configurado para o horário de 19:17.
02/03/2019 22:46:45: O serviço está configurado para o horário de 19:17.
02/03/2019 22:47:45: O serviço está configurado para o horário de 19:17.
02/03/2019 22:48:45: O serviço está configurado para o horário de 19:17.
02/03/2019 22:49:45: O serviço está configurado para o horário de 19:17.
02/03/2019 22:50:45: O serviço está configurado para o horário de 19:17.
02/03/2019 22:51:45: O serviço está configurado para o horário de 19:17.
02/03/2019 22:52:45: O serviço está configurado para o horário de 19:17.
02/03/2019 22:53:45: O serviço está configurado para o horário de 19:17.
02/03/2019 22:54:45: O serviço está configurado para o horário de 19:17.
02/03/2019 22:55:45: O serviço está configurado para o horário de 19:17.
02/03/2019 22:56:45: O serviço está configurado para o horário de 19:17.
02/03/2019 22:57:45: O serviço está configurado para o horário de 19:17.
02/03/2019 22:58:45: O serviço está configurado para o horário de 19:17.
02/03/2019 22:59:45: O serviço está configurado para o horário de 19:17.
02/03/2019 23:00:45: O serviço está configurado para o horário de 19:17.
02/03/2019 23:01:45: O serviço está configurado para o horário de 19:17.
02/03/2019 23:02:45: O serviço está configurado para o horário de 19:17.
02/03/2019 23:03:45: O serviço está configurado para o horário de 19:17.
02/03/2019 23:04:45: O serviço está configurado para o horário de 19:17.
02/03/2019 23:05:45: O serviço está configurado para o horário de 19:17.
02/03/2019 23:06:45: O serviço está configurado para o horário de 19:17.
02/03/2019 23:07:45: O serviço está configurado para o horário de 19:17.
02/03/2019 23:08:45: O serviço está configurado para o horário de 19:17.
02/03/2019 23:09:45: O serviço está configurado para o horário de 19:17.
02/03/2019 23:10:45: O serviço está configurado para o horário de 19:17.
02/03/2019 23:11:45: O serviço está configurado para o horário de 19:17.
02/03/2019 23:12:45: O serviço está configurado para o horário de 19:17.
02/03/2019 23:13:45: O serviço está configurado para o horário de 19:17.
02/03/2019 23:14:45: O serviço está configurado para o horário de 19:17.
02/03/2019 23:15:45: O serviço está configurado para o horário de 19:17.
02/03/2019 23:16:45: O serviço está configurado para o horário de 19:17.
02/03/2019 23:17:45: O serviço está configurado para o horário de 19:17.
02/03/2019 23:18:45: O serviço está configurado para o horário de 19:17.
02/03/2019 23:19:46: O serviço está configurado para o horário de 19:17.
02/03/2019 23:20:46: O serviço está configurado para o horário de 19:17.
02/03/2019 23:21:46: O serviço está configurado para o horário de 19:17.
02/03/2019 23:22:46: O serviço está configurado para o horário de 19:17.
02/03/2019 23:23:46: O serviço está configurado para o horário de 19:17.
02/03/2019 23:24:46: O serviço está configurado para o horário de 19:17.
02/03/2019 23:25:46: O serviço está configurado para o horário de 19:17.
02/03/2019 23:26:46: O serviço está configurado para o horário de 19:17.
