04/04/2019 17:34:43: O serviço está no modo manual.
04/04/2019 17:34:43: O serviço está configurado para o horário de 17:35.
04/04/2019 17:35:07: O serviço está no modo manual.
04/04/2019 17:35:07: O serviço está configurado para o horário de 17:38.
04/04/2019 17:36:07: O serviço está configurado para o horário de 17:38.
04/04/2019 17:37:07: O serviço está configurado para o horário de 17:38.
04/04/2019 17:38:07: O serviço está configurado para o horário de 17:38.
04/04/2019 17:38:07: Está na hora de buscar a expiração do suitability.
04/04/2019 17:38:07: Procurando os prazos...
04/04/2019 17:38:11: Error: The server principal "qx3" is not able to access the database "SEGREGADA" under the current security context. - System.Data.SqlClient.SqlException (0x80131904): The server principal "qx3" is not able to access the database "SEGREGADA" under the current security context.
   em System.Data.SqlClient.SqlConnection.OnError(SqlException exception, Boolean breakConnection, Action`1 wrapCloseInAction)
   em System.Data.SqlClient.SqlInternalConnection.OnError(SqlException exception, Boolean breakConnection, Action`1 wrapCloseInAction)
   em System.Data.SqlClient.TdsParser.ThrowExceptionAndWarning(TdsParserStateObject stateObj, Boolean callerHasConnectionLock, Boolean asyncClose)
   em System.Data.SqlClient.TdsParser.TryRun(RunBehavior runBehavior, SqlCommand cmdHandler, SqlDataReader dataStream, BulkCopySimpleResultSet bulkCopyHandler, TdsParserStateObject stateObj, Boolean& dataReady)
   em System.Data.SqlClient.SqlDataReader.TryConsumeMetaData()
   em System.Data.SqlClient.SqlDataReader.get_MetaData()
   em System.Data.SqlClient.SqlCommand.FinishExecuteReader(SqlDataReader ds, RunBehavior runBehavior, String resetOptionsString)
   em System.Data.SqlClient.SqlCommand.RunExecuteReaderTds(CommandBehavior cmdBehavior, RunBehavior runBehavior, Boolean returnStream, Boolean async, Int32 timeout, Task& task, Boolean asyncWrite, SqlDataReader ds, Boolean describeParameterEncryptionRequest)
   em System.Data.SqlClient.SqlCommand.RunExecuteReader(CommandBehavior cmdBehavior, RunBehavior runBehavior, Boolean returnStream, String method, TaskCompletionSource`1 completion, Int32 timeout, Task& task, Boolean asyncWrite)
   em System.Data.SqlClient.SqlCommand.RunExecuteReader(CommandBehavior cmdBehavior, RunBehavior runBehavior, Boolean returnStream, String method)
   em System.Data.SqlClient.SqlCommand.ExecuteReader(CommandBehavior behavior, String method)
   em System.Data.SqlClient.SqlCommand.ExecuteReader()
   em QX3.Portal.Services.Data.SuitabilityDAL.GetCorporateInfo(Int64[] documentNumbers) na C:\BR Partners\brpartners-tegra\brpartners-tegra\service\Data\Suitability\SuitabilityDAL.cs:linha 1331
   em QX3.Portal.Services.Business.SuitabilityMethods.SelecionaClientesSuitability(Nullable`1 idClienteGlobal, Nullable`1 cpfcnpj, String cdCliente, String status, String investidor, String desenquadrado) na C:\BR Partners\brpartners-tegra\brpartners-tegra\service\Business\Suitability\SuitabilityMethods.cs:linha 151
ClientConnectionId:2014cadf-f551-4d54-9479-0a8d6fc74a14
Error Number:916,State:1,Class:14 -    em QX3.Portal.Services.Business.SuitabilityMethods.SelecionaClientesSuitability(Nullable`1 idClienteGlobal, Nullable`1 cpfcnpj, String cdCliente, String status, String investidor, String desenquadrado) na C:\BR Partners\brpartners-tegra\brpartners-tegra\service\Business\Suitability\SuitabilityMethods.cs:linha 171
   em QX3.Portal.SuitabilityExpiry.SuitabilityExpiryService.GetClients() na C:\GIT\BRP-Portal-Merge-180119\brpartners-tegra\brpartners-tegra\solutions\BrPartners.Portal\QX3.Portal.SuitabilityExpiry\SuitabilityExpiryService.cs:linha 181
   em QX3.Portal.SuitabilityExpiry.SuitabilityExpiryService.Search() na C:\GIT\BRP-Portal-Merge-180119\brpartners-tegra\brpartners-tegra\solutions\BrPartners.Portal\QX3.Portal.SuitabilityExpiry\SuitabilityExpiryService.cs:linha 98
   em QX3.Portal.SuitabilityExpiry.SuitabilityExpiryService.Execute() na C:\GIT\BRP-Portal-Merge-180119\brpartners-tegra\brpartners-tegra\solutions\BrPartners.Portal\QX3.Portal.SuitabilityExpiry\SuitabilityExpiryService.cs:linha 68
04/04/2019 17:39:11: O serviço está configurado para o horário de 17:38.
04/04/2019 17:40:11: O serviço está configurado para o horário de 17:38.
04/04/2019 17:41:11: O serviço está configurado para o horário de 17:38.
04/04/2019 17:42:11: O serviço está configurado para o horário de 17:38.
04/04/2019 17:43:11: O serviço está configurado para o horário de 17:38.
04/04/2019 17:44:11: O serviço está configurado para o horário de 17:38.
04/04/2019 17:45:11: O serviço está configurado para o horário de 17:38.
